Wildcard constraints in inputs are ignored.
Building DAG of jobs...
Using shell: /usr/bin/bash
Provided cores: 32
Rules claiming more threads will be scaled down.
Job counts:
	count	jobs
	1	stats
	1

[Mon Apr 29 09:33:44 2019]
rule stats:
    input: /fast/users/helmsauk_c/scratch/Henssen_RMSPDX_NanoporeWGS_Feb2019/Alignment/rms1-4-alignment/rms1-4.Sample02.minimap_hg19.sorted.bam
    output: /fast/users/helmsauk_c/scratch/Henssen_RMSPDX_NanoporeWGS_Feb2019/Alignment/rms1-4-alignment/rms1-4.Sample02.minimap_hg19.sorted.stats.txt
    jobid: 0
    wildcards: run=rms1-4, dataset=rms1-4.Sample02, alignment=minimap_hg19, filtered=


        samtools stats /fast/users/helmsauk_c/scratch/Henssen_RMSPDX_NanoporeWGS_Feb2019/Alignment/rms1-4-alignment/rms1-4.Sample02.minimap_hg19.sorted.bam > /fast/users/helmsauk_c/scratch/Henssen_RMSPDX_NanoporeWGS_Feb2019/Alignment/rms1-4-alignment/rms1-4.Sample02.minimap_hg19.sorted.stats.txt
        
[Mon Apr 29 09:33:50 2019]
Finished job 0.
1 of 1 steps (100%) done
