Wildcard constraints in inputs are ignored.
Building DAG of jobs...
Using shell: /usr/bin/bash
Provided cores: 32
Rules claiming more threads will be scaled down.
Job counts:
	count	jobs
	1	minimap2genome_sam
	1

[Mon Apr 29 09:31:57 2019]
rule minimap2genome_sam:
    input: /fast/users/helmsauk_c/scratch/Henssen_RMSPDX_NanoporeWGS_Feb2019/Basecalled/rms1-4-basecalled/demultiplexed/rms1-4.NoBarcode.fastq, /fast/users/helmsauk_c/work/resources/hg19.mmi
    output: /fast/users/helmsauk_c/scratch/Henssen_RMSPDX_NanoporeWGS_Feb2019/Alignment/rms1-4-alignment/rms1-4.Sample03.minimap_hg19.sam
    jobid: 0
    wildcards: run=rms1-4, dataset=rms1-4.Sample03

minimap2 -ax map-ont /fast/users/helmsauk_c/work/resources/hg19.mmi /fast/users/helmsauk_c/scratch/Henssen_RMSPDX_NanoporeWGS_Feb2019/Basecalled/rms1-4-basecalled/demultiplexed/rms1-4.NoBarcode.fastq > /fast/users/helmsauk_c/scratch/Henssen_RMSPDX_NanoporeWGS_Feb2019/Alignment/rms1-4-alignment/rms1-4.Sample03.minimap_hg19.sam
[M::main::7.760*0.98] loaded/built the index for 84 target sequence(s)
[M::mm_mapopt_update::9.057*0.98] mid_occ = 603
[M::mm_idx_stat] kmer size: 15; skip: 10; is_hpc: 0; #seq: 84
[M::mm_idx_stat::9.840*0.98] distinct minimizers: 100013811 (38.83% are singletons); average occurrences: 5.403; average spacing: 5.741
[M::worker_pipeline::68.645*2.64] mapped 30468 sequences
[M::main] Version: 2.16-r922
[M::main] CMD: minimap2 -ax map-ont /fast/users/helmsauk_c/work/resources/hg19.mmi /fast/users/helmsauk_c/scratch/Henssen_RMSPDX_NanoporeWGS_Feb2019/Basecalled/rms1-4-basecalled/demultiplexed/rms1-4.NoBarcode.fastq
[M::main] Real time: 69.249 sec; CPU: 181.919 sec; Peak RSS: 8.723 GB
[Mon Apr 29 09:33:07 2019]
Finished job 0.
1 of 1 steps (100%) done
