Wildcard constraints in inputs are ignored.
Building DAG of jobs...
Using shell: /usr/bin/bash
Provided cores: 32
Rules claiming more threads will be scaled down.
Job counts:
	count	jobs
	1	sniffles
	1

[Mon Apr 29 09:51:05 2019]
rule sniffles:
    input: /fast/users/helmsauk_c/scratch/Henssen_RMSPDX_NanoporeWGS_Feb2019/Alignment/rms1-4-alignment/rms1-4.Sample04.ngmlr_hg19.sorted.bam
    output: /fast/users/helmsauk_c/scratch/Henssen_RMSPDX_NanoporeWGS_Feb2019/SV/rms1-4-sv/rms1-4.Sample04.ngmlr_hg19.sorted.sniffles.vcf
    jobid: 0
    wildcards: run=rms1-4, dataset=rms1-4.Sample04, alignment=ngmlr_hg19

sniffles -m /fast/users/helmsauk_c/scratch/Henssen_RMSPDX_NanoporeWGS_Feb2019/Alignment/rms1-4-alignment/rms1-4.Sample04.ngmlr_hg19.sorted.bam -v /fast/users/helmsauk_c/scratch/Henssen_RMSPDX_NanoporeWGS_Feb2019/SV/rms1-4-sv/rms1-4.Sample04.ngmlr_hg19.sorted.sniffles.vcf
Estimating parameter...
	Max dist between aln events: 8
	Max diff in window: 50
	Min score ratio: 2
	Avg DEL ratio: 0.0415668
	Avg INS ratio: 0.0227152
Start parsing... chr1
	Switch Chr chr10
	Switch Chr chr11
	Switch Chr chr12
	Switch Chr chr13
	Switch Chr chr14
	Switch Chr chr15
	Switch Chr chr16
	Switch Chr chr17
	Switch Chr chr17_gl000205_random
	Switch Chr chr18
	Switch Chr chr19
		# Processed reads: 10000
	Switch Chr chr19_gl000208_random
	Switch Chr chr1_gl000192_random
	Switch Chr chr2
	Switch Chr chr20
	Switch Chr chr21
	Switch Chr chr22
	Switch Chr chr3
	Switch Chr chr4
	Switch Chr chr4_gl000194_random
	Switch Chr chr5
	Switch Chr chr6
		# Processed reads: 20000
	Switch Chr chr7
	Switch Chr chr7_gl000195_random
	Switch Chr chr8
	Switch Chr chr9
	Switch Chr chr9_gl000198_random
	Switch Chr chr9_gl000199_random
	Switch Chr chrM
	Switch Chr chrUn_gl000211
	Switch Chr chrUn_gl000214
	Switch Chr chrUn_gl000216
	Switch Chr chrUn_gl000218
	Switch Chr chrUn_gl000219
	Switch Chr chrUn_gl000220
	Switch Chr chrUn_gl000224
	Switch Chr chrUn_gl000225
	Switch Chr chrUn_gl000227
	Switch Chr chrUn_gl000230
	Switch Chr chrUn_gl000231
	Switch Chr chrUn_gl000232
	Switch Chr chrUn_gl000234
	Switch Chr chrUn_gl000235
	Switch Chr chrUn_gl000241
	Switch Chr chrX
	Switch Chr chrY
Finalizing  ..
[Mon Apr 29 09:51:11 2019]
Finished job 0.
1 of 1 steps (100%) done
