Wildcard constraints in inputs are ignored.
Building DAG of jobs...
Using shell: /usr/bin/bash
Provided cores: 32
Rules claiming more threads will be scaled down.
Job counts:
	count	jobs
	1	ngmlr2genome
	1

[Mon Apr 29 09:28:59 2019]
rule ngmlr2genome:
    input: /fast/users/helmsauk_c/scratch/Henssen_RMSPDX_NanoporeWGS_Feb2019/Basecalled/rms1-4-basecalled/demultiplexed/rms1-4.NoBarcode.fastq, /fast/projects/cubit/current/static_data/reference/hg19/ucsc/hg19.fa
    output: /fast/users/helmsauk_c/scratch/Henssen_RMSPDX_NanoporeWGS_Feb2019/Alignment/rms1-4-alignment/rms1-4.Sample01.ngmlr_hg19.sam
    jobid: 0
    wildcards: run=rms1-4, dataset=rms1-4.Sample01

ngmlr -r /fast/projects/cubit/current/static_data/reference/hg19/ucsc/hg19.fa -q /fast/users/helmsauk_c/scratch/Henssen_RMSPDX_NanoporeWGS_Feb2019/Basecalled/rms1-4-basecalled/demultiplexed/rms1-4.NoBarcode.fastq -o /fast/users/helmsauk_c/scratch/Henssen_RMSPDX_NanoporeWGS_Feb2019/Alignment/rms1-4-alignment/rms1-4.Sample01.ngmlr_hg19.sam -x ont
ngmlr 0.2.7 (build: Mar  8 2019 09:29:16, start: 2019-04-29.09:29:00)
Contact: philipp.rescheneder@univie.ac.at
Opening for output (SAM): /fast/users/helmsauk_c/scratch/Henssen_RMSPDX_NanoporeWGS_Feb2019/Alignment/rms1-4-alignment/rms1-4.Sample01.ngmlr_hg19.sam
Encoding reference sequence.
Size of reference genome 3101 Mbp (max. 68719 Mbp)
0 reference sequences were skipped (length < 10).
Writing encoded reference to /fast/projects/cubit/current/static_data/reference/hg19/ucsc/hg19.fa-enc.2.ngm
WARNING: Could not write encoded reference file to disk: Unable to open output file /fast/projects/cubit/current/static_data/reference/hg19/ucsc/hg19.fa-enc.2.ngm. Please check file permissions.
Building reference index #0 (kmer length: 13, reference skip: 2)
57552 prefixes were ignored due to the frequency cutoff (1000)
Overall time for creating RefTable: 270.59s
Writing reference index to /fast/projects/cubit/current/static_data/reference/hg19/ucsc/hg19.fa-ht-13-2.2.ngm
WARNING: Could not write reference index to disk: Error while opening file /fast/projects/cubit/current/static_data/reference/hg19/ucsc/hg19.fa-ht-13-2.2.ngm for writing. Please check file permissions.
Opening query file /fast/users/helmsauk_c/scratch/Henssen_RMSPDX_NanoporeWGS_Feb2019/Basecalled/rms1-4-basecalled/demultiplexed/rms1-4.NoBarcode.fastq
Mapping reads...
Processed: 59 (0.86), R/S: 29.50, RL: 3921, Time: 26.50 3.91 60.97, Align: 1.00, 374, 0.83
[A[2KProcessed: 129 (0.91), R/S: 32.25, RL: 3698, Time: 23.59 4.00 66.84, Align: 1.00, 481, 0.86
[A[2KProcessed: 154 (0.92), R/S: 25.66, RL: 4038, Time: 21.45 4.00 64.85, Align: 1.00, 456, 0.87
[A[2KProcessed: 216 (0.91), R/S: 27.00, RL: 4011, Time: 20.99 5.23 61.67, Align: 1.00, 435, 0.87
[A[2KProcessed: 259 (0.90), R/S: 25.90, RL: 4138, Time: 21.00 5.58 63.23, Align: 1.00, 429, 0.88
[A[2KProcessed: 313 (0.89), R/S: 26.08, RL: 4340, Time: 21.00 5.98 63.05, Align: 1.00, 417, 0.88
[A[2KProcessed: 355 (0.90), R/S: 25.35, RL: 4475, Time: 21.00 6.00 63.75, Align: 1.00, 417, 0.89
[A[2KProcessed: 402 (0.90), R/S: 25.12, RL: 4619, Time: 21.00 6.00 64.96, Align: 1.00, 411, 0.89
[A[2KProcessed: 430 (0.89), R/S: 23.89, RL: 4708, Time: 19.62 5.50 65.00, Align: 1.00, 410, 0.89
[A[2KProcessed: 509 (0.89), R/S: 25.45, RL: 4480, Time: 19.00 5.00 66.74, Align: 1.00, 400, 0.89
[A[2KProcessed: 554 (0.88), R/S: 25.18, RL: 4550, Time: 19.00 5.00 67.49, Align: 1.00, 400, 0.90
[A[2KProcessed: 616 (0.87), R/S: 25.66, RL: 4455, Time: 18.02 5.00 68.51, Align: 1.00, 400, 0.90
[A[2KProcessed: 657 (0.87), R/S: 25.27, RL: 4497, Time: 18.88 5.00 68.03, Align: 1.00, 400, 0.90
[A[2KProcessed: 711 (0.86), R/S: 25.39, RL: 4614, Time: 18.01 5.00 68.98, Align: 1.00, 399, 0.90
[A[2KProcessed: 753 (0.86), R/S: 25.10, RL: 4605, Time: 18.00 4.06 69.94, Align: 1.00, 397, 0.90
[A[2KProcessed: 824 (0.86), R/S: 25.75, RL: 4548, Time: 18.00 4.00 70.22, Align: 1.00, 392, 0.90
[A[2KProcessed: 898 (0.86), R/S: 26.41, RL: 4493, Time: 18.00 4.00 70.50, Align: 1.00, 388, 0.90
[A[2KProcessed: 970 (0.86), R/S: 26.94, RL: 4487, Time: 18.94 4.00 70.01, Align: 1.00, 385, 0.90
[A[2KProcessed: 1014 (0.87), R/S: 26.68, RL: 4509, Time: 19.00 4.00 70.88, Align: 1.00, 385, 0.90
[A[2KProcessed: 1078 (0.87), R/S: 26.95, RL: 4457, Time: 19.00 4.00 70.01, Align: 1.00, 387, 0.90
[A[2KProcessed: 1083 (0.87), R/S: 25.78, RL: 4501, Time: 19.00 4.00 70.01, Align: 1.00, 392, 0.90
[A[2KProcessed: 1129 (0.87), R/S: 25.66, RL: 4520, Time: 18.06 4.00 70.94, Align: 1.00, 390, 0.90
[A[2KProcessed: 1178 (0.87), R/S: 25.61, RL: 4518, Time: 18.00 4.00 71.00, Align: 1.00, 393, 0.90
[A[2KProcessed: 1240 (0.87), R/S: 25.83, RL: 4546, Time: 18.50 4.00 71.00, Align: 1.00, 390, 0.90
[A[2KProcessed: 1285 (0.87), R/S: 25.70, RL: 4553, Time: 18.34 4.00 71.00, Align: 1.00, 389, 0.90
[A[2KProcessed: 1350 (0.88), R/S: 25.96, RL: 4493, Time: 18.00 4.00 70.50, Align: 1.00, 387, 0.90
[A[2KProcessed: 1423 (0.88), R/S: 26.35, RL: 4499, Time: 18.99 4.00 70.00, Align: 1.00, 385, 0.90
[A[2KProcessed: 1425 (0.88), R/S: 25.44, RL: 4492, Time: 18.99 4.00 70.00, Align: 1.00, 388, 0.90
[A[2KProcessed: 1459 (0.88), R/S: 25.15, RL: 4481, Time: 18.12 4.00 71.63, Align: 1.00, 389, 0.90
[A[2KProcessed: 1502 (0.88), R/S: 25.03, RL: 4532, Time: 18.00 4.00 71.99, Align: 1.00, 388, 0.90
[A[2KProcessed: 1576 (0.88), R/S: 25.42, RL: 4473, Time: 18.00 4.00 72.00, Align: 1.00, 387, 0.90
[A[2KProcessed: 1632 (0.88), R/S: 25.50, RL: 4477, Time: 17.25 4.00 72.00, Align: 1.00, 387, 0.90
[A[2KProcessed: 1688 (0.88), R/S: 25.57, RL: 4495, Time: 17.01 4.00 72.00, Align: 1.00, 386, 0.90
[A[2KProcessed: 1749 (0.88), R/S: 25.72, RL: 4492, Time: 17.00 4.00 72.00, Align: 1.00, 385, 0.90
[A[2KProcessed: 1810 (0.89), R/S: 25.85, RL: 4529, Time: 17.00 4.00 72.97, Align: 1.00, 383, 0.90
[A[2KProcessed: 1863 (0.89), R/S: 25.87, RL: 4540, Time: 17.00 4.00 73.00, Align: 1.00, 383, 0.90
[A[2KProcessed: 1892 (0.89), R/S: 25.56, RL: 4569, Time: 17.00 4.00 73.00, Align: 1.00, 384, 0.90
[A[2KProcessed: 1923 (0.89), R/S: 25.30, RL: 4588, Time: 17.00 4.00 73.00, Align: 1.00, 383, 0.90
[A[2KProcessed: 1992 (0.89), R/S: 25.54, RL: 4558, Time: 17.00 4.00 72.01, Align: 1.00, 382, 0.90
[A[2KProcessed: 2052 (0.89), R/S: 25.65, RL: 4565, Time: 17.00 4.00 72.00, Align: 1.00, 380, 0.90
[A[2KProcessed: 2109 (0.89), R/S: 25.72, RL: 4582, Time: 17.00 4.00 72.00, Align: 1.00, 380, 0.90
[A[2KProcessed: 2127 (0.89), R/S: 25.32, RL: 4587, Time: 17.00 4.00 72.00, Align: 1.00, 382, 0.90
[A[2KProcessed: 2184 (0.89), R/S: 25.39, RL: 4570, Time: 17.00 4.00 72.03, Align: 1.00, 381, 0.89
[A[2KProcessed: 2252 (0.89), R/S: 25.59, RL: 4587, Time: 17.00 4.00 72.25, Align: 1.00, 381, 0.89
[A[2KProcessed: 2305 (0.89), R/S: 25.61, RL: 4591, Time: 17.00 4.00 72.01, Align: 1.00, 380, 0.90
[A[2KProcessed: 2364 (0.89), R/S: 25.69, RL: 4567, Time: 16.02 4.00 72.00, Align: 1.00, 380, 0.89
[A[2KProcessed: 2415 (0.89), R/S: 25.69, RL: 4594, Time: 16.00 4.00 72.88, Align: 1.00, 381, 0.89
[A[2KProcessed: 2490 (0.89), R/S: 25.93, RL: 4581, Time: 16.00 4.00 73.00, Align: 1.00, 381, 0.89
[A[2KProcessed: 2551 (0.89), R/S: 26.03, RL: 4574, Time: 16.00 4.00 73.00, Align: 1.00, 380, 0.89
[A[2KProcessed: 2611 (0.89), R/S: 26.11, RL: 4585, Time: 16.00 4.00 73.00, Align: 1.00, 379, 0.89
[A[2KProcessed: 2649 (0.89), R/S: 25.97, RL: 4585, Time: 16.00 4.00 73.00, Align: 1.00, 380, 0.89
[A[2KProcessed: 2666 (0.89), R/S: 25.63, RL: 4586, Time: 16.00 4.00 73.00, Align: 1.00, 381, 0.89
[A[2KProcessed: 2730 (0.89), R/S: 25.75, RL: 4598, Time: 16.00 4.00 73.00, Align: 1.00, 379, 0.89
[A[2KProcessed: 2798 (0.89), R/S: 25.90, RL: 4583, Time: 16.00 4.00 73.00, Align: 1.00, 379, 0.89
[A[2KProcessed: 2869 (0.89), R/S: 26.08, RL: 4582, Time: 16.00 4.00 73.00, Align: 1.00, 378, 0.89
[A[2KProcessed: 2930 (0.89), R/S: 26.16, RL: 4589, Time: 16.00 4.00 73.00, Align: 1.00, 377, 0.89
[A[2KProcessed: 2987 (0.89), R/S: 26.20, RL: 4579, Time: 16.00 4.00 73.00, Align: 1.00, 378, 0.89
[A[2KProcessed: 3060 (0.89), R/S: 26.38, RL: 4585, Time: 16.00 4.00 73.00, Align: 1.00, 377, 0.89
[A[2KProcessed: 3130 (0.89), R/S: 26.52, RL: 4578, Time: 16.00 4.00 73.00, Align: 1.00, 377, 0.89
[A[2KProcessed: 3187 (0.89), R/S: 26.56, RL: 4558, Time: 16.00 4.00 73.00, Align: 1.00, 377, 0.89
[A[2KProcessed: 3265 (0.89), R/S: 26.76, RL: 4529, Time: 16.00 4.00 73.00, Align: 1.00, 376, 0.89
[A[2KProcessed: 3323 (0.89), R/S: 26.80, RL: 4533, Time: 16.00 4.00 73.00, Align: 1.00, 375, 0.89
[A[2KProcessed: 3380 (0.89), R/S: 26.82, RL: 4528, Time: 16.00 4.00 73.00, Align: 1.00, 375, 0.89
[A[2KProcessed: 3454 (0.89), R/S: 26.98, RL: 4519, Time: 16.00 4.00 73.00, Align: 1.00, 375, 0.89
[A[2KProcessed: 3533 (0.89), R/S: 27.17, RL: 4503, Time: 16.00 4.00 73.00, Align: 1.00, 374, 0.89
[A[2KProcessed: 3587 (0.89), R/S: 27.17, RL: 4510, Time: 16.00 4.00 73.00, Align: 1.00, 374, 0.89
[A[2KProcessed: 3629 (0.89), R/S: 27.08, RL: 4532, Time: 16.00 4.00 73.00, Align: 1.00, 374, 0.89
[A[2KProcessed: 3710 (0.89), R/S: 27.28, RL: 4525, Time: 16.00 4.00 73.00, Align: 1.00, 373, 0.89
[A[2KProcessed: 3766 (0.89), R/S: 27.29, RL: 4545, Time: 16.00 4.00 73.00, Align: 1.00, 375, 0.89
[A[2KProcessed: 3800 (0.89), R/S: 27.14, RL: 4574, Time: 16.00 4.00 73.00, Align: 1.00, 375, 0.89
[A[2KProcessed: 3864 (0.89), R/S: 27.21, RL: 4573, Time: 16.00 4.00 73.00, Align: 1.00, 375, 0.89
[A[2KProcessed: 3914 (0.89), R/S: 27.18, RL: 4571, Time: 16.00 4.00 73.00, Align: 1.00, 375, 0.89
[A[2KProcessed: 3952 (0.89), R/S: 27.07, RL: 4569, Time: 16.00 4.00 73.94, Align: 1.00, 376, 0.89
[A[2KProcessed: 4003 (0.89), R/S: 27.04, RL: 4586, Time: 16.00 4.00 74.00, Align: 1.00, 377, 0.89
[A[2KProcessed: 4050 (0.89), R/S: 27.00, RL: 4582, Time: 16.00 4.00 74.00, Align: 1.00, 377, 0.89
[A[2KProcessed: 4130 (0.89), R/S: 27.17, RL: 4569, Time: 16.00 4.00 74.00, Align: 1.00, 376, 0.89
[A[2KProcessed: 4151 (0.89), R/S: 26.95, RL: 4584, Time: 16.00 4.00 74.00, Align: 1.00, 377, 0.89
[A[2KProcessed: 4151 (0.89), R/S: 26.61, RL: 4584, Time: 16.00 4.00 74.00, Align: 1.00, 377, 0.89
[A[2KProcessed: 4190 (0.89), R/S: 26.52, RL: 4581, Time: 16.00 4.00 74.00, Align: 1.00, 378, 0.89
[A[2KProcessed: 4258 (0.89), R/S: 26.61, RL: 4571, Time: 16.00 4.00 74.00, Align: 1.00, 377, 0.89
[A[2KProcessed: 4330 (0.89), R/S: 26.73, RL: 4571, Time: 16.00 4.00 74.00, Align: 1.00, 376, 0.89
[A[2KProcessed: 4376 (0.89), R/S: 26.68, RL: 4579, Time: 16.00 4.00 74.00, Align: 1.00, 376, 0.89
[A[2KProcessed: 4421 (0.89), R/S: 26.63, RL: 4582, Time: 16.00 4.00 74.00, Align: 1.00, 377, 0.89
[A[2KProcessed: 4458 (0.89), R/S: 26.53, RL: 4583, Time: 15.12 4.00 74.00, Align: 1.00, 379, 0.89
[A[2KProcessed: 4520 (0.89), R/S: 26.59, RL: 4596, Time: 15.75 4.00 74.00, Align: 1.00, 378, 0.89
[A[2KProcessed: 4572 (0.89), R/S: 26.58, RL: 4599, Time: 15.96 4.00 74.00, Align: 1.00, 378, 0.89
[A[2KProcessed: 4630 (0.89), R/S: 26.61, RL: 4601, Time: 15.72 4.00 74.00, Align: 1.00, 378, 0.89
[A[2KProcessed: 4668 (0.89), R/S: 26.52, RL: 4609, Time: 15.09 4.00 74.00, Align: 1.00, 378, 0.89
[A[2KProcessed: 4719 (0.89), R/S: 26.51, RL: 4620, Time: 15.00 4.00 74.88, Align: 1.00, 377, 0.89
[A[2KProcessed: 4789 (0.89), R/S: 26.60, RL: 4604, Time: 15.00 4.00 75.00, Align: 1.00, 378, 0.89
[A[2KProcessed: 4824 (0.89), R/S: 26.50, RL: 4604, Time: 15.00 3.06 75.00, Align: 1.00, 378, 0.89
[A[2KProcessed: 4872 (0.89), R/S: 26.48, RL: 4618, Time: 15.00 3.00 75.00, Align: 1.00, 378, 0.89
[A[2KProcessed: 4944 (0.89), R/S: 26.58, RL: 4616, Time: 15.00 3.00 75.00, Align: 1.00, 377, 0.89
[A[2KProcessed: 5009 (0.89), R/S: 26.64, RL: 4612, Time: 15.00 3.00 75.00, Align: 1.00, 376, 0.89
[A[2KProcessed: 5091 (0.89), R/S: 26.79, RL: 4601, Time: 15.00 3.03 75.00, Align: 1.00, 376, 0.89
[A[2KProcessed: 5160 (0.89), R/S: 26.87, RL: 4613, Time: 15.00 3.97 75.00, Align: 1.00, 376, 0.89
[A[2KProcessed: 5210 (0.89), R/S: 26.85, RL: 4608, Time: 15.00 4.00 75.00, Align: 1.00, 376, 0.89
[A[2KProcessed: 5269 (0.89), R/S: 26.88, RL: 4603, Time: 15.00 4.00 75.00, Align: 1.00, 376, 0.89
[A[2KProcessed: 5330 (0.89), R/S: 26.92, RL: 4617, Time: 15.00 4.00 75.00, Align: 1.00, 376, 0.89
[A[2KProcessed: 5363 (0.89), R/S: 26.81, RL: 4620, Time: 15.00 4.00 74.12, Align: 1.00, 375, 0.89
[A[2KProcessed: 5420 (0.89), R/S: 26.83, RL: 4640, Time: 15.00 4.00 74.00, Align: 1.00, 375, 0.89
[A[2KProcessed: 5475 (0.89), R/S: 26.84, RL: 4635, Time: 15.00 4.00 74.00, Align: 1.00, 375, 0.89
[A[2KProcessed: 5507 (0.89), R/S: 26.73, RL: 4641, Time: 15.00 4.00 74.00, Align: 1.00, 375, 0.89
[A[2KProcessed: 5595 (0.89), R/S: 26.90, RL: 4629, Time: 15.00 4.00 74.00, Align: 1.00, 374, 0.89
[A[2KProcessed: 5660 (0.89), R/S: 26.95, RL: 4631, Time: 15.00 4.00 74.00, Align: 1.00, 374, 0.89
[A[2KProcessed: 5740 (0.89), R/S: 27.07, RL: 4617, Time: 15.00 4.00 74.00, Align: 1.00, 373, 0.89
[A[2KProcessed: 5800 (0.89), R/S: 27.10, RL: 4620, Time: 15.00 4.00 74.00, Align: 1.00, 373, 0.89
[A[2KProcessed: 5857 (0.89), R/S: 27.11, RL: 4617, Time: 15.00 4.00 74.00, Align: 1.00, 373, 0.89
[A[2KProcessed: 5919 (0.89), R/S: 27.15, RL: 4611, Time: 15.00 4.00 74.00, Align: 1.00, 373, 0.89
[A[2KProcessed: 5971 (0.89), R/S: 27.14, RL: 4625, Time: 15.00 4.00 74.00, Align: 1.00, 372, 0.89
[A[2KProcessed: 6033 (0.89), R/S: 27.17, RL: 4625, Time: 15.00 4.00 74.00, Align: 1.00, 372, 0.89
[A[2KProcessed: 6035 (0.89), R/S: 26.94, RL: 4624, Time: 15.00 4.00 74.00, Align: 1.00, 373, 0.89
[A[2KProcessed: 6040 (0.89), R/S: 26.72, RL: 4631, Time: 15.00 3.50 74.50, Align: 1.00, 374, 0.89
[A[2KProcessed: 6110 (0.89), R/S: 26.80, RL: 4624, Time: 15.00 3.00 75.00, Align: 1.00, 373, 0.89
[A[2KProcessed: 6191 (0.89), R/S: 26.92, RL: 4613, Time: 15.00 3.00 75.00, Align: 1.00, 373, 0.89
[A[2KProcessed: 6276 (0.89), R/S: 27.05, RL: 4597, Time: 15.00 3.00 75.00, Align: 1.00, 372, 0.89
[A[2KProcessed: 6341 (0.89), R/S: 27.10, RL: 4597, Time: 15.00 3.00 75.00, Align: 1.00, 372, 0.89
[A[2KProcessed: 6420 (0.89), R/S: 27.20, RL: 4593, Time: 15.00 3.00 75.00, Align: 1.00, 372, 0.89
[A[2KProcessed: 6494 (0.89), R/S: 27.28, RL: 4589, Time: 15.00 3.00 75.00, Align: 1.00, 371, 0.89
[A[2KProcessed: 6552 (0.89), R/S: 27.30, RL: 4598, Time: 15.00 3.00 75.00, Align: 1.00, 371, 0.89
[A[2KProcessed: 6602 (0.89), R/S: 27.28, RL: 4605, Time: 15.00 3.00 75.00, Align: 1.00, 371, 0.89
[A[2KProcessed: 6644 (0.89), R/S: 27.23, RL: 4614, Time: 15.00 3.88 75.00, Align: 1.00, 371, 0.89
[A[2KProcessed: 6670 (0.89), R/S: 27.11, RL: 4619, Time: 15.00 3.98 75.00, Align: 1.00, 372, 0.89
[A[2KProcessed: 6714 (0.89), R/S: 27.07, RL: 4624, Time: 15.00 4.00 75.00, Align: 1.00, 372, 0.89
[A[2KProcessed: 6750 (0.89), R/S: 27.00, RL: 4635, Time: 15.00 3.50 75.00, Align: 1.00, 372, 0.89
[A[2KProcessed: 6808 (0.89), R/S: 27.01, RL: 4634, Time: 15.00 3.02 75.00, Align: 1.00, 372, 0.89
[A[2KProcessed: 6847 (0.89), R/S: 26.95, RL: 4628, Time: 15.00 3.00 75.00, Align: 1.00, 372, 0.89
[A[2KProcessed: 6904 (0.89), R/S: 26.97, RL: 4633, Time: 15.00 3.00 75.00, Align: 1.00, 372, 0.89
[A[2KProcessed: 6966 (0.89), R/S: 27.00, RL: 4640, Time: 15.00 3.00 75.00, Align: 1.00, 372, 0.89
[A[2KProcessed: 7016 (0.89), R/S: 26.98, RL: 4644, Time: 15.00 3.00 75.00, Align: 1.00, 372, 0.89
[A[2KProcessed: 7066 (0.89), R/S: 26.97, RL: 4655, Time: 15.00 3.00 75.00, Align: 1.00, 372, 0.89
[A[2KProcessed: 7110 (0.89), R/S: 26.93, RL: 4669, Time: 15.00 3.00 75.00, Align: 1.00, 372, 0.89
[A[2KProcessed: 7186 (0.89), R/S: 27.01, RL: 4656, Time: 15.00 3.00 75.00, Align: 1.00, 371, 0.89
[A[2KProcessed: 7250 (0.89), R/S: 27.05, RL: 4654, Time: 15.00 3.00 75.00, Align: 1.00, 372, 0.89
[A[2KProcessed: 7329 (0.89), R/S: 27.14, RL: 4644, Time: 15.00 3.00 75.00, Align: 1.00, 371, 0.89
[A[2KProcessed: 7386 (0.89), R/S: 27.15, RL: 4644, Time: 15.00 3.00 75.00, Align: 1.00, 371, 0.89
[A[2KProcessed: 7422 (0.89), R/S: 27.09, RL: 4655, Time: 15.00 3.50 75.00, Align: 1.00, 372, 0.89
[A[2KProcessed: 7429 (0.89), R/S: 26.91, RL: 4651, Time: 15.00 3.50 75.00, Align: 1.00, 373, 0.89
[A[2KProcessed: 7466 (0.89), R/S: 26.85, RL: 4650, Time: 15.00 3.03 75.00, Align: 1.00, 373, 0.89
[A[2KProcessed: 7530 (0.89), R/S: 26.89, RL: 4652, Time: 15.00 3.00 75.00, Align: 1.00, 373, 0.89
[A[2KProcessed: 7597 (0.89), R/S: 26.94, RL: 4642, Time: 15.00 3.00 75.00, Align: 1.00, 373, 0.89
[A[2KProcessed: 7631 (0.89), R/S: 26.87, RL: 4646, Time: 15.00 3.00 75.00, Align: 1.00, 373, 0.89
[A[2KProcessed: 7672 (0.89), R/S: 26.82, RL: 4649, Time: 15.00 3.00 75.00, Align: 1.00, 373, 0.89
[A[2KProcessed: 7741 (0.89), R/S: 26.88, RL: 4647, Time: 15.00 3.00 75.00, Align: 1.00, 373, 0.89
[A[2KProcessed: 7780 (0.89), R/S: 26.83, RL: 4655, Time: 15.00 3.00 75.00, Align: 1.00, 373, 0.89
[A[2KProcessed: 7844 (0.89), R/S: 26.86, RL: 4649, Time: 15.00 3.00 75.00, Align: 1.00, 373, 0.89
[A[2KProcessed: 7882 (0.89), R/S: 26.81, RL: 4655, Time: 15.00 3.00 75.00, Align: 1.00, 373, 0.89
[A[2KProcessed: 7931 (0.89), R/S: 26.79, RL: 4655, Time: 15.00 3.00 75.00, Align: 1.00, 373, 0.89
[A[2KProcessed: 7995 (0.89), R/S: 26.83, RL: 4654, Time: 15.00 3.00 75.00, Align: 1.00, 373, 0.89
[A[2KProcessed: 8018 (0.89), R/S: 26.72, RL: 4654, Time: 15.00 3.00 75.00, Align: 1.00, 373, 0.89
[A[2KProcessed: 8083 (0.89), R/S: 26.76, RL: 4654, Time: 15.00 3.00 75.00, Align: 1.00, 373, 0.89
[A[2KProcessed: 8167 (0.89), R/S: 26.86, RL: 4645, Time: 15.00 3.00 75.00, Align: 1.00, 374, 0.89
[A[2KProcessed: 8235 (0.89), R/S: 26.91, RL: 4642, Time: 15.00 3.00 75.00, Align: 1.00, 373, 0.89
[A[2KProcessed: 8290 (0.89), R/S: 26.91, RL: 4646, Time: 15.00 3.00 75.00, Align: 1.00, 373, 0.89
[A[2KProcessed: 8362 (0.89), R/S: 26.97, RL: 4639, Time: 15.00 3.00 75.00, Align: 1.00, 373, 0.89
[A[2KProcessed: 8418 (0.89), R/S: 26.98, RL: 4642, Time: 15.00 3.00 75.00, Align: 1.00, 373, 0.89
[A[2KProcessed: 8467 (0.89), R/S: 26.96, RL: 4650, Time: 15.00 3.00 75.00, Align: 1.00, 373, 0.89
[A[2KProcessed: 8467 (0.89), R/S: 26.79, RL: 4650, Time: 15.00 3.00 75.00, Align: 1.00, 373, 0.89
[A[2KProcessed: 8505 (0.89), R/S: 26.74, RL: 4653, Time: 15.00 3.00 75.00, Align: 1.00, 373, 0.89
[A[2KProcessed: 8565 (0.89), R/S: 26.76, RL: 4656, Time: 15.00 3.00 75.00, Align: 1.00, 373, 0.89
[A[2KProcessed: 8622 (0.89), R/S: 26.77, RL: 4654, Time: 15.00 3.00 75.00, Align: 1.00, 373, 0.89
[A[2KProcessed: 8689 (0.89), R/S: 26.82, RL: 4648, Time: 15.00 3.00 75.00, Align: 1.00, 373, 0.89
[A[2KProcessed: 8771 (0.89), R/S: 26.90, RL: 4645, Time: 15.00 3.00 75.00, Align: 1.00, 373, 0.89
[A[2KProcessed: 8812 (0.89), R/S: 26.86, RL: 4645, Time: 15.00 3.00 75.00, Align: 1.00, 373, 0.89
[A[2KProcessed: 8859 (0.89), R/S: 26.84, RL: 4642, Time: 15.00 3.00 75.94, Align: 1.00, 373, 0.89
[A[2KProcessed: 8887 (0.89), R/S: 26.77, RL: 4651, Time: 15.00 3.00 75.74, Align: 1.00, 373, 0.89
[A[2KProcessed: 8935 (0.89), R/S: 26.75, RL: 4654, Time: 15.00 3.00 75.99, Align: 1.00, 373, 0.89
[A[2KProcessed: 8992 (0.89), R/S: 26.76, RL: 4650, Time: 15.00 3.00 76.00, Align: 1.00, 374, 0.89
[A[2KProcessed: 9082 (0.89), R/S: 26.87, RL: 4638, Time: 15.00 3.00 76.00, Align: 1.00, 374, 0.89
[A[2KProcessed: 9173 (0.89), R/S: 26.98, RL: 4628, Time: 15.00 3.00 76.00, Align: 1.00, 373, 0.89
[A[2KProcessed: 9239 (0.89), R/S: 27.01, RL: 4625, Time: 15.00 3.00 76.00, Align: 1.00, 373, 0.89
[A[2KProcessed: 9267 (0.89), R/S: 26.94, RL: 4635, Time: 15.00 3.00 75.25, Align: 1.00, 374, 0.89
[A[2KProcessed: 9339 (0.89), R/S: 26.99, RL: 4628, Time: 15.00 3.00 75.99, Align: 1.00, 374, 0.89
[A[2KProcessed: 9373 (0.89), R/S: 26.93, RL: 4632, Time: 15.00 3.00 75.25, Align: 1.00, 374, 0.89
[A[2KProcessed: 9390 (0.89), R/S: 26.83, RL: 4636, Time: 15.00 3.00 75.81, Align: 1.00, 375, 0.89
[A[2KProcessed: 9440 (0.88), R/S: 26.82, RL: 4640, Time: 15.00 3.00 75.99, Align: 1.00, 375, 0.89
[A[2KProcessed: 9502 (0.89), R/S: 26.84, RL: 4642, Time: 15.00 3.00 76.00, Align: 1.00, 374, 0.89
[A[2KProcessed: 9534 (0.89), R/S: 26.78, RL: 4644, Time: 15.00 3.00 76.00, Align: 1.00, 375, 0.89
[A[2KProcessed: 9572 (0.88), R/S: 26.74, RL: 4649, Time: 15.00 3.00 76.00, Align: 1.00, 375, 0.89
[A[2KProcessed: 9607 (0.88), R/S: 26.68, RL: 4646, Time: 15.00 3.00 76.00, Align: 1.00, 375, 0.89
[A[2KProcessed: 9669 (0.89), R/S: 26.71, RL: 4648, Time: 15.00 3.00 76.00, Align: 1.00, 375, 0.89
[A[2KProcessed: 9724 (0.88), R/S: 26.71, RL: 4655, Time: 15.00 3.00 76.00, Align: 1.00, 375, 0.89
[A[2KProcessed: 9790 (0.88), R/S: 26.75, RL: 4656, Time: 15.00 3.00 76.00, Align: 1.00, 374, 0.89
[A[2KProcessed: 9853 (0.88), R/S: 26.77, RL: 4654, Time: 15.00 3.00 76.00, Align: 1.00, 374, 0.89
[A[2KProcessed: 9934 (0.88), R/S: 26.85, RL: 4645, Time: 15.00 3.00 76.00, Align: 1.00, 375, 0.89
[A[2KProcessed: 10001 (0.88), R/S: 26.88, RL: 4645, Time: 15.00 3.00 76.00, Align: 1.00, 374, 0.89
[A[2KProcessed: 10050 (0.88), R/S: 26.87, RL: 4642, Time: 15.00 3.00 76.00, Align: 1.00, 374, 0.89
[A[2KProcessed: 10106 (0.88), R/S: 26.88, RL: 4645, Time: 15.00 3.00 76.00, Align: 1.00, 374, 0.89
[A[2KProcessed: 10159 (0.88), R/S: 26.87, RL: 4646, Time: 15.00 3.00 76.00, Align: 1.00, 374, 0.89
[A[2KProcessed: 10203 (0.89), R/S: 26.85, RL: 4656, Time: 15.00 3.00 76.00, Align: 1.00, 375, 0.89
[A[2KProcessed: 10221 (0.89), R/S: 26.75, RL: 4655, Time: 15.00 3.00 76.00, Align: 1.00, 375, 0.89
[A[2KProcessed: 10290 (0.89), R/S: 26.79, RL: 4656, Time: 15.00 3.00 76.00, Align: 1.00, 374, 0.89
[A[2KProcessed: 10339 (0.89), R/S: 26.78, RL: 4651, Time: 15.00 3.00 76.00, Align: 1.00, 375, 0.89
[A[2KProcessed: 10421 (0.89), R/S: 26.86, RL: 4645, Time: 15.00 3.00 76.00, Align: 1.00, 374, 0.89
[A[2KProcessed: 10481 (0.89), R/S: 26.87, RL: 4647, Time: 15.00 3.00 76.00, Align: 1.00, 374, 0.89
[A[2KProcessed: 10531 (0.89), R/S: 26.86, RL: 4653, Time: 15.00 3.00 76.00, Align: 1.00, 374, 0.89
[A[2KProcessed: 10592 (0.89), R/S: 26.88, RL: 4651, Time: 15.00 3.00 76.00, Align: 1.00, 374, 0.89
[A[2KProcessed: 10635 (0.89), R/S: 26.85, RL: 4653, Time: 15.00 3.00 76.00, Align: 1.00, 374, 0.89
[A[2KProcessed: 10670 (0.89), R/S: 26.81, RL: 4659, Time: 15.00 3.00 76.00, Align: 1.00, 374, 0.89
[A[2KProcessed: 10721 (0.89), R/S: 26.80, RL: 4662, Time: 15.00 3.00 76.00, Align: 1.00, 375, 0.89
[A[2KProcessed: 10760 (0.89), R/S: 26.76, RL: 4662, Time: 15.00 3.00 76.00, Align: 1.00, 375, 0.89
[A[2KProcessed: 10807 (0.89), R/S: 26.75, RL: 4663, Time: 15.00 3.00 76.00, Align: 1.00, 375, 0.89
[A[2KProcessed: 10834 (0.89), R/S: 26.68, RL: 4665, Time: 15.00 3.00 76.00, Align: 1.00, 375, 0.89
[A[2KProcessed: 10916 (0.89), R/S: 26.75, RL: 4662, Time: 15.00 3.00 76.00, Align: 1.00, 375, 0.89
[A[2KProcessed: 10969 (0.89), R/S: 26.75, RL: 4659, Time: 15.00 3.00 76.00, Align: 1.00, 375, 0.89
[A[2KProcessed: 10971 (0.89), R/S: 26.63, RL: 4664, Time: 15.00 3.00 76.00, Align: 1.00, 375, 0.89
[A[2KProcessed: 11007 (0.89), R/S: 26.58, RL: 4661, Time: 15.00 3.00 76.00, Align: 1.00, 376, 0.89
[A[2KProcessed: 11091 (0.88), R/S: 26.66, RL: 4655, Time: 15.00 3.00 76.00, Align: 1.00, 375, 0.89
[A[2KProcessed: 11165 (0.89), R/S: 26.71, RL: 4650, Time: 15.00 3.00 76.00, Align: 1.00, 375, 0.89
[A[2KProcessed: 11232 (0.89), R/S: 26.74, RL: 4651, Time: 15.00 3.00 76.00, Align: 1.00, 375, 0.89
[A[2KProcessed: 11283 (0.89), R/S: 26.73, RL: 4654, Time: 15.00 3.00 76.00, Align: 1.00, 375, 0.89
[A[2KProcessed: 11330 (0.89), R/S: 26.72, RL: 4656, Time: 15.00 3.00 76.00, Align: 1.00, 376, 0.89
[A[2KProcessed: 11409 (0.89), R/S: 26.78, RL: 4649, Time: 15.00 3.00 76.00, Align: 1.00, 375, 0.89
[A[2KProcessed: 11473 (0.89), R/S: 26.80, RL: 4647, Time: 15.00 3.00 76.00, Align: 1.00, 375, 0.89
[A[2KProcessed: 11519 (0.88), R/S: 26.79, RL: 4649, Time: 15.00 3.00 76.00, Align: 1.00, 375, 0.89
[A[2KProcessed: 11578 (0.88), R/S: 26.80, RL: 4649, Time: 15.00 3.00 76.00, Align: 1.00, 375, 0.89
[A[2KProcessed: 11651 (0.88), R/S: 26.84, RL: 4640, Time: 15.00 3.00 76.00, Align: 1.00, 375, 0.89
[A[2KProcessed: 11716 (0.88), R/S: 26.87, RL: 4636, Time: 15.00 3.00 76.00, Align: 1.00, 375, 0.89
[A[2KProcessed: 11784 (0.88), R/S: 26.90, RL: 4633, Time: 15.00 3.00 76.00, Align: 1.00, 374, 0.89
[A[2KProcessed: 11838 (0.88), R/S: 26.90, RL: 4632, Time: 15.00 3.00 76.00, Align: 1.00, 374, 0.89
[A[2KProcessed: 11921 (0.88), R/S: 26.97, RL: 4627, Time: 15.00 3.00 76.00, Align: 1.00, 374, 0.89
[A[2KProcessed: 12007 (0.88), R/S: 27.04, RL: 4617, Time: 15.00 3.00 76.00, Align: 1.00, 374, 0.89
[A[2KProcessed: 12010 (0.88), R/S: 26.93, RL: 4623, Time: 15.00 3.00 76.00, Align: 1.00, 374, 0.89
[A[2KProcessed: 12061 (0.88), R/S: 26.92, RL: 4617, Time: 15.00 3.00 76.00, Align: 1.00, 374, 0.89
[A[2KProcessed: 12131 (0.88), R/S: 26.96, RL: 4616, Time: 15.00 3.00 76.00, Align: 1.00, 374, 0.89
[A[2KProcessed: 12189 (0.88), R/S: 26.96, RL: 4613, Time: 15.00 3.00 76.00, Align: 1.00, 374, 0.89
[A[2KProcessed: 12283 (0.88), R/S: 27.05, RL: 4604, Time: 15.00 3.00 76.00, Align: 1.00, 374, 0.89
[A[2KProcessed: 12365 (0.88), R/S: 27.11, RL: 4597, Time: 15.00 3.00 76.00, Align: 1.00, 374, 0.89
[A[2KProcessed: 12415 (0.88), R/S: 27.10, RL: 4602, Time: 15.00 3.00 76.00, Align: 1.00, 374, 0.89
[A[2KProcessed: 12451 (0.88), R/S: 27.07, RL: 4603, Time: 15.00 3.00 76.00, Align: 1.00, 374, 0.89
[A[2KProcessed: 12487 (0.88), R/S: 27.03, RL: 4599, Time: 15.00 3.00 76.00, Align: 1.00, 374, 0.89
[A[2KProcessed: 12539 (0.88), R/S: 27.02, RL: 4594, Time: 15.00 3.00 76.00, Align: 1.00, 374, 0.89
[A[2KProcessed: 12593 (0.88), R/S: 27.02, RL: 4599, Time: 15.00 3.00 76.00, Align: 1.00, 374, 0.89
[A[2KProcessed: 12655 (0.88), R/S: 27.04, RL: 4599, Time: 15.00 3.00 76.00, Align: 1.00, 374, 0.89
[A[2KProcessed: 12739 (0.88), R/S: 27.10, RL: 4590, Time: 15.00 3.00 76.00, Align: 1.00, 374, 0.89
[A[2KProcessed: 12821 (0.88), R/S: 27.16, RL: 4587, Time: 15.00 3.00 76.00, Align: 1.00, 374, 0.89
[A[2KProcessed: 12869 (0.88), R/S: 27.15, RL: 4585, Time: 15.00 3.00 76.00, Align: 1.00, 375, 0.89
[A[2KProcessed: 12902 (0.88), R/S: 27.10, RL: 4587, Time: 15.00 3.00 76.00, Align: 1.00, 374, 0.89
[A[2KProcessed: 12980 (0.88), R/S: 27.15, RL: 4586, Time: 15.00 3.00 76.00, Align: 1.00, 374, 0.89
[A[2KProcessed: 13048 (0.88), R/S: 27.18, RL: 4581, Time: 15.00 3.00 76.00, Align: 1.00, 374, 0.89
[A[2KProcessed: 13122 (0.88), R/S: 27.22, RL: 4583, Time: 15.00 3.00 76.00, Align: 1.00, 374, 0.89
[A[2KProcessed: 13193 (0.88), R/S: 27.26, RL: 4584, Time: 15.00 3.00 76.00, Align: 1.00, 374, 0.89
[A[2KProcessed: 13255 (0.88), R/S: 27.27, RL: 4585, Time: 15.00 3.00 76.00, Align: 1.00, 374, 0.89
[A[2KProcessed: 13311 (0.88), R/S: 27.27, RL: 4587, Time: 15.00 3.00 76.00, Align: 1.00, 373, 0.89
[A[2KProcessed: 13351 (0.88), R/S: 27.24, RL: 4586, Time: 15.00 3.00 76.00, Align: 1.00, 374, 0.89
[A[2KProcessed: 13415 (0.88), R/S: 27.26, RL: 4583, Time: 15.00 3.00 76.00, Align: 1.00, 374, 0.89
[A[2KProcessed: 13491 (0.88), R/S: 27.31, RL: 4579, Time: 15.00 3.00 76.00, Align: 1.00, 374, 0.89
[A[2KProcessed: 13571 (0.88), R/S: 27.36, RL: 4575, Time: 15.00 3.00 76.00, Align: 1.00, 373, 0.89
[A[2KProcessed: 13629 (0.88), R/S: 27.37, RL: 4573, Time: 15.00 3.00 76.00, Align: 1.00, 373, 0.89
[A[2KProcessed: 13698 (0.88), R/S: 27.39, RL: 4570, Time: 15.00 3.00 76.00, Align: 1.00, 373, 0.89
[A[2KProcessed: 13728 (0.88), R/S: 27.34, RL: 4575, Time: 15.00 3.00 76.00, Align: 1.00, 374, 0.89
[A[2KProcessed: 13766 (0.88), R/S: 27.31, RL: 4574, Time: 15.00 3.00 76.00, Align: 1.00, 374, 0.89
[A[2KProcessed: 13810 (0.88), R/S: 27.29, RL: 4573, Time: 15.00 3.00 76.00, Align: 1.00, 374, 0.89
[A[2KProcessed: 13888 (0.88), R/S: 27.34, RL: 4569, Time: 15.00 3.00 76.00, Align: 1.00, 374, 0.89
[A[2KProcessed: 13967 (0.88), R/S: 27.38, RL: 4564, Time: 15.00 3.00 76.00, Align: 1.00, 374, 0.89
[A[2KProcessed: 14032 (0.88), R/S: 27.40, RL: 4565, Time: 15.00 3.00 76.00, Align: 1.00, 374, 0.89
[A[2KProcessed: 14088 (0.88), R/S: 27.41, RL: 4566, Time: 15.00 3.00 76.00, Align: 1.00, 374, 0.89
[A[2KProcessed: 14153 (0.89), R/S: 27.43, RL: 4568, Time: 15.00 3.00 76.00, Align: 1.00, 374, 0.89
[A[2KProcessed: 14212 (0.89), R/S: 27.43, RL: 4570, Time: 15.00 3.00 76.00, Align: 1.00, 373, 0.89
[A[2KProcessed: 14244 (0.89), R/S: 27.39, RL: 4569, Time: 15.00 3.00 76.00, Align: 1.00, 374, 0.89
[A[2KProcessed: 14296 (0.89), R/S: 27.38, RL: 4571, Time: 15.00 3.00 76.00, Align: 1.00, 374, 0.89
[A[2KProcessed: 14325 (0.89), R/S: 27.34, RL: 4576, Time: 15.00 3.00 76.00, Align: 1.00, 374, 0.89
[A[2KProcessed: 14391 (0.89), R/S: 27.36, RL: 4577, Time: 15.00 3.00 76.00, Align: 1.00, 374, 0.89
[A[2KProcessed: 14457 (0.89), R/S: 27.38, RL: 4571, Time: 15.00 3.00 76.00, Align: 1.00, 374, 0.89
[A[2KProcessed: 14530 (0.89), R/S: 27.41, RL: 4570, Time: 15.00 3.00 76.00, Align: 1.00, 374, 0.89
[A[2KProcessed: 14598 (0.89), R/S: 27.44, RL: 4566, Time: 15.00 3.00 76.00, Align: 1.00, 374, 0.89
[A[2KProcessed: 14617 (0.89), R/S: 27.37, RL: 4566, Time: 15.00 3.00 76.00, Align: 1.00, 374, 0.89
[A[2KProcessed: 14640 (0.89), R/S: 27.31, RL: 4571, Time: 15.00 3.00 76.00, Align: 1.00, 374, 0.89
[A[2KProcessed: 14696 (0.89), R/S: 27.31, RL: 4567, Time: 15.00 3.00 76.00, Align: 1.00, 374, 0.89
[A[2KProcessed: 14744 (0.89), R/S: 27.30, RL: 4568, Time: 15.00 3.00 76.00, Align: 1.00, 374, 0.89
[A[2KProcessed: 14813 (0.89), R/S: 27.33, RL: 4567, Time: 15.00 3.00 76.00, Align: 1.00, 374, 0.89
[A[2KProcessed: 14884 (0.89), R/S: 27.36, RL: 4567, Time: 15.00 3.00 76.00, Align: 1.00, 373, 0.89
[A[2KProcessed: 14970 (0.89), R/S: 27.42, RL: 4562, Time: 15.00 3.00 76.00, Align: 1.00, 373, 0.89
[A[2KProcessed: 15051 (0.89), R/S: 27.46, RL: 4557, Time: 15.00 3.00 76.00, Align: 1.00, 373, 0.89
[A[2KProcessed: 15140 (0.89), R/S: 27.52, RL: 4552, Time: 15.00 3.00 76.00, Align: 1.00, 373, 0.89
[A[2KProcessed: 15212 (0.89), R/S: 27.56, RL: 4552, Time: 15.00 3.00 76.00, Align: 1.00, 373, 0.89
[A[2KProcessed: 15290 (0.89), R/S: 27.60, RL: 4551, Time: 15.00 3.00 76.00, Align: 1.00, 372, 0.89
[A[2KProcessed: 15360 (0.89), R/S: 27.62, RL: 4549, Time: 15.00 3.00 76.00, Align: 1.00, 373, 0.89
[A[2KProcessed: 15387 (0.89), R/S: 27.57, RL: 4547, Time: 15.00 3.00 76.00, Align: 1.00, 373, 0.89
[A[2KProcessed: 15447 (0.89), R/S: 27.58, RL: 4546, Time: 15.00 3.00 76.00, Align: 1.00, 373, 0.89
[A[2KProcessed: 15500 (0.89), R/S: 27.58, RL: 4546, Time: 15.00 3.00 76.00, Align: 1.00, 373, 0.89
[A[2KProcessed: 15551 (0.89), R/S: 27.57, RL: 4547, Time: 15.00 3.00 76.00, Align: 1.00, 373, 0.89
[A[2KProcessed: 15613 (0.89), R/S: 27.58, RL: 4548, Time: 15.00 3.00 76.00, Align: 1.00, 373, 0.89
[A[2KProcessed: 15639 (0.89), R/S: 27.53, RL: 4550, Time: 15.00 3.00 76.00, Align: 1.00, 373, 0.89
[A[2KProcessed: 15641 (0.89), R/S: 27.44, RL: 4554, Time: 15.00 3.00 76.00, Align: 1.00, 374, 0.89
[A[2KProcessed: 15700 (0.89), R/S: 27.45, RL: 4553, Time: 15.00 3.00 76.00, Align: 1.00, 374, 0.89
[A[2KProcessed: 15723 (0.89), R/S: 27.39, RL: 4555, Time: 15.00 3.00 76.00, Align: 1.00, 374, 0.89
[A[2KProcessed: 15736 (0.89), R/S: 27.32, RL: 4558, Time: 15.00 3.00 76.00, Align: 1.00, 374, 0.89
[A[2KProcessed: 15783 (0.89), R/S: 27.30, RL: 4562, Time: 15.00 3.00 76.00, Align: 1.00, 374, 0.89
[A[2KProcessed: 15815 (0.89), R/S: 27.26, RL: 4564, Time: 15.00 3.00 76.00, Align: 1.00, 374, 0.89
[A[2KProcessed: 15855 (0.89), R/S: 27.24, RL: 4563, Time: 15.00 3.00 76.00, Align: 1.00, 374, 0.89
[A[2KProcessed: 15911 (0.89), R/S: 27.24, RL: 4565, Time: 15.00 3.00 76.00, Align: 1.00, 374, 0.89
[A[2KProcessed: 15939 (0.89), R/S: 27.20, RL: 4565, Time: 15.00 3.00 76.00, Align: 1.00, 375, 0.89
[A[2KProcessed: 16008 (0.89), R/S: 27.22, RL: 4563, Time: 15.00 3.00 76.00, Align: 1.00, 374, 0.89
[A[2KProcessed: 16068 (0.89), R/S: 27.23, RL: 4561, Time: 15.00 3.00 76.00, Align: 1.00, 375, 0.89
[A[2KProcessed: 16094 (0.89), R/S: 27.18, RL: 4565, Time: 15.00 3.00 76.00, Align: 1.00, 375, 0.89
[A[2KProcessed: 16094 (0.89), R/S: 27.09, RL: 4565, Time: 15.00 3.00 76.00, Align: 1.00, 375, 0.89
[A[2KProcessed: 16121 (0.89), R/S: 27.05, RL: 4568, Time: 14.12 3.00 76.00, Align: 1.00, 375, 0.89
[A[2KProcessed: 16172 (0.89), R/S: 27.04, RL: 4569, Time: 14.00 3.00 76.00, Align: 1.00, 375, 0.89
[A[2KProcessed: 16207 (0.89), R/S: 27.01, RL: 4572, Time: 14.00 3.00 76.00, Align: 1.00, 375, 0.89
[A[2KProcessed: 16270 (0.89), R/S: 27.02, RL: 4573, Time: 14.00 3.00 76.00, Align: 1.00, 375, 0.89
[A[2KProcessed: 16319 (0.89), R/S: 27.02, RL: 4571, Time: 14.00 3.00 76.00, Align: 1.00, 375, 0.89
[A[2KProcessed: 16374 (0.89), R/S: 27.02, RL: 4574, Time: 14.00 3.00 76.00, Align: 1.00, 375, 0.89
[A[2KProcessed: 16453 (0.89), R/S: 27.06, RL: 4570, Time: 14.00 3.00 76.00, Align: 1.00, 375, 0.89
[A[2KProcessed: 16506 (0.89), R/S: 27.06, RL: 4573, Time: 14.00 3.00 76.00, Align: 1.00, 375, 0.89
[A[2KProcessed: 16570 (0.89), R/S: 27.07, RL: 4575, Time: 14.00 3.00 76.00, Align: 1.00, 374, 0.89
[A[2KProcessed: 16612 (0.89), R/S: 27.05, RL: 4576, Time: 14.00 3.00 76.00, Align: 1.00, 374, 0.89
[A[2KProcessed: 16679 (0.89), R/S: 27.07, RL: 4574, Time: 14.00 3.00 76.00, Align: 1.00, 374, 0.89
[A[2KProcessed: 16734 (0.89), R/S: 27.08, RL: 4576, Time: 14.00 3.00 76.00, Align: 1.00, 374, 0.89
[A[2KProcessed: 16799 (0.89), R/S: 27.09, RL: 4576, Time: 14.00 3.00 76.00, Align: 1.00, 374, 0.89
[A[2KProcessed: 16860 (0.89), R/S: 27.10, RL: 4577, Time: 14.00 3.00 76.00, Align: 1.00, 374, 0.89
[A[2KProcessed: 16939 (0.89), R/S: 27.14, RL: 4574, Time: 14.00 3.00 76.00, Align: 1.00, 374, 0.89
[A[2KProcessed: 17020 (0.89), R/S: 27.19, RL: 4573, Time: 14.00 3.00 76.00, Align: 1.00, 374, 0.89
[A[2KProcessed: 17075 (0.89), R/S: 27.19, RL: 4574, Time: 14.00 3.00 76.00, Align: 1.00, 374, 0.89
[A[2KProcessed: 17095 (0.89), R/S: 27.13, RL: 4575, Time: 14.00 3.00 76.00, Align: 1.00, 374, 0.89
[A[2KProcessed: 17162 (0.89), R/S: 27.15, RL: 4574, Time: 14.00 3.00 76.00, Align: 1.00, 374, 0.89
[A[2KProcessed: 17210 (0.89), R/S: 27.14, RL: 4574, Time: 14.00 3.00 76.00, Align: 1.00, 374, 0.89
[A[2KProcessed: 17266 (0.89), R/S: 27.15, RL: 4575, Time: 14.00 3.00 76.00, Align: 1.00, 374, 0.89
[A[2KProcessed: 17330 (0.89), R/S: 27.16, RL: 4576, Time: 14.00 3.00 76.00, Align: 1.00, 374, 0.89
[A[2KProcessed: 17353 (0.89), R/S: 27.11, RL: 4577, Time: 14.00 3.00 76.00, Align: 1.00, 374, 0.89
[A[2KProcessed: 17426 (0.89), R/S: 27.14, RL: 4575, Time: 14.00 3.00 76.00, Align: 1.00, 374, 0.89
[A[2KProcessed: 17495 (0.89), R/S: 27.16, RL: 4576, Time: 14.00 3.00 76.00, Align: 1.00, 374, 0.89
[A[2KProcessed: 17551 (0.89), R/S: 27.17, RL: 4580, Time: 14.00 3.00 76.00, Align: 1.00, 374, 0.89
[A[2KProcessed: 17582 (0.89), R/S: 27.13, RL: 4583, Time: 14.00 3.00 76.00, Align: 1.00, 374, 0.89
[A[2KProcessed: 17662 (0.89), R/S: 27.17, RL: 4580, Time: 14.00 3.00 76.00, Align: 1.00, 374, 0.89
[A[2KProcessed: 17743 (0.89), R/S: 27.21, RL: 4576, Time: 14.00 3.00 76.00, Align: 1.00, 374, 0.89
[A[2KProcessed: 17821 (0.89), R/S: 27.25, RL: 4575, Time: 14.00 3.00 76.00, Align: 1.00, 373, 0.89
[A[2KProcessed: 17897 (0.89), R/S: 27.28, RL: 4571, Time: 14.00 3.00 76.00, Align: 1.00, 373, 0.89
[A[2KProcessed: 17977 (0.89), R/S: 27.32, RL: 4568, Time: 15.00 3.00 76.00, Align: 1.00, 373, 0.89
[A[2KProcessed: 17988 (0.89), R/S: 27.25, RL: 4571, Time: 14.50 3.00 76.00, Align: 1.00, 373, 0.89
[A[2KProcessed: 18042 (0.89), R/S: 27.25, RL: 4573, Time: 14.01 3.00 76.00, Align: 1.00, 373, 0.89
[A[2KProcessed: 18102 (0.89), R/S: 27.26, RL: 4572, Time: 14.00 3.00 76.00, Align: 1.00, 373, 0.89
[A[2KProcessed: 18189 (0.89), R/S: 27.31, RL: 4567, Time: 14.00 3.00 76.00, Align: 1.00, 373, 0.89
[A[2KProcessed: 18274 (0.89), R/S: 27.35, RL: 4563, Time: 14.00 3.00 76.00, Align: 1.00, 373, 0.89
[A[2KProcessed: 18310 (0.89), R/S: 27.33, RL: 4563, Time: 14.00 3.00 76.00, Align: 1.00, 373, 0.89
[A[2KProcessed: 18372 (0.89), R/S: 27.34, RL: 4563, Time: 14.00 3.00 76.00, Align: 1.00, 373, 0.89
[A[2KProcessed: 18411 (0.89), R/S: 27.31, RL: 4565, Time: 14.00 3.00 76.00, Align: 1.00, 374, 0.89
[A[2KProcessed: 18440 (0.89), R/S: 27.27, RL: 4565, Time: 14.00 3.00 76.00, Align: 1.00, 374, 0.89
[A[2KProcessed: 18514 (0.89), R/S: 27.30, RL: 4564, Time: 14.00 3.00 76.00, Align: 1.00, 374, 0.89
[A[2KProcessed: 18575 (0.89), R/S: 27.31, RL: 4565, Time: 14.00 3.00 76.00, Align: 1.00, 374, 0.89
[A[2KProcessed: 18622 (0.89), R/S: 27.30, RL: 4567, Time: 14.00 3.00 76.00, Align: 1.00, 374, 0.89
[A[2KProcessed: 18673 (0.89), R/S: 27.30, RL: 4568, Time: 14.00 3.00 76.00, Align: 1.00, 374, 0.89
[A[2KProcessed: 18730 (0.89), R/S: 27.30, RL: 4570, Time: 14.00 3.00 76.00, Align: 1.00, 374, 0.89
[A[2KProcessed: 18782 (0.89), R/S: 27.30, RL: 4569, Time: 14.00 3.00 76.00, Align: 1.00, 374, 0.89
[A[2KProcessed: 18812 (0.89), R/S: 27.26, RL: 4570, Time: 14.00 3.00 76.00, Align: 1.00, 374, 0.89
[A[2KProcessed: 18862 (0.89), R/S: 27.25, RL: 4571, Time: 14.00 3.00 76.00, Align: 1.00, 374, 0.89
[A[2KProcessed: 18904 (0.89), R/S: 27.24, RL: 4571, Time: 14.00 3.00 76.00, Align: 1.00, 374, 0.89
[A[2KProcessed: 18991 (0.89), R/S: 27.28, RL: 4566, Time: 14.00 3.00 76.00, Align: 1.00, 374, 0.89
[A[2KProcessed: 19034 (0.89), R/S: 27.27, RL: 4566, Time: 14.00 3.00 76.00, Align: 1.00, 374, 0.89
[A[2KProcessed: 19100 (0.89), R/S: 27.28, RL: 4566, Time: 14.00 3.00 76.00, Align: 1.00, 374, 0.89
[A[2KProcessed: 19141 (0.89), R/S: 27.26, RL: 4563, Time: 14.00 3.00 76.00, Align: 1.00, 374, 0.89
[A[2KProcessed: 19225 (0.89), R/S: 27.31, RL: 4559, Time: 14.00 3.00 76.00, Align: 1.00, 374, 0.89
[A[2KProcessed: 19316 (0.89), R/S: 27.36, RL: 4554, Time: 14.00 3.00 76.00, Align: 1.00, 374, 0.89
[A[2KProcessed: 19360 (0.89), R/S: 27.34, RL: 4554, Time: 14.00 3.00 76.00, Align: 1.00, 374, 0.89
[A[2KProcessed: 19430 (0.89), R/S: 27.36, RL: 4554, Time: 14.00 3.00 76.00, Align: 1.00, 374, 0.89
[A[2KProcessed: 19502 (0.89), R/S: 27.39, RL: 4551, Time: 14.00 3.00 76.00, Align: 1.00, 373, 0.89
[A[2KProcessed: 19541 (0.89), R/S: 27.37, RL: 4551, Time: 14.00 3.00 76.00, Align: 1.00, 374, 0.89
[A[2KProcessed: 19617 (0.89), R/S: 27.39, RL: 4547, Time: 14.00 3.00 76.00, Align: 1.00, 374, 0.89
[A[2KProcessed: 19680 (0.89), R/S: 27.41, RL: 4547, Time: 14.00 3.00 76.00, Align: 1.00, 374, 0.89
[A[2KProcessed: 19751 (0.89), R/S: 27.43, RL: 4544, Time: 14.00 3.00 76.00, Align: 1.00, 373, 0.89
[A[2KProcessed: 19792 (0.89), R/S: 27.41, RL: 4545, Time: 14.00 3.00 76.00, Align: 1.00, 374, 0.89
[A[2KProcessed: 19826 (0.89), R/S: 27.38, RL: 4549, Time: 14.00 3.00 76.00, Align: 1.00, 373, 0.89
[A[2KProcessed: 19906 (0.89), R/S: 27.42, RL: 4546, Time: 14.00 3.00 76.00, Align: 1.00, 373, 0.89
[A[2KProcessed: 19989 (0.89), R/S: 27.45, RL: 4542, Time: 14.00 3.00 76.00, Align: 1.00, 373, 0.89
[A[2KProcessed: 20043 (0.89), R/S: 27.45, RL: 4544, Time: 14.00 3.00 76.00, Align: 1.00, 375, 0.89
[A[2KProcessed: 20105 (0.89), R/S: 27.46, RL: 4545, Time: 14.00 3.00 76.00, Align: 1.00, 375, 0.89
[A[2KProcessed: 20111 (0.88), R/S: 27.40, RL: 4545, Time: 14.00 3.00 76.00, Align: 1.00, 375, 0.89
[A[2KProcessed: 20182 (0.89), R/S: 27.42, RL: 4547, Time: 14.00 3.00 76.00, Align: 1.00, 375, 0.89
[A[2KProcessed: 20261 (0.88), R/S: 27.45, RL: 4545, Time: 14.00 3.00 76.00, Align: 1.00, 375, 0.89
[A[2KProcessed: 20331 (0.88), R/S: 27.47, RL: 4542, Time: 14.00 3.00 76.00, Align: 1.00, 374, 0.89
[A[2KProcessed: 20390 (0.89), R/S: 27.48, RL: 4545, Time: 14.00 3.00 76.00, Align: 1.00, 374, 0.89
[A[2KProcessed: 20419 (0.89), R/S: 27.44, RL: 4542, Time: 14.00 3.00 76.00, Align: 1.00, 374, 0.89
[A[2KProcessed: 20458 (0.89), R/S: 27.42, RL: 4545, Time: 14.00 3.00 76.00, Align: 1.00, 375, 0.89
[A[2KProcessed: 20514 (0.89), R/S: 27.42, RL: 4547, Time: 14.00 3.00 76.00, Align: 1.00, 375, 0.89
[A[2KProcessed: 20588 (0.89), R/S: 27.45, RL: 4544, Time: 14.00 3.00 76.00, Align: 1.00, 375, 0.89
[A[2KProcessed: 20660 (0.88), R/S: 27.47, RL: 4543, Time: 14.00 3.00 76.00, Align: 1.00, 375, 0.89
[A[2KProcessed: 20730 (0.88), R/S: 27.49, RL: 4544, Time: 14.00 3.00 76.00, Align: 1.00, 375, 0.89
[A[2KProcessed: 20789 (0.88), R/S: 27.50, RL: 4541, Time: 14.00 3.00 76.00, Align: 1.00, 375, 0.89
[A[2KProcessed: 20817 (0.88), R/S: 27.46, RL: 4540, Time: 14.00 3.00 76.00, Align: 1.00, 375, 0.89
[A[2KProcessed: 20834 (0.89), R/S: 27.41, RL: 4543, Time: 14.00 3.00 76.00, Align: 1.00, 375, 0.89
[A[2KProcessed: 20891 (0.88), R/S: 27.41, RL: 4544, Time: 14.00 3.00 76.00, Align: 1.00, 375, 0.89
[A[2KProcessed: 20937 (0.88), R/S: 27.40, RL: 4544, Time: 14.00 3.00 76.00, Align: 1.00, 375, 0.89
[A[2KProcessed: 21010 (0.88), R/S: 27.43, RL: 4544, Time: 14.00 3.00 76.00, Align: 1.00, 375, 0.89
[A[2KProcessed: 21056 (0.88), R/S: 27.41, RL: 4545, Time: 14.00 3.00 76.00, Align: 1.00, 375, 0.89
[A[2KProcessed: 21119 (0.88), R/S: 27.42, RL: 4546, Time: 14.00 3.00 76.00, Align: 1.00, 374, 0.89
[A[2KProcessed: 21173 (0.88), R/S: 27.42, RL: 4550, Time: 14.00 3.00 76.00, Align: 1.00, 374, 0.89
[A[2KProcessed: 21233 (0.88), R/S: 27.43, RL: 4549, Time: 14.00 3.00 76.00, Align: 1.00, 374, 0.89
[A[2KProcessed: 21302 (0.88), R/S: 27.45, RL: 4550, Time: 14.00 3.00 76.00, Align: 1.00, 374, 0.89
[A[2KProcessed: 21351 (0.88), R/S: 27.44, RL: 4552, Time: 14.00 3.00 76.00, Align: 1.00, 374, 0.89
[A[2KProcessed: 21395 (0.88), R/S: 27.43, RL: 4553, Time: 14.00 3.00 76.00, Align: 1.00, 374, 0.89
[A[2KProcessed: 21438 (0.88), R/S: 27.41, RL: 4554, Time: 14.00 3.00 76.00, Align: 1.00, 374, 0.89
[A[2KProcessed: 21484 (0.88), R/S: 27.40, RL: 4556, Time: 14.00 3.00 76.00, Align: 1.00, 374, 0.89
[A[2KProcessed: 21538 (0.88), R/S: 27.40, RL: 4555, Time: 14.00 3.00 76.00, Align: 1.00, 375, 0.89
[A[2KProcessed: 21597 (0.88), R/S: 27.40, RL: 4554, Time: 14.00 3.00 76.00, Align: 1.00, 375, 0.89
[A[2KProcessed: 21650 (0.88), R/S: 27.40, RL: 4560, Time: 14.00 3.00 76.00, Align: 1.00, 375, 0.89
[A[2KProcessed: 21717 (0.88), R/S: 27.42, RL: 4559, Time: 14.00 3.00 76.00, Align: 1.00, 374, 0.89
[A[2KProcessed: 21806 (0.88), R/S: 27.46, RL: 4554, Time: 14.00 3.00 76.00, Align: 1.00, 374, 0.89
[A[2KProcessed: 21846 (0.88), R/S: 27.44, RL: 4553, Time: 14.00 3.00 76.00, Align: 1.00, 375, 0.89
[A[2KProcessed: 21908 (0.88), R/S: 27.45, RL: 4553, Time: 14.00 3.00 76.00, Align: 1.00, 374, 0.89
[A[2KProcessed: 21971 (0.88), R/S: 27.46, RL: 4551, Time: 14.00 3.00 76.00, Align: 1.00, 374, 0.89
[A[2KProcessed: 22048 (0.88), R/S: 27.49, RL: 4548, Time: 14.00 3.00 76.00, Align: 1.00, 374, 0.89
[A[2KProcessed: 22108 (0.88), R/S: 27.49, RL: 4548, Time: 14.00 3.00 76.00, Align: 1.00, 374, 0.89
[A[2KProcessed: 22181 (0.88), R/S: 27.52, RL: 4547, Time: 14.00 3.00 76.00, Align: 1.00, 374, 0.89
[A[2KProcessed: 22254 (0.88), R/S: 27.54, RL: 4545, Time: 14.00 3.00 76.00, Align: 1.00, 374, 0.89
[A[2KProcessed: 22343 (0.88), R/S: 27.58, RL: 4540, Time: 14.00 3.00 76.00, Align: 1.00, 374, 0.89
[A[2KProcessed: 22400 (0.88), R/S: 27.58, RL: 4542, Time: 14.00 3.00 76.00, Align: 1.00, 374, 0.89
[A[2KProcessed: 22484 (0.88), R/S: 27.62, RL: 4538, Time: 14.00 3.00 76.00, Align: 1.00, 374, 0.89
[A[2KProcessed: 22557 (0.88), R/S: 27.64, RL: 4535, Time: 14.00 3.00 76.00, Align: 1.00, 374, 0.89
[A[2KProcessed: 22630 (0.88), R/S: 27.66, RL: 4535, Time: 14.00 3.00 76.00, Align: 1.00, 374, 0.89
[A[2KProcessed: 22694 (0.88), R/S: 27.67, RL: 4533, Time: 14.00 3.00 76.00, Align: 1.00, 374, 0.89
[A[2KProcessed: 22751 (0.88), R/S: 27.67, RL: 4535, Time: 14.00 3.00 76.00, Align: 1.00, 374, 0.89
[A[2KProcessed: 22810 (0.88), R/S: 27.68, RL: 4535, Time: 14.00 3.00 76.00, Align: 1.00, 374, 0.89
[A[2KProcessed: 22860 (0.88), R/S: 27.67, RL: 4538, Time: 14.00 3.00 76.00, Align: 1.00, 373, 0.89
[A[2KProcessed: 22917 (0.88), R/S: 27.67, RL: 4539, Time: 14.00 3.00 76.00, Align: 1.00, 374, 0.89
[A[2KProcessed: 23001 (0.88), R/S: 27.71, RL: 4537, Time: 14.00 3.00 76.00, Align: 1.00, 374, 0.89
[A[2KProcessed: 23063 (0.88), R/S: 27.72, RL: 4538, Time: 14.00 3.00 76.00, Align: 1.00, 373, 0.89
[A[2KProcessed: 23113 (0.88), R/S: 27.71, RL: 4538, Time: 14.03 3.00 76.00, Align: 1.00, 373, 0.89
[A[2KProcessed: 23155 (0.88), R/S: 27.69, RL: 4540, Time: 14.00 3.00 76.00, Align: 1.00, 374, 0.89
[A[2KProcessed: 23208 (0.88), R/S: 27.69, RL: 4539, Time: 14.00 3.00 76.00, Align: 1.00, 373, 0.89
[A[2KProcessed: 23248 (0.88), R/S: 27.67, RL: 4539, Time: 14.00 3.00 76.00, Align: 1.00, 373, 0.89
[A[2KProcessed: 23310 (0.88), R/S: 27.68, RL: 4542, Time: 14.00 3.00 76.00, Align: 1.00, 373, 0.89
[A[2KProcessed: 23335 (0.88), R/S: 27.65, RL: 4543, Time: 14.00 3.00 76.00, Align: 1.00, 374, 0.89
[A[2KProcessed: 23392 (0.88), R/S: 27.65, RL: 4544, Time: 14.00 3.00 76.00, Align: 1.00, 374, 0.89
[A[2KProcessed: 23491 (0.88), R/S: 27.70, RL: 4538, Time: 14.00 3.00 76.00, Align: 1.00, 374, 0.89
[A[2KProcessed: 23540 (0.88), R/S: 27.69, RL: 4540, Time: 14.00 3.00 76.00, Align: 1.00, 374, 0.89
[A[2KProcessed: 23598 (0.88), R/S: 27.69, RL: 4541, Time: 14.00 3.00 76.00, Align: 1.00, 374, 0.89
[A[2KProcessed: 23673 (0.88), R/S: 27.72, RL: 4540, Time: 14.99 3.00 76.00, Align: 1.00, 373, 0.89
[A[2KProcessed: 23734 (0.88), R/S: 27.72, RL: 4541, Time: 15.00 3.00 76.00, Align: 1.00, 373, 0.89
[A[2KProcessed: 23784 (0.88), R/S: 27.72, RL: 4541, Time: 15.00 3.00 76.00, Align: 1.00, 373, 0.89
[A[2KProcessed: 23828 (0.88), R/S: 27.70, RL: 4542, Time: 15.00 3.00 76.00, Align: 1.00, 373, 0.89
[A[2KProcessed: 23885 (0.88), R/S: 27.71, RL: 4543, Time: 15.00 3.00 76.00, Align: 1.00, 373, 0.89
[A[2KProcessed: 23956 (0.88), R/S: 27.72, RL: 4543, Time: 15.00 3.00 76.00, Align: 1.00, 373, 0.89
[A[2KProcessed: 24025 (0.88), R/S: 27.74, RL: 4543, Time: 15.00 3.00 76.00, Align: 1.00, 373, 0.89
[A[2KProcessed: 24075 (0.88), R/S: 27.73, RL: 4545, Time: 15.00 3.00 76.00, Align: 1.00, 373, 0.89
[A[2KProcessed: 24106 (0.88), R/S: 27.71, RL: 4545, Time: 15.00 3.00 76.00, Align: 1.00, 373, 0.89
[A[2KProcessed: 24134 (0.88), R/S: 27.67, RL: 4549, Time: 14.12 3.00 76.00, Align: 1.00, 373, 0.89
[A[2KProcessed: 24143 (0.88), R/S: 27.62, RL: 4550, Time: 14.06 3.00 76.00, Align: 1.00, 374, 0.89
[A[2KProcessed: 24171 (0.88), R/S: 27.59, RL: 4550, Time: 14.01 3.00 76.00, Align: 1.00, 374, 0.89
[A[2KProcessed: 24241 (0.88), R/S: 27.61, RL: 4550, Time: 14.00 3.00 76.00, Align: 1.00, 374, 0.89
[A[2KProcessed: 24260 (0.88), R/S: 27.57, RL: 4553, Time: 14.00 3.00 76.00, Align: 1.00, 374, 0.89
[A[2KProcessed: 24305 (0.89), R/S: 27.55, RL: 4553, Time: 14.00 3.00 76.00, Align: 1.00, 374, 0.89
[A[2KProcessed: 24334 (0.89), R/S: 27.52, RL: 4555, Time: 14.00 3.00 76.00, Align: 1.00, 374, 0.89
[A[2KProcessed: 24371 (0.89), R/S: 27.50, RL: 4558, Time: 14.00 3.00 76.00, Align: 1.00, 374, 0.89
[A[2KProcessed: 24388 (0.89), R/S: 27.46, RL: 4557, Time: 14.00 3.00 76.00, Align: 1.00, 374, 0.89
[A[2KProcessed: 24420 (0.89), R/S: 27.44, RL: 4560, Time: 14.00 3.00 76.00, Align: 1.00, 374, 0.89
[A[2KProcessed: 24488 (0.89), R/S: 27.45, RL: 4559, Time: 14.00 3.00 76.00, Align: 1.00, 374, 0.89
[A[2KProcessed: 24546 (0.89), R/S: 27.45, RL: 4560, Time: 14.00 3.00 76.00, Align: 1.00, 374, 0.89
[A[2KProcessed: 24605 (0.89), R/S: 27.46, RL: 4559, Time: 14.00 3.00 76.00, Align: 1.00, 374, 0.89
[A[2KProcessed: 24678 (0.89), R/S: 27.48, RL: 4558, Time: 14.00 3.00 76.00, Align: 1.00, 374, 0.89
[A[2KProcessed: 24691 (0.89), R/S: 27.43, RL: 4561, Time: 14.00 3.00 76.00, Align: 1.00, 374, 0.89
[A[2KProcessed: 24736 (0.89), R/S: 27.42, RL: 4562, Time: 14.00 3.00 76.00, Align: 1.00, 374, 0.89
[A[2KProcessed: 24780 (0.89), R/S: 27.41, RL: 4563, Time: 14.00 3.00 76.00, Align: 1.00, 374, 0.89
[A[2KProcessed: 24851 (0.89), R/S: 27.43, RL: 4562, Time: 14.00 3.00 76.00, Align: 1.00, 374, 0.89
[A[2KProcessed: 24890 (0.89), R/S: 27.41, RL: 4564, Time: 14.00 3.00 76.00, Align: 1.00, 374, 0.89
[A[2KProcessed: 24945 (0.89), R/S: 27.41, RL: 4565, Time: 14.00 3.00 76.00, Align: 1.00, 374, 0.89
[A[2KProcessed: 24991 (0.89), R/S: 27.40, RL: 4564, Time: 14.00 3.00 76.00, Align: 1.00, 374, 0.89
[A[2KProcessed: 25058 (0.89), R/S: 27.41, RL: 4563, Time: 14.00 3.00 76.00, Align: 1.00, 374, 0.89
[A[2KProcessed: 25130 (0.89), R/S: 27.43, RL: 4562, Time: 14.00 3.00 76.00, Align: 1.00, 374, 0.89
[A[2KProcessed: 25194 (0.89), R/S: 27.44, RL: 4563, Time: 14.00 3.00 76.00, Align: 1.00, 374, 0.89
[A[2KProcessed: 25236 (0.89), R/S: 27.43, RL: 4562, Time: 14.00 3.00 76.00, Align: 1.00, 375, 0.89
[A[2KProcessed: 25286 (0.89), R/S: 27.42, RL: 4565, Time: 14.00 3.00 76.00, Align: 1.00, 375, 0.89
[A[2KProcessed: 25301 (0.89), R/S: 27.38, RL: 4565, Time: 14.00 3.00 76.00, Align: 1.00, 375, 0.89
[A[2KProcessed: 25337 (0.89), R/S: 27.36, RL: 4565, Time: 14.00 3.00 76.00, Align: 1.00, 375, 0.89
[A[2KProcessed: 25337 (0.89), R/S: 27.30, RL: 4565, Time: 14.00 3.00 76.00, Align: 1.00, 375, 0.89
[A[2KProcessed: 25406 (0.89), R/S: 27.32, RL: 4564, Time: 14.00 3.00 76.00, Align: 1.00, 375, 0.89
[A[2KProcessed: 25470 (0.89), R/S: 27.33, RL: 4564, Time: 14.00 3.00 76.00, Align: 1.00, 375, 0.89
[A[2KProcessed: 25517 (0.89), R/S: 27.32, RL: 4565, Time: 14.00 3.00 76.00, Align: 1.00, 375, 0.89
[A[2KProcessed: 25568 (0.89), R/S: 27.31, RL: 4566, Time: 14.00 3.00 76.00, Align: 1.00, 375, 0.89
[A[2KProcessed: 25640 (0.89), R/S: 27.33, RL: 4568, Time: 14.00 3.00 76.00, Align: 1.00, 375, 0.89
[A[2KProcessed: 25681 (0.89), R/S: 27.32, RL: 4571, Time: 14.00 3.00 76.00, Align: 1.00, 375, 0.89
[A[2KProcessed: 25717 (0.89), R/S: 27.30, RL: 4570, Time: 14.00 3.00 76.00, Align: 1.00, 375, 0.89
[A[2KProcessed: 25740 (0.89), R/S: 27.26, RL: 4573, Time: 14.00 3.00 76.00, Align: 1.00, 376, 0.89
[A[2KProcessed: 25775 (0.89), R/S: 27.24, RL: 4573, Time: 14.00 3.00 76.00, Align: 1.00, 376, 0.89
[A[2KProcessed: 25841 (0.89), R/S: 27.26, RL: 4573, Time: 14.00 3.00 76.00, Align: 1.00, 376, 0.89
[A[2KProcessed: 25898 (0.89), R/S: 27.26, RL: 4572, Time: 14.00 3.00 76.00, Align: 1.00, 375, 0.89
[A[2KProcessed: 25945 (0.89), R/S: 27.25, RL: 4571, Time: 14.00 3.00 76.00, Align: 1.00, 375, 0.89
[A[2KProcessed: 26025 (0.89), R/S: 27.28, RL: 4569, Time: 14.00 3.00 76.00, Align: 1.00, 375, 0.89
[A[2KProcessed: 26086 (0.89), R/S: 27.28, RL: 4569, Time: 14.00 3.00 76.00, Align: 1.00, 375, 0.89
[A[2KProcessed: 26143 (0.89), R/S: 27.29, RL: 4573, Time: 14.00 3.00 76.00, Align: 1.00, 375, 0.89
[A[2KProcessed: 26177 (0.89), R/S: 27.26, RL: 4572, Time: 14.00 3.00 76.00, Align: 1.00, 375, 0.89
[A[2KProcessed: 26229 (0.89), R/S: 27.26, RL: 4573, Time: 14.00 3.00 76.00, Align: 1.00, 375, 0.89
[A[2KProcessed: 26280 (0.89), R/S: 27.26, RL: 4577, Time: 14.00 3.00 76.00, Align: 1.00, 375, 0.89
[A[2KProcessed: 26318 (0.89), R/S: 27.24, RL: 4577, Time: 14.00 3.00 76.00, Align: 1.00, 375, 0.89
[A[2KProcessed: 26370 (0.89), R/S: 27.24, RL: 4579, Time: 14.00 3.00 76.00, Align: 1.00, 375, 0.89
[A[2KProcessed: 26439 (0.89), R/S: 27.25, RL: 4576, Time: 14.00 3.00 76.00, Align: 1.00, 376, 0.89
[A[2KProcessed: 26499 (0.89), R/S: 27.26, RL: 4578, Time: 14.00 3.00 76.00, Align: 1.00, 376, 0.89
[A[2KProcessed: 26544 (0.89), R/S: 27.25, RL: 4581, Time: 14.00 3.00 76.00, Align: 1.00, 376, 0.89
[A[2KProcessed: 26610 (0.89), R/S: 27.26, RL: 4581, Time: 14.00 3.00 76.00, Align: 1.00, 376, 0.89
[A[2KProcessed: 26680 (0.89), R/S: 27.28, RL: 4581, Time: 14.00 3.00 76.00, Align: 1.00, 375, 0.89
[A[2KProcessed: 26745 (0.89), R/S: 27.29, RL: 4580, Time: 14.00 3.00 76.00, Align: 1.00, 375, 0.89
[A[2KProcessed: 26802 (0.89), R/S: 27.29, RL: 4582, Time: 14.00 3.00 76.00, Align: 1.00, 376, 0.89
[A[2KProcessed: 26856 (0.89), R/S: 27.29, RL: 4583, Time: 14.00 3.00 76.00, Align: 1.00, 375, 0.89
[A[2KProcessed: 26919 (0.89), R/S: 27.30, RL: 4582, Time: 14.00 3.00 76.00, Align: 1.00, 375, 0.89
[A[2KProcessed: 26970 (0.89), R/S: 27.29, RL: 4585, Time: 14.00 3.00 76.00, Align: 1.00, 375, 0.89
[A[2KProcessed: 26992 (0.89), R/S: 27.26, RL: 4586, Time: 14.00 3.00 76.00, Align: 1.00, 376, 0.89
[A[2KProcessed: 27011 (0.89), R/S: 27.23, RL: 4587, Time: 14.00 3.00 76.00, Align: 1.00, 376, 0.89
[A[2KProcessed: 27069 (0.89), R/S: 27.23, RL: 4585, Time: 14.00 3.00 76.00, Align: 1.00, 376, 0.89
[A[2KProcessed: 27119 (0.89), R/S: 27.23, RL: 4587, Time: 14.00 3.00 76.00, Align: 1.00, 376, 0.89
[A[2KProcessed: 27203 (0.89), R/S: 27.25, RL: 4586, Time: 14.00 3.00 76.00, Align: 1.00, 376, 0.89
[A[2KProcessed: 27262 (0.89), R/S: 27.26, RL: 4586, Time: 14.00 3.00 76.00, Align: 1.00, 376, 0.89
[A[2KProcessed: 27317 (0.89), R/S: 27.26, RL: 4586, Time: 14.00 3.00 76.00, Align: 1.00, 375, 0.89
[A[2KProcessed: 27359 (0.89), R/S: 27.25, RL: 4588, Time: 14.00 3.00 76.00, Align: 1.00, 376, 0.89
[A[2KProcessed: 27426 (0.89), R/S: 27.26, RL: 4588, Time: 14.00 3.00 76.00, Align: 1.00, 376, 0.89
[A[2KProcessed: 27486 (0.89), R/S: 27.26, RL: 4588, Time: 14.00 3.00 76.00, Align: 1.00, 375, 0.89
[A[2KProcessed: 27507 (0.89), R/S: 27.23, RL: 4590, Time: 14.00 3.00 76.00, Align: 1.00, 376, 0.89
[A[2KProcessed: 27507 (0.89), R/S: 27.18, RL: 4590, Time: 14.00 3.00 76.00, Align: 1.00, 376, 0.89
[A[2KProcessed: 27527 (0.89), R/S: 27.14, RL: 4593, Time: 14.00 3.00 76.00, Align: 1.00, 376, 0.89
[A[2KProcessed: 27548 (0.89), R/S: 27.11, RL: 4595, Time: 14.00 3.00 76.00, Align: 1.00, 376, 0.89
[A[2KProcessed: 27583 (0.89), R/S: 27.09, RL: 4595, Time: 14.00 3.00 76.00, Align: 1.00, 376, 0.89
[A[2KProcessed: 27583 (0.89), R/S: 27.04, RL: 4595, Time: 14.00 3.00 76.00, Align: 1.00, 376, 0.89
[A[2KProcessed: 27583 (0.89), R/S: 26.99, RL: 4595, Time: 14.00 3.00 76.00, Align: 1.00, 376, 0.89
[A[2KProcessed: 27594 (0.89), R/S: 26.94, RL: 4595, Time: 14.00 3.00 76.00, Align: 1.00, 376, 0.89
[A[2KProcessed: 27689 (0.89), R/S: 26.98, RL: 4590, Time: 14.00 3.00 76.00, Align: 1.00, 376, 0.89
[A[2KProcessed: 27751 (0.89), R/S: 26.99, RL: 4590, Time: 14.00 3.00 76.00, Align: 1.00, 376, 0.89
[A[2KProcessed: 27814 (0.89), R/S: 27.00, RL: 4590, Time: 14.00 3.00 76.00, Align: 1.00, 376, 0.89
[A[2KProcessed: 27863 (0.89), R/S: 27.00, RL: 4591, Time: 14.00 3.00 76.00, Align: 1.00, 376, 0.89
[A[2KProcessed: 27889 (0.89), R/S: 26.97, RL: 4591, Time: 14.00 3.00 76.00, Align: 1.00, 376, 0.89
[A[2KProcessed: 27945 (0.89), R/S: 26.97, RL: 4591, Time: 14.00 3.00 76.00, Align: 1.00, 376, 0.89
[A[2KProcessed: 28020 (0.89), R/S: 26.99, RL: 4589, Time: 14.00 3.00 76.00, Align: 1.00, 376, 0.89
[A[2KProcessed: 28081 (0.89), R/S: 27.00, RL: 4589, Time: 14.00 3.00 76.00, Align: 1.00, 376, 0.89
[A[2KProcessed: 28154 (0.89), R/S: 27.02, RL: 4587, Time: 14.00 3.00 76.00, Align: 1.00, 376, 0.89
[A[2KProcessed: 28230 (0.89), R/S: 27.04, RL: 4585, Time: 14.00 3.00 76.00, Align: 1.00, 376, 0.89
[A[2KProcessed: 28288 (0.89), R/S: 27.04, RL: 4585, Time: 14.00 3.00 76.00, Align: 1.00, 376, 0.89
[A[2KProcessed: 28351 (0.89), R/S: 27.05, RL: 4586, Time: 14.00 3.00 76.00, Align: 1.00, 376, 0.89
[A[2KProcessed: 28440 (0.89), R/S: 27.08, RL: 4584, Time: 14.00 3.00 76.00, Align: 1.00, 375, 0.89
[A[2KProcessed: 28456 (0.89), R/S: 27.05, RL: 4583, Time: 14.00 3.00 76.00, Align: 1.00, 376, 0.89
[A[2KProcessed: 28520 (0.89), R/S: 27.06, RL: 4581, Time: 14.00 3.00 76.00, Align: 1.00, 375, 0.89
[A[2KProcessed: 28620 (0.89), R/S: 27.10, RL: 4576, Time: 14.00 3.00 76.00, Align: 1.00, 375, 0.89
[A[2KProcessed: 28677 (0.89), R/S: 27.10, RL: 4574, Time: 14.00 3.00 76.00, Align: 1.00, 375, 0.89
[A[2KProcessed: 28733 (0.89), R/S: 27.10, RL: 4574, Time: 14.00 3.00 76.00, Align: 1.00, 375, 0.89
[A[2KProcessed: 28816 (0.89), R/S: 27.13, RL: 4571, Time: 14.00 3.00 76.00, Align: 1.00, 375, 0.89
[A[2KProcessed: 28877 (0.89), R/S: 27.14, RL: 4572, Time: 14.00 3.00 76.00, Align: 1.00, 375, 0.89
[A[2KProcessed: 28946 (0.89), R/S: 27.15, RL: 4571, Time: 14.00 3.00 76.00, Align: 1.00, 375, 0.89
[A[2KProcessed: 28976 (0.89), R/S: 27.13, RL: 4570, Time: 14.00 3.00 76.00, Align: 1.00, 375, 0.89
[A[2KProcessed: 29036 (0.89), R/S: 27.13, RL: 4571, Time: 14.00 3.00 76.00, Align: 1.00, 375, 0.89
[A[2KProcessed: 29088 (0.89), R/S: 27.13, RL: 4570, Time: 14.00 3.00 76.00, Align: 1.00, 375, 0.89
[A[2KProcessed: 29094 (0.89), R/S: 27.09, RL: 4572, Time: 14.00 3.00 76.00, Align: 1.00, 376, 0.89
[A[2KProcessed: 29143 (0.89), R/S: 27.08, RL: 4573, Time: 14.00 3.00 76.00, Align: 1.00, 376, 0.89
[A[2KProcessed: 29194 (0.89), R/S: 27.08, RL: 4574, Time: 14.00 3.00 76.00, Align: 1.00, 376, 0.89
[A[2KProcessed: 29267 (0.89), R/S: 27.10, RL: 4573, Time: 14.00 3.00 76.00, Align: 1.00, 376, 0.89
[A[2KProcessed: 29300 (0.89), R/S: 27.08, RL: 4573, Time: 14.00 3.00 76.00, Align: 1.00, 376, 0.89
[A[2KProcessed: 29355 (0.89), R/S: 27.08, RL: 4574, Time: 14.00 3.00 76.00, Align: 1.00, 376, 0.89
[A[2KProcessed: 29372 (0.89), R/S: 27.04, RL: 4575, Time: 14.00 3.00 76.00, Align: 1.00, 376, 0.89
[A[2KProcessed: 29390 (0.89), R/S: 27.01, RL: 4575, Time: 14.00 3.00 76.00, Align: 1.00, 376, 0.89
[A[2KProcessed: 29448 (0.89), R/S: 27.01, RL: 4574, Time: 14.00 3.00 76.00, Align: 1.00, 376, 0.89
[A[2KProcessed: 29496 (0.89), R/S: 27.01, RL: 4576, Time: 14.00 3.00 76.00, Align: 1.00, 376, 0.89
[A[2KProcessed: 29540 (0.89), R/S: 27.00, RL: 4577, Time: 14.00 3.00 76.00, Align: 1.00, 376, 0.89
[A[2KProcessed: 29600 (0.89), R/S: 27.00, RL: 4576, Time: 14.00 3.00 76.00, Align: 1.00, 376, 0.89
[A[2KProcessed: 29671 (0.89), R/S: 27.02, RL: 4575, Time: 14.00 3.00 76.00, Align: 1.00, 376, 0.89
[A[2KProcessed: 29733 (0.89), R/S: 27.03, RL: 4576, Time: 14.00 3.00 76.00, Align: 1.00, 376, 0.89
[A[2KProcessed: 29800 (0.89), R/S: 27.04, RL: 4576, Time: 14.00 3.00 76.00, Align: 1.00, 376, 0.89
[A[2KProcessed: 29871 (0.89), R/S: 27.05, RL: 4574, Time: 14.00 3.00 76.00, Align: 1.00, 376, 0.89
[A[2KProcessed: 29914 (0.89), R/S: 27.04, RL: 4574, Time: 14.00 3.00 76.00, Align: 1.00, 376, 0.89
[A[2KProcessed: 29967 (0.89), R/S: 27.04, RL: 4573, Time: 14.00 3.00 76.00, Align: 1.00, 376, 0.89
[A[2KProcessed: 30040 (0.89), R/S: 27.06, RL: 4573, Time: 14.00 3.00 76.00, Align: 1.00, 376, 0.89
[A[2KProcessed: 30095 (0.89), R/S: 27.06, RL: 4572, Time: 14.00 3.00 76.00, Align: 1.00, 376, 0.89
[A[2KProcessed: 30163 (0.89), R/S: 27.07, RL: 4571, Time: 14.00 3.00 76.00, Align: 1.00, 376, 0.89
[A[2KProcessed: 30204 (0.89), R/S: 27.06, RL: 4571, Time: 14.00 3.00 76.00, Align: 1.00, 376, 0.89
[A[2KProcessed: 30228 (0.89), R/S: 27.03, RL: 4573, Time: 14.00 3.00 76.00, Align: 1.00, 376, 0.89
[A[2KProcessed: 30280 (0.89), R/S: 27.03, RL: 4575, Time: 14.00 3.00 76.00, Align: 1.00, 376, 0.89
[A[2KProcessed: 30326 (0.89), R/S: 27.03, RL: 4573, Time: 14.00 3.00 76.00, Align: 1.00, 376, 0.89
[A[2KProcessed: 30395 (0.89), R/S: 27.04, RL: 4573, Time: 14.00 3.00 76.00, Align: 1.00, 376, 0.89
[A[2KProcessed: 30447 (0.89), R/S: 27.04, RL: 4575, Time: 14.00 3.00 76.00, Align: 1.00, 376, 0.89
[A[2KProcessed: 30468 (0.89), R/S: 27.01, RL: 4575, Time: 14.00 3.00 76.00, Align: 1.00, 376, 0.89
[A[2KProcessed: 30468 (0.89), R/S: 27.01, RL: 4575, Time: 14.00 3.00 76.00, Align: 1.00, 376, 0.89
Done (26985 reads mapped (88.57%), 3483 reads not mapped, 31894 lines written)(elapsed: 23m, 19 r/s)
[Mon Apr 29 09:52:39 2019]
Finished job 0.
1 of 1 steps (100%) done
