Wildcard constraints in inputs are ignored.
Building DAG of jobs...
Using shell: /usr/bin/bash
Provided cores: 32
Rules claiming more threads will be scaled down.
Job counts:
	count	jobs
	1	cnprofile
	1

[Mon Apr 29 09:35:40 2019]
rule cnprofile:
    input: /fast/users/helmsauk_c/scratch/Henssen_RMSPDX_NanoporeWGS_Feb2019/Alignment/rms1-4-alignment/rms1-4.NoBarcode.minimap_hg19.sorted.bam
    output: /fast/users/helmsauk_c/scratch/Henssen_RMSPDX_NanoporeWGS_Feb2019/Alignment/rms1-4-alignment/rms1-4.NoBarcode.minimap_hg19.sorted.bam.cnprofile.pdf
    jobid: 0
    wildcards: exp=rms1-4, dataset=rms1-4.NoBarcode.minimap_hg19

Rscript cnprofile.R /fast/users/helmsauk_c/scratch/Henssen_RMSPDX_NanoporeWGS_Feb2019/Alignment/rms1-4-alignment/rms1-4.NoBarcode.minimap_hg19.sorted.bam
Activating conda environment: /fast/work/users/helmsauk_c/nano-wgs/.snakemake/conda/4a95a64c
Annotation package QDNAseq.hg19 not found.
Downloading bin annotations for genome hg19, bin size 1000kbp, and experiment type SR50 from URL http://qdnaseq-ireland.s3.amazonaws.com ...
    rms1-4.NoBarcode.minimap_hg19.sorted (1 of 1): extracting reads ... binning ...
Note: Residual filter missing for chromosomes: X
3,113	total bins
3,053	of which in selected chromosomes
2,888	of which with reference sequence
2,637	final bins
Calculating correction for GC content and mappability
    Calculating fit for sample rms1-4.NoBarcode.minimap_hg19.sorted (1 of 1) ...
Done.
Applying median normalization ...
Performing segmentation:
NA
Plotting sample rms1-4.NoBarcode.minimap_hg19.sorted (26,694 reads) (1 of 1) ...
null device 
          1 
[Mon Apr 29 09:36:10 2019]
Finished job 0.
1 of 1 steps (100%) done
