Wildcard constraints in inputs are ignored.
Building DAG of jobs...
Using shell: /usr/bin/bash
Provided cores: 32
Rules claiming more threads will be scaled down.
Job counts:
	count	jobs
	1	ngmlr2genome
	1

[Mon Apr 29 09:29:26 2019]
rule ngmlr2genome:
    input: /fast/users/helmsauk_c/scratch/Henssen_RMSPDX_NanoporeWGS_Feb2019/Basecalled/rms1-4-basecalled/demultiplexed/rms1-4.NoBarcode.fastq, /fast/projects/cubit/current/static_data/reference/hg19/ucsc/hg19.fa
    output: /fast/users/helmsauk_c/scratch/Henssen_RMSPDX_NanoporeWGS_Feb2019/Alignment/rms1-4-alignment/rms1-4.Sample03.ngmlr_hg19.sam
    jobid: 0
    wildcards: run=rms1-4, dataset=rms1-4.Sample03

ngmlr -r /fast/projects/cubit/current/static_data/reference/hg19/ucsc/hg19.fa -q /fast/users/helmsauk_c/scratch/Henssen_RMSPDX_NanoporeWGS_Feb2019/Basecalled/rms1-4-basecalled/demultiplexed/rms1-4.NoBarcode.fastq -o /fast/users/helmsauk_c/scratch/Henssen_RMSPDX_NanoporeWGS_Feb2019/Alignment/rms1-4-alignment/rms1-4.Sample03.ngmlr_hg19.sam -x ont
ngmlr 0.2.7 (build: Mar  8 2019 09:29:16, start: 2019-04-29.09:29:26)
Contact: philipp.rescheneder@univie.ac.at
Opening for output (SAM): /fast/users/helmsauk_c/scratch/Henssen_RMSPDX_NanoporeWGS_Feb2019/Alignment/rms1-4-alignment/rms1-4.Sample03.ngmlr_hg19.sam
Encoding reference sequence.
Size of reference genome 3101 Mbp (max. 68719 Mbp)
0 reference sequences were skipped (length < 10).
Writing encoded reference to /fast/projects/cubit/current/static_data/reference/hg19/ucsc/hg19.fa-enc.2.ngm
WARNING: Could not write encoded reference file to disk: Unable to open output file /fast/projects/cubit/current/static_data/reference/hg19/ucsc/hg19.fa-enc.2.ngm. Please check file permissions.
Building reference index #0 (kmer length: 13, reference skip: 2)
57552 prefixes were ignored due to the frequency cutoff (1000)
Overall time for creating RefTable: 268.68s
Writing reference index to /fast/projects/cubit/current/static_data/reference/hg19/ucsc/hg19.fa-ht-13-2.2.ngm
WARNING: Could not write reference index to disk: Error while opening file /fast/projects/cubit/current/static_data/reference/hg19/ucsc/hg19.fa-ht-13-2.2.ngm for writing. Please check file permissions.
Opening query file /fast/users/helmsauk_c/scratch/Henssen_RMSPDX_NanoporeWGS_Feb2019/Basecalled/rms1-4-basecalled/demultiplexed/rms1-4.NoBarcode.fastq
Mapping reads...
Processed: 59 (0.86), R/S: 29.50, RL: 3921, Time: 27.16 3.38 60.97, Align: 1.00, 374, 0.83
[A[2KProcessed: 129 (0.91), R/S: 32.25, RL: 3698, Time: 23.16 3.51 67.35, Align: 1.00, 481, 0.86
[A[2KProcessed: 154 (0.92), R/S: 25.66, RL: 4038, Time: 20.64 3.94 65.04, Align: 1.00, 456, 0.87
[A[2KProcessed: 216 (0.91), R/S: 27.00, RL: 4011, Time: 20.95 4.97 62.05, Align: 1.00, 435, 0.87
[A[2KProcessed: 263 (0.89), R/S: 26.30, RL: 4294, Time: 20.06 5.00 65.35, Align: 1.00, 428, 0.88
[A[2KProcessed: 320 (0.89), R/S: 26.66, RL: 4559, Time: 20.50 5.00 64.08, Align: 1.00, 414, 0.88
[A[2KProcessed: 355 (0.90), R/S: 25.35, RL: 4475, Time: 20.94 5.00 64.76, Align: 1.00, 421, 0.89
[A[2KProcessed: 404 (0.89), R/S: 25.25, RL: 4596, Time: 20.03 5.00 65.96, Align: 1.00, 412, 0.89
[A[2KProcessed: 431 (0.89), R/S: 23.94, RL: 4697, Time: 19.50 5.00 65.75, Align: 1.00, 411, 0.89
[A[2KProcessed: 520 (0.88), R/S: 26.00, RL: 4529, Time: 19.00 4.25 67.94, Align: 1.00, 400, 0.89
[A[2KProcessed: 554 (0.88), R/S: 25.18, RL: 4550, Time: 19.00 4.03 67.99, Align: 1.00, 402, 0.90
[A[2KProcessed: 628 (0.87), R/S: 26.16, RL: 4463, Time: 18.01 4.00 69.74, Align: 1.00, 398, 0.90
[A[2KProcessed: 671 (0.87), R/S: 25.81, RL: 4535, Time: 17.25 4.00 70.71, Align: 1.00, 398, 0.90
[A[2KProcessed: 718 (0.86), R/S: 25.64, RL: 4569, Time: 17.02 4.00 70.79, Align: 1.00, 400, 0.90
[A[2KProcessed: 777 (0.86), R/S: 25.90, RL: 4539, Time: 17.00 4.00 71.98, Align: 1.00, 396, 0.90
[A[2KProcessed: 845 (0.86), R/S: 26.40, RL: 4545, Time: 17.00 4.00 72.00, Align: 1.00, 391, 0.90
[A[2KProcessed: 931 (0.86), R/S: 27.38, RL: 4489, Time: 17.00 4.00 72.00, Align: 1.00, 386, 0.90
[A[2KProcessed: 992 (0.86), R/S: 27.55, RL: 4521, Time: 17.00 4.00 72.50, Align: 1.00, 386, 0.90
[A[2KProcessed: 1056 (0.87), R/S: 27.78, RL: 4481, Time: 17.00 4.00 72.99, Align: 1.00, 383, 0.90
[A[2KProcessed: 1083 (0.87), R/S: 27.07, RL: 4501, Time: 17.00 4.00 73.00, Align: 1.00, 392, 0.90
[A[2KProcessed: 1120 (0.87), R/S: 26.66, RL: 4557, Time: 16.06 3.06 73.94, Align: 1.00, 390, 0.90
[A[2KProcessed: 1172 (0.87), R/S: 26.63, RL: 4541, Time: 16.00 3.00 74.00, Align: 1.00, 392, 0.90
[A[2KProcessed: 1240 (0.87), R/S: 26.95, RL: 4546, Time: 16.00 3.00 74.00, Align: 1.00, 390, 0.90
[A[2KProcessed: 1288 (0.87), R/S: 26.83, RL: 4542, Time: 16.00 3.00 74.00, Align: 1.00, 388, 0.90
[A[2KProcessed: 1375 (0.88), R/S: 27.50, RL: 4446, Time: 16.00 3.00 73.12, Align: 1.00, 386, 0.90
[A[2KProcessed: 1425 (0.88), R/S: 27.40, RL: 4492, Time: 16.00 3.00 73.88, Align: 1.00, 388, 0.90
[A[2KProcessed: 1425 (0.88), R/S: 26.39, RL: 4492, Time: 16.00 3.00 73.88, Align: 1.00, 389, 0.90
[A[2KProcessed: 1470 (0.88), R/S: 26.25, RL: 4563, Time: 15.03 3.00 74.96, Align: 1.00, 389, 0.90
[A[2KProcessed: 1536 (0.88), R/S: 26.48, RL: 4512, Time: 15.00 3.00 75.00, Align: 1.00, 387, 0.90
[A[2KProcessed: 1594 (0.88), R/S: 26.56, RL: 4519, Time: 15.00 3.00 75.00, Align: 1.00, 387, 0.90
[A[2KProcessed: 1666 (0.88), R/S: 26.87, RL: 4477, Time: 15.00 3.00 75.00, Align: 1.00, 386, 0.90
[A[2KProcessed: 1726 (0.88), R/S: 26.97, RL: 4496, Time: 15.00 3.00 75.00, Align: 1.00, 385, 0.90
[A[2KProcessed: 1778 (0.88), R/S: 26.94, RL: 4521, Time: 15.00 3.00 75.00, Align: 1.00, 384, 0.90
[A[2KProcessed: 1846 (0.89), R/S: 27.14, RL: 4512, Time: 15.00 3.00 75.00, Align: 1.00, 383, 0.90
[A[2KProcessed: 1877 (0.89), R/S: 26.81, RL: 4549, Time: 15.00 3.00 75.50, Align: 1.00, 384, 0.90
[A[2KProcessed: 1911 (0.89), R/S: 26.54, RL: 4581, Time: 15.00 3.00 75.47, Align: 1.00, 384, 0.90
[A[2KProcessed: 1962 (0.89), R/S: 26.51, RL: 4570, Time: 15.00 3.00 75.01, Align: 1.00, 383, 0.90
[A[2KProcessed: 2036 (0.89), R/S: 26.79, RL: 4557, Time: 15.00 3.00 75.00, Align: 1.00, 381, 0.89
[A[2KProcessed: 2091 (0.89), R/S: 26.80, RL: 4593, Time: 15.00 3.00 75.00, Align: 1.00, 380, 0.90
[A[2KProcessed: 2127 (0.89), R/S: 26.58, RL: 4587, Time: 15.00 3.00 75.00, Align: 1.00, 382, 0.90
[A[2KProcessed: 2166 (0.89), R/S: 26.41, RL: 4581, Time: 15.00 3.00 75.00, Align: 1.00, 381, 0.89
[A[2KProcessed: 2233 (0.89), R/S: 26.58, RL: 4581, Time: 15.00 3.00 75.00, Align: 1.00, 382, 0.89
[A[2KProcessed: 2288 (0.89), R/S: 26.60, RL: 4586, Time: 15.00 3.00 74.12, Align: 1.00, 381, 0.90
[A[2KProcessed: 2352 (0.89), R/S: 26.72, RL: 4580, Time: 15.00 3.00 74.97, Align: 1.00, 380, 0.89
[A[2KProcessed: 2406 (0.89), R/S: 26.73, RL: 4590, Time: 15.00 3.00 75.00, Align: 1.00, 381, 0.89
[A[2KProcessed: 2484 (0.89), R/S: 27.00, RL: 4566, Time: 15.00 3.00 75.00, Align: 1.00, 381, 0.89
[A[2KProcessed: 2544 (0.89), R/S: 27.06, RL: 4575, Time: 15.00 3.00 75.00, Align: 1.00, 380, 0.89
[A[2KProcessed: 2610 (0.89), R/S: 27.18, RL: 4587, Time: 15.00 3.00 75.00, Align: 1.00, 379, 0.89
[A[2KProcessed: 2649 (0.89), R/S: 27.03, RL: 4585, Time: 15.00 3.00 75.00, Align: 1.00, 380, 0.89
[A[2KProcessed: 2670 (0.89), R/S: 26.70, RL: 4600, Time: 15.00 3.00 75.00, Align: 1.00, 381, 0.89
[A[2KProcessed: 2732 (0.89), R/S: 26.78, RL: 4594, Time: 15.00 3.00 75.00, Align: 1.00, 379, 0.89
[A[2KProcessed: 2802 (0.89), R/S: 26.94, RL: 4596, Time: 15.00 3.00 75.00, Align: 1.00, 379, 0.89
[A[2KProcessed: 2873 (0.89), R/S: 27.10, RL: 4587, Time: 15.00 3.00 75.00, Align: 1.00, 378, 0.89
[A[2KProcessed: 2932 (0.89), R/S: 27.15, RL: 4586, Time: 15.00 3.00 75.00, Align: 1.00, 377, 0.89
[A[2KProcessed: 2989 (0.89), R/S: 27.17, RL: 4576, Time: 15.00 3.00 75.00, Align: 1.00, 378, 0.89
[A[2KProcessed: 3062 (0.89), R/S: 27.34, RL: 4582, Time: 15.00 3.00 75.00, Align: 1.00, 377, 0.89
[A[2KProcessed: 3130 (0.89), R/S: 27.45, RL: 4578, Time: 15.00 3.00 75.00, Align: 1.00, 377, 0.89
[A[2KProcessed: 3190 (0.89), R/S: 27.50, RL: 4562, Time: 15.00 3.00 75.00, Align: 1.00, 376, 0.89
[A[2KProcessed: 3271 (0.89), R/S: 27.72, RL: 4544, Time: 15.00 3.00 75.00, Align: 1.00, 376, 0.89
[A[2KProcessed: 3332 (0.89), R/S: 27.76, RL: 4532, Time: 15.00 3.00 75.00, Align: 1.00, 376, 0.89
[A[2KProcessed: 3398 (0.89), R/S: 27.85, RL: 4520, Time: 15.00 3.00 75.00, Align: 1.00, 375, 0.89
[A[2KProcessed: 3486 (0.89), R/S: 28.11, RL: 4499, Time: 15.00 3.00 75.00, Align: 1.00, 375, 0.89
[A[2KProcessed: 3549 (0.89), R/S: 28.16, RL: 4498, Time: 15.00 3.00 75.00, Align: 1.00, 374, 0.89
[A[2KProcessed: 3603 (0.89), R/S: 28.15, RL: 4528, Time: 15.00 3.00 75.00, Align: 1.00, 374, 0.89
[A[2KProcessed: 3647 (0.89), R/S: 28.05, RL: 4537, Time: 15.00 3.00 75.00, Align: 1.00, 374, 0.89
[A[2KProcessed: 3732 (0.89), R/S: 28.27, RL: 4528, Time: 15.00 3.00 75.00, Align: 1.00, 373, 0.89
[A[2KProcessed: 3781 (0.89), R/S: 28.21, RL: 4567, Time: 15.00 3.00 75.00, Align: 1.00, 375, 0.89
[A[2KProcessed: 3832 (0.89), R/S: 28.17, RL: 4567, Time: 15.00 3.00 75.00, Align: 1.00, 375, 0.89
[A[2KProcessed: 3892 (0.89), R/S: 28.20, RL: 4571, Time: 15.00 3.00 75.00, Align: 1.00, 375, 0.89
[A[2KProcessed: 3920 (0.89), R/S: 28.00, RL: 4577, Time: 15.00 3.00 75.00, Align: 1.00, 376, 0.89
[A[2KProcessed: 3982 (0.89), R/S: 28.04, RL: 4571, Time: 15.00 3.00 75.00, Align: 1.00, 376, 0.89
[A[2KProcessed: 4032 (0.89), R/S: 28.00, RL: 4576, Time: 15.00 3.00 75.00, Align: 1.00, 377, 0.89
[A[2KProcessed: 4099 (0.89), R/S: 28.07, RL: 4557, Time: 15.00 3.00 75.00, Align: 1.00, 376, 0.89
[A[2KProcessed: 4151 (0.89), R/S: 28.04, RL: 4584, Time: 15.00 3.00 75.00, Align: 1.00, 377, 0.89
[A[2KProcessed: 4151 (0.89), R/S: 27.67, RL: 4584, Time: 15.00 3.00 75.00, Align: 1.00, 377, 0.89
[A[2KProcessed: 4158 (0.89), R/S: 27.35, RL: 4576, Time: 15.00 3.00 75.00, Align: 1.00, 378, 0.89
[A[2KProcessed: 4227 (0.89), R/S: 27.45, RL: 4574, Time: 15.00 3.00 75.99, Align: 1.00, 377, 0.89
[A[2KProcessed: 4311 (0.89), R/S: 27.63, RL: 4562, Time: 15.00 3.00 76.00, Align: 1.00, 376, 0.89
[A[2KProcessed: 4363 (0.89), R/S: 27.61, RL: 4574, Time: 15.00 3.00 76.00, Align: 1.00, 376, 0.89
[A[2KProcessed: 4419 (0.89), R/S: 27.62, RL: 4570, Time: 15.00 3.00 75.12, Align: 1.00, 376, 0.89
[A[2KProcessed: 4450 (0.89), R/S: 27.47, RL: 4591, Time: 15.00 3.00 75.88, Align: 1.00, 377, 0.89
[A[2KProcessed: 4507 (0.89), R/S: 27.48, RL: 4583, Time: 15.00 3.00 76.00, Align: 1.00, 378, 0.89
[A[2KProcessed: 4561 (0.89), R/S: 27.47, RL: 4597, Time: 15.00 3.00 76.00, Align: 1.00, 378, 0.89
[A[2KProcessed: 4620 (0.89), R/S: 27.50, RL: 4602, Time: 15.00 3.00 76.00, Align: 1.00, 378, 0.89
[A[2KProcessed: 4665 (0.89), R/S: 27.44, RL: 4612, Time: 15.00 3.00 76.00, Align: 1.00, 378, 0.89
[A[2KProcessed: 4712 (0.89), R/S: 27.39, RL: 4627, Time: 15.00 3.00 76.00, Align: 1.00, 378, 0.89
[A[2KProcessed: 4789 (0.89), R/S: 27.52, RL: 4604, Time: 15.00 3.00 76.00, Align: 1.00, 378, 0.89
[A[2KProcessed: 4824 (0.89), R/S: 27.41, RL: 4604, Time: 15.00 3.00 76.00, Align: 1.00, 378, 0.89
[A[2KProcessed: 4871 (0.89), R/S: 27.36, RL: 4619, Time: 15.00 3.00 76.00, Align: 1.00, 378, 0.89
[A[2KProcessed: 4943 (0.89), R/S: 27.46, RL: 4617, Time: 15.00 3.00 76.00, Align: 1.00, 377, 0.89
[A[2KProcessed: 5007 (0.89), R/S: 27.51, RL: 4613, Time: 15.00 3.00 76.00, Align: 1.00, 377, 0.89
[A[2KProcessed: 5091 (0.89), R/S: 27.67, RL: 4601, Time: 15.00 3.00 76.00, Align: 1.00, 376, 0.89
[A[2KProcessed: 5157 (0.89), R/S: 27.72, RL: 4596, Time: 15.00 3.00 76.00, Align: 1.00, 376, 0.89
[A[2KProcessed: 5210 (0.89), R/S: 27.71, RL: 4608, Time: 15.00 3.00 76.00, Align: 1.00, 376, 0.89
[A[2KProcessed: 5267 (0.89), R/S: 27.72, RL: 4605, Time: 15.00 3.00 76.00, Align: 1.00, 376, 0.89
[A[2KProcessed: 5330 (0.89), R/S: 27.76, RL: 4617, Time: 15.00 3.00 76.00, Align: 1.00, 376, 0.89
[A[2KProcessed: 5363 (0.89), R/S: 27.64, RL: 4620, Time: 15.00 3.00 76.00, Align: 1.00, 375, 0.89
[A[2KProcessed: 5420 (0.89), R/S: 27.65, RL: 4640, Time: 15.00 3.00 76.00, Align: 1.00, 375, 0.89
[A[2KProcessed: 5475 (0.89), R/S: 27.65, RL: 4635, Time: 15.00 3.00 76.00, Align: 1.00, 375, 0.89
[A[2KProcessed: 5507 (0.89), R/S: 27.53, RL: 4641, Time: 15.00 3.00 75.25, Align: 1.00, 375, 0.89
[A[2KProcessed: 5597 (0.89), R/S: 27.71, RL: 4627, Time: 15.00 3.00 75.00, Align: 1.00, 374, 0.89
[A[2KProcessed: 5667 (0.89), R/S: 27.78, RL: 4626, Time: 15.00 3.00 75.00, Align: 1.00, 374, 0.89
[A[2KProcessed: 5752 (0.89), R/S: 27.92, RL: 4613, Time: 15.00 3.00 75.00, Align: 1.00, 373, 0.89
[A[2KProcessed: 5810 (0.89), R/S: 27.93, RL: 4619, Time: 15.00 3.00 75.00, Align: 1.00, 373, 0.89
[A[2KProcessed: 5873 (0.89), R/S: 27.96, RL: 4617, Time: 15.00 3.00 75.00, Align: 1.00, 373, 0.89
[A[2KProcessed: 5937 (0.89), R/S: 28.00, RL: 4618, Time: 15.00 3.00 75.00, Align: 1.00, 373, 0.89
[A[2KProcessed: 5987 (0.89), R/S: 27.97, RL: 4626, Time: 15.00 3.00 75.00, Align: 1.00, 372, 0.89
[A[2KProcessed: 6035 (0.89), R/S: 27.94, RL: 4624, Time: 15.00 3.00 75.00, Align: 1.00, 373, 0.89
[A[2KProcessed: 6035 (0.89), R/S: 27.68, RL: 4624, Time: 15.00 3.00 75.00, Align: 1.00, 374, 0.89
[A[2KProcessed: 6070 (0.89), R/S: 27.59, RL: 4626, Time: 15.00 3.00 75.94, Align: 1.00, 374, 0.89
[A[2KProcessed: 6150 (0.89), R/S: 27.70, RL: 4618, Time: 15.00 3.00 76.00, Align: 1.00, 373, 0.89
[A[2KProcessed: 6240 (0.89), R/S: 27.85, RL: 4603, Time: 15.00 3.00 76.00, Align: 1.00, 373, 0.89
[A[2KProcessed: 6310 (0.89), R/S: 27.92, RL: 4603, Time: 15.00 3.00 76.00, Align: 1.00, 372, 0.89
[A[2KProcessed: 6389 (0.89), R/S: 28.02, RL: 4587, Time: 15.00 3.00 76.00, Align: 1.00, 372, 0.89
[A[2KProcessed: 6453 (0.89), R/S: 28.05, RL: 4590, Time: 15.00 3.00 76.00, Align: 1.00, 372, 0.89
[A[2KProcessed: 6530 (0.89), R/S: 28.14, RL: 4593, Time: 15.00 3.00 76.00, Align: 1.00, 371, 0.89
[A[2KProcessed: 6581 (0.89), R/S: 28.12, RL: 4604, Time: 15.00 3.00 76.00, Align: 1.00, 371, 0.89
[A[2KProcessed: 6636 (0.89), R/S: 28.12, RL: 4610, Time: 15.00 3.00 76.00, Align: 1.00, 371, 0.89
[A[2KProcessed: 6659 (0.89), R/S: 27.98, RL: 4615, Time: 15.00 3.00 75.50, Align: 1.00, 372, 0.89
[A[2KProcessed: 6700 (0.89), R/S: 27.91, RL: 4623, Time: 15.00 3.00 75.98, Align: 1.00, 372, 0.89
[A[2KProcessed: 6740 (0.89), R/S: 27.85, RL: 4634, Time: 15.00 3.00 76.00, Align: 1.00, 372, 0.89
[A[2KProcessed: 6796 (0.89), R/S: 27.85, RL: 4631, Time: 15.00 3.00 76.00, Align: 1.00, 372, 0.89
[A[2KProcessed: 6825 (0.89), R/S: 27.74, RL: 4636, Time: 15.00 3.00 76.00, Align: 1.00, 372, 0.89
[A[2KProcessed: 6889 (0.89), R/S: 27.78, RL: 4630, Time: 15.00 3.00 76.00, Align: 1.00, 372, 0.89
[A[2KProcessed: 6946 (0.89), R/S: 27.78, RL: 4636, Time: 15.00 3.00 76.00, Align: 1.00, 372, 0.89
[A[2KProcessed: 7007 (0.89), R/S: 27.80, RL: 4642, Time: 15.00 3.00 76.00, Align: 1.00, 372, 0.89
[A[2KProcessed: 7054 (0.89), R/S: 27.77, RL: 4655, Time: 15.00 3.00 76.00, Align: 1.00, 372, 0.89
[A[2KProcessed: 7097 (0.89), R/S: 27.72, RL: 4659, Time: 15.00 3.00 76.00, Align: 1.00, 372, 0.89
[A[2KProcessed: 7154 (0.89), R/S: 27.73, RL: 4662, Time: 15.00 3.00 76.00, Align: 1.00, 372, 0.89
[A[2KProcessed: 7224 (0.89), R/S: 27.78, RL: 4657, Time: 15.00 3.00 76.00, Align: 1.00, 371, 0.89
[A[2KProcessed: 7309 (0.89), R/S: 27.89, RL: 4646, Time: 15.00 3.00 76.00, Align: 1.00, 371, 0.89
[A[2KProcessed: 7370 (0.89), R/S: 27.91, RL: 4648, Time: 15.00 3.00 76.00, Align: 1.00, 371, 0.89
[A[2KProcessed: 7422 (0.89), R/S: 27.90, RL: 4655, Time: 15.00 3.00 76.00, Align: 1.00, 371, 0.89
[A[2KProcessed: 7429 (0.89), R/S: 27.72, RL: 4651, Time: 15.00 3.00 76.00, Align: 1.00, 373, 0.89
[A[2KProcessed: 7451 (0.89), R/S: 27.59, RL: 4654, Time: 15.00 3.00 76.00, Align: 1.00, 373, 0.89
[A[2KProcessed: 7530 (0.89), R/S: 27.68, RL: 4652, Time: 15.00 3.00 76.00, Align: 1.00, 373, 0.89
[A[2KProcessed: 7569 (0.89), R/S: 27.62, RL: 4647, Time: 15.00 3.00 76.00, Align: 1.00, 373, 0.89
[A[2KProcessed: 7631 (0.89), R/S: 27.65, RL: 4646, Time: 15.00 3.00 76.00, Align: 1.00, 373, 0.89
[A[2KProcessed: 7661 (0.89), R/S: 27.56, RL: 4651, Time: 15.00 3.00 76.00, Align: 1.00, 373, 0.89
[A[2KProcessed: 7723 (0.89), R/S: 27.58, RL: 4648, Time: 15.00 3.00 76.00, Align: 1.00, 373, 0.89
[A[2KProcessed: 7775 (0.89), R/S: 27.57, RL: 4650, Time: 15.00 3.00 76.00, Align: 1.00, 373, 0.89
[A[2KProcessed: 7835 (0.89), R/S: 27.59, RL: 4648, Time: 15.00 3.00 76.00, Align: 1.00, 373, 0.89
[A[2KProcessed: 7882 (0.89), R/S: 27.56, RL: 4655, Time: 15.00 3.00 76.00, Align: 1.00, 373, 0.89
[A[2KProcessed: 7917 (0.89), R/S: 27.49, RL: 4653, Time: 15.00 3.00 76.00, Align: 1.00, 373, 0.89
[A[2KProcessed: 7975 (0.89), R/S: 27.50, RL: 4657, Time: 15.00 3.00 76.00, Align: 1.00, 373, 0.89
[A[2KProcessed: 8009 (0.89), R/S: 27.43, RL: 4656, Time: 15.00 3.00 76.00, Align: 1.00, 373, 0.89
[A[2KProcessed: 8070 (0.89), R/S: 27.45, RL: 4657, Time: 15.00 3.00 76.00, Align: 1.00, 373, 0.89
[A[2KProcessed: 8149 (0.89), R/S: 27.53, RL: 4647, Time: 15.00 3.00 76.00, Align: 1.00, 373, 0.89
[A[2KProcessed: 8220 (0.89), R/S: 27.58, RL: 4644, Time: 15.00 3.00 76.00, Align: 1.00, 373, 0.89
[A[2KProcessed: 8286 (0.89), R/S: 27.62, RL: 4643, Time: 15.00 3.00 76.00, Align: 1.00, 373, 0.89
[A[2KProcessed: 8360 (0.89), R/S: 27.68, RL: 4640, Time: 15.00 3.00 76.00, Align: 1.00, 373, 0.89
[A[2KProcessed: 8416 (0.89), R/S: 27.68, RL: 4643, Time: 15.00 3.00 76.00, Align: 1.00, 373, 0.89
[A[2KProcessed: 8467 (0.89), R/S: 27.67, RL: 4650, Time: 15.00 3.00 76.00, Align: 1.00, 373, 0.89
[A[2KProcessed: 8467 (0.89), R/S: 27.49, RL: 4650, Time: 15.00 3.00 76.00, Align: 1.00, 373, 0.89
[A[2KProcessed: 8516 (0.89), R/S: 27.47, RL: 4651, Time: 15.00 3.00 76.00, Align: 1.00, 373, 0.89
[A[2KProcessed: 8570 (0.89), R/S: 27.47, RL: 4660, Time: 15.00 3.00 76.00, Align: 1.00, 373, 0.89
[A[2KProcessed: 8628 (0.89), R/S: 27.48, RL: 4651, Time: 15.00 3.00 76.00, Align: 1.00, 373, 0.89
[A[2KProcessed: 8700 (0.89), R/S: 27.53, RL: 4654, Time: 15.00 3.00 76.00, Align: 1.00, 373, 0.89
[A[2KProcessed: 8781 (0.89), R/S: 27.61, RL: 4645, Time: 15.00 3.00 76.00, Align: 1.00, 373, 0.89
[A[2KProcessed: 8816 (0.89), R/S: 27.55, RL: 4642, Time: 15.00 3.00 76.00, Align: 1.00, 373, 0.89
[A[2KProcessed: 8876 (0.89), R/S: 27.56, RL: 4648, Time: 15.00 3.00 76.00, Align: 1.00, 373, 0.89
[A[2KProcessed: 8910 (0.89), R/S: 27.50, RL: 4652, Time: 15.00 3.00 76.00, Align: 1.00, 373, 0.89
[A[2KProcessed: 8955 (0.89), R/S: 27.47, RL: 4653, Time: 15.00 3.00 76.00, Align: 1.00, 373, 0.89
[A[2KProcessed: 9031 (0.89), R/S: 27.53, RL: 4644, Time: 15.00 3.00 76.00, Align: 1.00, 374, 0.89
[A[2KProcessed: 9118 (0.89), R/S: 27.63, RL: 4633, Time: 15.00 3.00 76.00, Align: 1.00, 374, 0.89
[A[2KProcessed: 9202 (0.89), R/S: 27.71, RL: 4629, Time: 15.00 3.00 76.00, Align: 1.00, 373, 0.89
[A[2KProcessed: 9263 (0.89), R/S: 27.73, RL: 4637, Time: 15.00 3.00 76.00, Align: 1.00, 373, 0.89
[A[2KProcessed: 9290 (0.89), R/S: 27.65, RL: 4634, Time: 15.00 3.00 76.00, Align: 1.00, 374, 0.89
[A[2KProcessed: 9341 (0.89), R/S: 27.63, RL: 4630, Time: 15.00 3.00 76.00, Align: 1.00, 374, 0.89
[A[2KProcessed: 9378 (0.89), R/S: 27.58, RL: 4630, Time: 15.00 3.00 76.00, Align: 1.00, 374, 0.89
[A[2KProcessed: 9420 (0.88), R/S: 27.54, RL: 4643, Time: 14.03 3.00 76.00, Align: 1.00, 375, 0.89
[A[2KProcessed: 9463 (0.89), R/S: 27.51, RL: 4641, Time: 14.00 3.00 76.00, Align: 1.00, 375, 0.89
[A[2KProcessed: 9521 (0.89), R/S: 27.51, RL: 4644, Time: 14.00 3.00 76.00, Align: 1.00, 375, 0.89
[A[2KProcessed: 9562 (0.89), R/S: 27.47, RL: 4646, Time: 14.00 3.00 76.00, Align: 1.00, 375, 0.89
[A[2KProcessed: 9589 (0.88), R/S: 27.39, RL: 4644, Time: 14.00 3.00 76.00, Align: 1.00, 375, 0.89
[A[2KProcessed: 9644 (0.88), R/S: 27.40, RL: 4653, Time: 14.00 3.00 76.00, Align: 1.00, 375, 0.89
[A[2KProcessed: 9703 (0.88), R/S: 27.41, RL: 4654, Time: 14.00 3.00 76.00, Align: 1.00, 375, 0.89
[A[2KProcessed: 9768 (0.88), R/S: 27.44, RL: 4653, Time: 14.00 3.00 76.00, Align: 1.00, 375, 0.89
[A[2KProcessed: 9849 (0.88), R/S: 27.51, RL: 4648, Time: 14.00 3.00 76.00, Align: 1.00, 374, 0.89
[A[2KProcessed: 9927 (0.88), R/S: 27.57, RL: 4644, Time: 14.97 3.00 76.00, Align: 1.00, 374, 0.89
[A[2KProcessed: 9989 (0.88), R/S: 27.59, RL: 4642, Time: 15.00 3.00 76.00, Align: 1.00, 374, 0.89
[A[2KProcessed: 10043 (0.88), R/S: 27.59, RL: 4644, Time: 15.00 3.00 76.00, Align: 1.00, 374, 0.89
[A[2KProcessed: 10102 (0.88), R/S: 27.60, RL: 4646, Time: 15.00 3.00 76.00, Align: 1.00, 374, 0.89
[A[2KProcessed: 10156 (0.88), R/S: 27.60, RL: 4647, Time: 15.00 3.00 76.00, Align: 1.00, 374, 0.89
[A[2KProcessed: 10203 (0.89), R/S: 27.57, RL: 4656, Time: 15.00 3.00 76.00, Align: 1.00, 374, 0.89
[A[2KProcessed: 10220 (0.89), R/S: 27.47, RL: 4656, Time: 14.25 3.00 76.00, Align: 1.00, 375, 0.89
[A[2KProcessed: 10290 (0.89), R/S: 27.51, RL: 4656, Time: 14.00 3.00 76.00, Align: 1.00, 374, 0.89
[A[2KProcessed: 10341 (0.89), R/S: 27.50, RL: 4653, Time: 14.00 3.00 76.00, Align: 1.00, 375, 0.89
[A[2KProcessed: 10430 (0.89), R/S: 27.59, RL: 4648, Time: 14.00 3.00 76.00, Align: 1.00, 374, 0.89
[A[2KProcessed: 10490 (0.89), R/S: 27.60, RL: 4655, Time: 14.75 3.00 76.00, Align: 1.00, 374, 0.89
[A[2KProcessed: 10540 (0.89), R/S: 27.59, RL: 4653, Time: 14.99 3.00 76.00, Align: 1.00, 374, 0.89
[A[2KProcessed: 10611 (0.89), R/S: 27.63, RL: 4649, Time: 15.00 3.00 76.00, Align: 1.00, 374, 0.89
[A[2KProcessed: 10652 (0.89), R/S: 27.59, RL: 4656, Time: 15.00 3.00 76.00, Align: 1.00, 374, 0.89
[A[2KProcessed: 10684 (0.89), R/S: 27.53, RL: 4659, Time: 15.00 3.00 76.00, Align: 1.00, 375, 0.89
[A[2KProcessed: 10721 (0.89), R/S: 27.49, RL: 4662, Time: 15.00 3.00 76.00, Align: 1.00, 375, 0.89
[A[2KProcessed: 10776 (0.89), R/S: 27.49, RL: 4659, Time: 14.03 3.00 76.50, Align: 1.00, 375, 0.89
[A[2KProcessed: 10807 (0.89), R/S: 27.43, RL: 4663, Time: 14.00 3.00 76.19, Align: 1.00, 375, 0.89
[A[2KProcessed: 10860 (0.89), R/S: 27.42, RL: 4666, Time: 14.00 3.00 76.99, Align: 1.00, 375, 0.89
[A[2KProcessed: 10928 (0.89), R/S: 27.45, RL: 4663, Time: 14.00 3.00 77.00, Align: 1.00, 375, 0.89
[A[2KProcessed: 10969 (0.89), R/S: 27.42, RL: 4659, Time: 14.00 3.00 76.06, Align: 1.00, 375, 0.89
[A[2KProcessed: 10993 (0.89), R/S: 27.34, RL: 4663, Time: 14.00 3.00 76.88, Align: 1.00, 375, 0.89
[A[2KProcessed: 11031 (0.89), R/S: 27.30, RL: 4662, Time: 14.00 3.00 76.99, Align: 1.00, 376, 0.89
[A[2KProcessed: 11123 (0.89), R/S: 27.39, RL: 4651, Time: 14.00 3.00 77.00, Align: 1.00, 375, 0.89
[A[2KProcessed: 11193 (0.89), R/S: 27.43, RL: 4649, Time: 14.00 3.00 77.00, Align: 1.00, 375, 0.89
[A[2KProcessed: 11254 (0.89), R/S: 27.45, RL: 4653, Time: 14.00 3.00 77.00, Align: 1.00, 375, 0.89
[A[2KProcessed: 11321 (0.89), R/S: 27.48, RL: 4657, Time: 14.00 3.00 77.00, Align: 1.00, 375, 0.89
[A[2KProcessed: 11365 (0.89), R/S: 27.45, RL: 4654, Time: 14.00 3.00 77.00, Align: 1.00, 376, 0.89
[A[2KProcessed: 11431 (0.89), R/S: 27.48, RL: 4652, Time: 14.00 3.00 76.75, Align: 1.00, 375, 0.89
[A[2KProcessed: 11500 (0.89), R/S: 27.51, RL: 4649, Time: 14.00 3.00 77.00, Align: 1.00, 375, 0.89
[A[2KProcessed: 11544 (0.88), R/S: 27.48, RL: 4654, Time: 14.00 3.00 76.06, Align: 1.00, 375, 0.89
[A[2KProcessed: 11620 (0.88), R/S: 27.53, RL: 4647, Time: 14.00 3.00 76.00, Align: 1.00, 375, 0.89
[A[2KProcessed: 11695 (0.88), R/S: 27.58, RL: 4637, Time: 14.00 3.00 76.00, Align: 1.00, 375, 0.89
[A[2KProcessed: 11769 (0.88), R/S: 27.62, RL: 4631, Time: 14.00 3.00 76.00, Align: 1.00, 374, 0.89
[A[2KProcessed: 11837 (0.88), R/S: 27.65, RL: 4632, Time: 14.00 3.00 76.00, Align: 1.00, 374, 0.89
[A[2KProcessed: 11906 (0.88), R/S: 27.69, RL: 4628, Time: 14.00 3.00 76.00, Align: 1.00, 374, 0.89
[A[2KProcessed: 12007 (0.88), R/S: 27.79, RL: 4617, Time: 15.00 3.00 76.00, Align: 1.00, 374, 0.89
[A[2KProcessed: 12007 (0.88), R/S: 27.66, RL: 4617, Time: 15.00 3.00 76.00, Align: 1.00, 374, 0.89
[A[2KProcessed: 12051 (0.88), R/S: 27.64, RL: 4618, Time: 14.03 3.00 76.00, Align: 1.00, 374, 0.89
[A[2KProcessed: 12126 (0.88), R/S: 27.68, RL: 4613, Time: 14.00 3.00 76.00, Align: 1.00, 374, 0.89
[A[2KProcessed: 12183 (0.88), R/S: 27.69, RL: 4616, Time: 14.00 3.00 76.00, Align: 1.00, 374, 0.89
[A[2KProcessed: 12283 (0.88), R/S: 27.79, RL: 4604, Time: 14.00 3.00 76.00, Align: 1.00, 374, 0.89
[A[2KProcessed: 12362 (0.88), R/S: 27.84, RL: 4598, Time: 14.00 3.00 76.00, Align: 1.00, 374, 0.89
[A[2KProcessed: 12415 (0.88), R/S: 27.83, RL: 4602, Time: 14.00 3.00 76.00, Align: 1.00, 374, 0.89
[A[2KProcessed: 12460 (0.88), R/S: 27.81, RL: 4602, Time: 14.00 3.00 76.00, Align: 1.00, 374, 0.89
[A[2KProcessed: 12487 (0.88), R/S: 27.75, RL: 4599, Time: 14.00 3.00 76.00, Align: 1.00, 374, 0.89
[A[2KProcessed: 12553 (0.88), R/S: 27.77, RL: 4594, Time: 14.00 3.00 76.99, Align: 1.00, 374, 0.89
[A[2KProcessed: 12600 (0.88), R/S: 27.75, RL: 4602, Time: 14.00 3.00 77.00, Align: 1.00, 374, 0.89
[A[2KProcessed: 12664 (0.88), R/S: 27.77, RL: 4598, Time: 14.00 3.00 77.00, Align: 1.00, 374, 0.89
[A[2KProcessed: 12750 (0.88), R/S: 27.84, RL: 4592, Time: 14.00 3.00 77.00, Align: 1.00, 374, 0.89
[A[2KProcessed: 12836 (0.88), R/S: 27.90, RL: 4584, Time: 14.00 3.00 77.00, Align: 1.00, 374, 0.89
[A[2KProcessed: 12869 (0.88), R/S: 27.85, RL: 4585, Time: 14.00 3.00 77.00, Align: 1.00, 375, 0.89
[A[2KProcessed: 12911 (0.88), R/S: 27.82, RL: 4587, Time: 14.00 3.00 77.00, Align: 1.00, 374, 0.89
[A[2KProcessed: 12990 (0.88), R/S: 27.87, RL: 4585, Time: 14.00 3.00 77.00, Align: 1.00, 374, 0.89
[A[2KProcessed: 13062 (0.88), R/S: 27.91, RL: 4582, Time: 14.00 3.00 77.00, Align: 1.00, 374, 0.89
[A[2KProcessed: 13140 (0.88), R/S: 27.96, RL: 4584, Time: 14.00 3.00 77.00, Align: 1.00, 374, 0.89
[A[2KProcessed: 13199 (0.88), R/S: 27.96, RL: 4582, Time: 14.00 3.00 77.00, Align: 1.00, 374, 0.89
[A[2KProcessed: 13259 (0.88), R/S: 27.97, RL: 4584, Time: 14.00 3.00 77.00, Align: 1.00, 374, 0.89
[A[2KProcessed: 13316 (0.88), R/S: 27.97, RL: 4586, Time: 14.00 3.00 77.00, Align: 1.00, 374, 0.89
[A[2KProcessed: 13369 (0.88), R/S: 27.97, RL: 4583, Time: 14.00 3.00 77.00, Align: 1.00, 374, 0.89
[A[2KProcessed: 13431 (0.88), R/S: 27.98, RL: 4584, Time: 14.00 3.00 77.00, Align: 1.00, 374, 0.89
[A[2KProcessed: 13518 (0.88), R/S: 28.04, RL: 4576, Time: 14.50 3.00 76.50, Align: 1.00, 373, 0.89
[A[2KProcessed: 13600 (0.88), R/S: 28.10, RL: 4572, Time: 15.00 3.00 76.00, Align: 1.00, 373, 0.89
[A[2KProcessed: 13657 (0.88), R/S: 28.10, RL: 4572, Time: 15.00 3.00 76.00, Align: 1.00, 373, 0.89
[A[2KProcessed: 13716 (0.88), R/S: 28.10, RL: 4571, Time: 15.00 3.00 76.00, Align: 1.00, 373, 0.89
[A[2KProcessed: 13741 (0.88), R/S: 28.04, RL: 4574, Time: 14.25 3.00 76.00, Align: 1.00, 374, 0.89
[A[2KProcessed: 13788 (0.88), R/S: 28.02, RL: 4573, Time: 14.02 3.00 76.25, Align: 1.00, 374, 0.89
[A[2KProcessed: 13862 (0.88), R/S: 28.06, RL: 4571, Time: 14.00 3.00 76.00, Align: 1.00, 374, 0.89
[A[2KProcessed: 13948 (0.88), R/S: 28.12, RL: 4565, Time: 14.98 3.00 76.00, Align: 1.00, 374, 0.89
[A[2KProcessed: 14008 (0.88), R/S: 28.13, RL: 4567, Time: 15.00 3.00 76.97, Align: 1.00, 374, 0.89
[A[2KProcessed: 14070 (0.88), R/S: 28.14, RL: 4569, Time: 15.00 3.00 77.00, Align: 1.00, 374, 0.89
[A[2KProcessed: 14142 (0.89), R/S: 28.17, RL: 4568, Time: 15.00 3.00 76.02, Align: 1.00, 374, 0.89
[A[2KProcessed: 14201 (0.89), R/S: 28.17, RL: 4570, Time: 15.00 3.00 76.00, Align: 1.00, 373, 0.89
[A[2KProcessed: 14233 (0.89), R/S: 28.13, RL: 4571, Time: 15.00 3.00 76.88, Align: 1.00, 374, 0.89
[A[2KProcessed: 14290 (0.89), R/S: 28.13, RL: 4573, Time: 15.00 3.00 77.00, Align: 1.00, 374, 0.89
[A[2KProcessed: 14323 (0.89), R/S: 28.08, RL: 4576, Time: 14.12 3.00 77.00, Align: 1.00, 374, 0.89
[A[2KProcessed: 14378 (0.89), R/S: 28.08, RL: 4571, Time: 14.00 3.00 77.00, Align: 1.00, 374, 0.89
[A[2KProcessed: 14448 (0.89), R/S: 28.11, RL: 4570, Time: 14.50 3.00 77.00, Align: 1.00, 374, 0.89
[A[2KProcessed: 14520 (0.89), R/S: 28.14, RL: 4570, Time: 15.00 3.00 77.00, Align: 1.00, 374, 0.89
[A[2KProcessed: 14589 (0.89), R/S: 28.16, RL: 4566, Time: 15.00 3.00 77.00, Align: 1.00, 374, 0.89
[A[2KProcessed: 14617 (0.89), R/S: 28.11, RL: 4566, Time: 15.00 3.00 77.00, Align: 1.00, 374, 0.89
[A[2KProcessed: 14640 (0.89), R/S: 28.04, RL: 4571, Time: 14.12 3.00 77.00, Align: 1.00, 374, 0.89
[A[2KProcessed: 14699 (0.89), R/S: 28.05, RL: 4566, Time: 14.00 3.00 77.00, Align: 1.00, 374, 0.89
[A[2KProcessed: 14750 (0.89), R/S: 28.04, RL: 4570, Time: 14.00 3.00 77.00, Align: 1.00, 374, 0.89
[A[2KProcessed: 14821 (0.89), R/S: 28.07, RL: 4571, Time: 14.00 3.00 77.00, Align: 1.00, 374, 0.89
[A[2KProcessed: 14900 (0.89), R/S: 28.11, RL: 4566, Time: 14.00 3.00 77.00, Align: 1.00, 373, 0.89
[A[2KProcessed: 14988 (0.89), R/S: 28.17, RL: 4558, Time: 14.50 3.00 77.00, Align: 1.00, 373, 0.89
[A[2KProcessed: 15071 (0.89), R/S: 28.22, RL: 4555, Time: 15.00 3.00 77.00, Align: 1.00, 373, 0.89
[A[2KProcessed: 15160 (0.89), R/S: 28.28, RL: 4552, Time: 15.00 3.00 77.00, Align: 1.00, 373, 0.89
[A[2KProcessed: 15226 (0.89), R/S: 28.30, RL: 4549, Time: 15.00 3.00 77.00, Align: 1.00, 373, 0.89
[A[2KProcessed: 15295 (0.89), R/S: 28.32, RL: 4550, Time: 15.00 3.00 77.00, Align: 1.00, 373, 0.89
[A[2KProcessed: 15363 (0.89), R/S: 28.34, RL: 4548, Time: 15.00 3.00 77.00, Align: 1.00, 373, 0.89
[A[2KProcessed: 15396 (0.89), R/S: 28.30, RL: 4547, Time: 15.00 3.00 77.00, Align: 1.00, 373, 0.89
[A[2KProcessed: 15447 (0.89), R/S: 28.29, RL: 4546, Time: 15.00 3.00 77.00, Align: 1.00, 373, 0.89
[A[2KProcessed: 15512 (0.89), R/S: 28.30, RL: 4547, Time: 15.00 3.00 77.00, Align: 1.00, 373, 0.89
[A[2KProcessed: 15571 (0.89), R/S: 28.31, RL: 4546, Time: 15.00 3.00 77.00, Align: 1.00, 373, 0.89
[A[2KProcessed: 15622 (0.89), R/S: 28.30, RL: 4551, Time: 15.00 3.00 77.00, Align: 1.00, 373, 0.89
[A[2KProcessed: 15639 (0.89), R/S: 28.23, RL: 4550, Time: 15.00 3.00 77.00, Align: 1.00, 373, 0.89
[A[2KProcessed: 15649 (0.89), R/S: 28.14, RL: 4552, Time: 14.50 3.00 77.00, Align: 1.00, 374, 0.89
[A[2KProcessed: 15701 (0.89), R/S: 28.14, RL: 4552, Time: 14.01 3.00 77.00, Align: 1.00, 374, 0.89
[A[2KProcessed: 15727 (0.89), R/S: 28.08, RL: 4554, Time: 14.00 3.00 77.00, Align: 1.00, 374, 0.89
[A[2KProcessed: 15750 (0.89), R/S: 28.02, RL: 4562, Time: 14.00 3.00 77.00, Align: 1.00, 374, 0.89
[A[2KProcessed: 15811 (0.89), R/S: 28.03, RL: 4565, Time: 14.00 3.00 77.00, Align: 1.00, 374, 0.89
[A[2KProcessed: 15845 (0.89), R/S: 27.99, RL: 4563, Time: 14.00 3.00 77.00, Align: 1.00, 374, 0.89
[A[2KProcessed: 15886 (0.89), R/S: 27.97, RL: 4562, Time: 14.00 3.00 77.00, Align: 1.00, 374, 0.89
[A[2KProcessed: 15932 (0.89), R/S: 27.95, RL: 4567, Time: 14.00 3.00 77.00, Align: 1.00, 374, 0.89
[A[2KProcessed: 15970 (0.89), R/S: 27.92, RL: 4565, Time: 14.00 3.00 77.00, Align: 1.00, 374, 0.89
[A[2KProcessed: 16050 (0.89), R/S: 27.96, RL: 4564, Time: 14.00 3.00 77.00, Align: 1.00, 375, 0.89
[A[2KProcessed: 16094 (0.89), R/S: 27.94, RL: 4565, Time: 14.00 3.00 77.00, Align: 1.00, 375, 0.89
[A[2KProcessed: 16094 (0.89), R/S: 27.84, RL: 4565, Time: 14.00 3.00 77.00, Align: 1.00, 375, 0.89
[A[2KProcessed: 16096 (0.89), R/S: 27.75, RL: 4564, Time: 14.00 3.00 77.00, Align: 1.00, 375, 0.89
[A[2KProcessed: 16151 (0.89), R/S: 27.75, RL: 4570, Time: 14.00 3.00 76.02, Align: 1.00, 375, 0.89
[A[2KProcessed: 16200 (0.89), R/S: 27.74, RL: 4574, Time: 14.00 3.00 76.00, Align: 1.00, 375, 0.89
[A[2KProcessed: 16246 (0.89), R/S: 27.72, RL: 4573, Time: 14.00 3.00 76.00, Align: 1.00, 375, 0.89
[A[2KProcessed: 16301 (0.89), R/S: 27.72, RL: 4572, Time: 14.00 3.00 76.00, Align: 1.00, 375, 0.89
[A[2KProcessed: 16341 (0.89), R/S: 27.69, RL: 4574, Time: 14.00 3.00 76.00, Align: 1.00, 375, 0.89
[A[2KProcessed: 16420 (0.89), R/S: 27.73, RL: 4571, Time: 14.00 3.00 76.00, Align: 1.00, 375, 0.89
[A[2KProcessed: 16481 (0.89), R/S: 27.74, RL: 4573, Time: 14.00 3.00 76.00, Align: 1.00, 375, 0.89
[A[2KProcessed: 16541 (0.89), R/S: 27.75, RL: 4574, Time: 14.00 3.00 76.00, Align: 1.00, 374, 0.89
[A[2KProcessed: 16587 (0.89), R/S: 27.74, RL: 4575, Time: 14.00 3.00 76.00, Align: 1.00, 375, 0.89
[A[2KProcessed: 16657 (0.89), R/S: 27.76, RL: 4573, Time: 14.00 3.00 76.00, Align: 1.00, 374, 0.89
[A[2KProcessed: 16706 (0.89), R/S: 27.75, RL: 4576, Time: 14.00 3.00 76.00, Align: 1.00, 374, 0.89
[A[2KProcessed: 16770 (0.89), R/S: 27.76, RL: 4578, Time: 14.00 3.00 76.00, Align: 1.00, 374, 0.89
[A[2KProcessed: 16836 (0.89), R/S: 27.78, RL: 4576, Time: 14.00 3.00 76.00, Align: 1.00, 374, 0.89
[A[2KProcessed: 16914 (0.89), R/S: 27.82, RL: 4575, Time: 14.00 3.00 76.00, Align: 1.00, 374, 0.89
[A[2KProcessed: 16995 (0.89), R/S: 27.86, RL: 4571, Time: 14.00 3.00 76.00, Align: 1.00, 374, 0.89
[A[2KProcessed: 17060 (0.89), R/S: 27.87, RL: 4575, Time: 14.00 3.00 76.00, Align: 1.00, 374, 0.89
[A[2KProcessed: 17086 (0.89), R/S: 27.83, RL: 4575, Time: 14.00 3.00 76.00, Align: 1.00, 374, 0.89
[A[2KProcessed: 17154 (0.89), R/S: 27.85, RL: 4574, Time: 14.00 3.00 76.00, Align: 1.00, 374, 0.89
[A[2KProcessed: 17209 (0.89), R/S: 27.84, RL: 4571, Time: 14.00 3.00 76.00, Align: 1.00, 374, 0.89
[A[2KProcessed: 17265 (0.89), R/S: 27.84, RL: 4575, Time: 14.00 3.00 76.00, Align: 1.00, 374, 0.89
[A[2KProcessed: 17328 (0.89), R/S: 27.86, RL: 4574, Time: 14.00 3.00 76.00, Align: 1.00, 374, 0.89
[A[2KProcessed: 17353 (0.89), R/S: 27.81, RL: 4577, Time: 14.00 3.00 76.00, Align: 1.00, 374, 0.89
[A[2KProcessed: 17421 (0.89), R/S: 27.83, RL: 4577, Time: 14.00 3.00 76.00, Align: 1.00, 374, 0.89
[A[2KProcessed: 17493 (0.89), R/S: 27.85, RL: 4576, Time: 14.00 3.00 76.00, Align: 1.00, 374, 0.89
[A[2KProcessed: 17551 (0.89), R/S: 27.86, RL: 4580, Time: 14.00 3.00 76.00, Align: 1.00, 374, 0.89
[A[2KProcessed: 17582 (0.89), R/S: 27.82, RL: 4583, Time: 14.00 3.00 76.00, Align: 1.00, 374, 0.89
[A[2KProcessed: 17660 (0.89), R/S: 27.85, RL: 4581, Time: 14.00 3.00 76.00, Align: 1.00, 374, 0.89
[A[2KProcessed: 17740 (0.89), R/S: 27.89, RL: 4577, Time: 14.00 3.00 76.00, Align: 1.00, 374, 0.89
[A[2KProcessed: 17820 (0.89), R/S: 27.93, RL: 4575, Time: 14.00 3.00 76.00, Align: 1.00, 373, 0.89
[A[2KProcessed: 17895 (0.89), R/S: 27.96, RL: 4572, Time: 14.00 3.00 76.00, Align: 1.00, 373, 0.89
[A[2KProcessed: 17977 (0.89), R/S: 28.00, RL: 4568, Time: 14.00 3.00 76.00, Align: 1.00, 373, 0.89
[A[2KProcessed: 17988 (0.89), R/S: 27.93, RL: 4571, Time: 14.00 3.00 76.00, Align: 1.00, 373, 0.89
[A[2KProcessed: 18042 (0.89), R/S: 27.93, RL: 4573, Time: 14.00 3.00 76.00, Align: 1.00, 373, 0.89
[A[2KProcessed: 18102 (0.89), R/S: 27.93, RL: 4572, Time: 14.00 3.00 76.00, Align: 1.00, 373, 0.89
[A[2KProcessed: 18189 (0.89), R/S: 27.98, RL: 4567, Time: 14.00 3.00 76.00, Align: 1.00, 373, 0.89
[A[2KProcessed: 18274 (0.89), R/S: 28.03, RL: 4563, Time: 14.00 3.00 76.00, Align: 1.00, 373, 0.89
[A[2KProcessed: 18310 (0.89), R/S: 27.99, RL: 4563, Time: 14.00 3.00 76.00, Align: 1.00, 373, 0.89
[A[2KProcessed: 18373 (0.89), R/S: 28.01, RL: 4563, Time: 14.00 3.00 76.00, Align: 1.00, 373, 0.89
[A[2KProcessed: 18411 (0.89), R/S: 27.98, RL: 4565, Time: 14.00 3.00 76.00, Align: 1.00, 374, 0.89
[A[2KProcessed: 18443 (0.89), R/S: 27.94, RL: 4564, Time: 14.00 3.00 76.00, Align: 1.00, 374, 0.89
[A[2KProcessed: 18516 (0.89), R/S: 27.97, RL: 4563, Time: 14.00 3.00 76.00, Align: 1.00, 374, 0.89
[A[2KProcessed: 18578 (0.89), R/S: 27.98, RL: 4564, Time: 14.00 3.00 76.00, Align: 1.00, 374, 0.89
[A[2KProcessed: 18625 (0.89), R/S: 27.96, RL: 4566, Time: 14.00 3.00 76.00, Align: 1.00, 374, 0.89
[A[2KProcessed: 18679 (0.89), R/S: 27.96, RL: 4567, Time: 14.00 3.00 76.00, Align: 1.00, 374, 0.89
[A[2KProcessed: 18736 (0.89), R/S: 27.96, RL: 4569, Time: 14.00 3.00 76.00, Align: 1.00, 374, 0.89
[A[2KProcessed: 18802 (0.89), R/S: 27.98, RL: 4569, Time: 14.00 3.00 76.00, Align: 1.00, 374, 0.89
[A[2KProcessed: 18822 (0.89), R/S: 27.92, RL: 4571, Time: 14.00 3.00 76.00, Align: 1.00, 374, 0.89
[A[2KProcessed: 18880 (0.89), R/S: 27.93, RL: 4573, Time: 14.00 3.00 76.00, Align: 1.00, 374, 0.89
[A[2KProcessed: 18925 (0.89), R/S: 27.91, RL: 4570, Time: 14.00 3.00 76.00, Align: 1.00, 374, 0.89
[A[2KProcessed: 19003 (0.89), R/S: 27.94, RL: 4566, Time: 14.00 3.00 76.00, Align: 1.00, 374, 0.89
[A[2KProcessed: 19071 (0.89), R/S: 27.96, RL: 4564, Time: 14.00 3.00 76.00, Align: 1.00, 374, 0.89
[A[2KProcessed: 19100 (0.89), R/S: 27.92, RL: 4566, Time: 14.00 3.00 76.00, Align: 1.00, 374, 0.89
[A[2KProcessed: 19160 (0.89), R/S: 27.93, RL: 4564, Time: 14.00 3.00 76.00, Align: 1.00, 374, 0.89
[A[2KProcessed: 19244 (0.89), R/S: 27.97, RL: 4559, Time: 14.00 3.00 76.00, Align: 1.00, 374, 0.89
[A[2KProcessed: 19340 (0.89), R/S: 28.03, RL: 4554, Time: 14.00 3.00 76.00, Align: 1.00, 374, 0.89
[A[2KProcessed: 19386 (0.89), R/S: 28.01, RL: 4551, Time: 14.00 3.00 76.00, Align: 1.00, 374, 0.89
[A[2KProcessed: 19449 (0.89), R/S: 28.02, RL: 4551, Time: 14.00 3.00 76.00, Align: 1.00, 374, 0.89
[A[2KProcessed: 19526 (0.89), R/S: 28.05, RL: 4549, Time: 14.00 3.00 76.00, Align: 1.00, 373, 0.89
[A[2KProcessed: 19560 (0.89), R/S: 28.02, RL: 4551, Time: 14.00 3.00 76.00, Align: 1.00, 374, 0.89
[A[2KProcessed: 19626 (0.89), R/S: 28.03, RL: 4549, Time: 14.00 3.00 76.00, Align: 1.00, 374, 0.89
[A[2KProcessed: 19701 (0.89), R/S: 28.06, RL: 4546, Time: 14.00 3.00 76.00, Align: 1.00, 374, 0.89
[A[2KProcessed: 19781 (0.89), R/S: 28.10, RL: 4543, Time: 14.00 3.00 76.00, Align: 1.00, 373, 0.89
[A[2KProcessed: 19801 (0.89), R/S: 28.04, RL: 4549, Time: 14.00 3.00 76.00, Align: 1.00, 373, 0.89
[A[2KProcessed: 19865 (0.89), R/S: 28.06, RL: 4547, Time: 14.00 3.00 76.00, Align: 1.00, 373, 0.89
[A[2KProcessed: 19944 (0.89), R/S: 28.09, RL: 4545, Time: 14.00 3.00 76.00, Align: 1.00, 373, 0.89
[A[2KProcessed: 20011 (0.89), R/S: 28.10, RL: 4545, Time: 14.00 3.00 76.00, Align: 1.00, 373, 0.89
[A[2KProcessed: 20072 (0.89), R/S: 28.11, RL: 4545, Time: 14.00 3.00 76.00, Align: 1.00, 375, 0.89
[A[2KProcessed: 20105 (0.89), R/S: 28.08, RL: 4545, Time: 14.00 3.00 76.00, Align: 1.00, 375, 0.89
[A[2KProcessed: 20149 (0.89), R/S: 28.06, RL: 4542, Time: 14.00 3.00 76.00, Align: 1.00, 375, 0.89
[A[2KProcessed: 20202 (0.89), R/S: 28.06, RL: 4547, Time: 14.00 3.00 76.00, Align: 1.00, 375, 0.89
[A[2KProcessed: 20279 (0.88), R/S: 28.09, RL: 4543, Time: 14.00 3.00 76.00, Align: 1.00, 375, 0.89
[A[2KProcessed: 20352 (0.88), R/S: 28.11, RL: 4545, Time: 14.00 3.00 76.00, Align: 1.00, 374, 0.89
[A[2KProcessed: 20412 (0.89), R/S: 28.11, RL: 4544, Time: 14.00 3.00 76.00, Align: 1.00, 375, 0.89
[A[2KProcessed: 20441 (0.89), R/S: 28.08, RL: 4547, Time: 14.00 3.00 76.00, Align: 1.00, 374, 0.89
[A[2KProcessed: 20495 (0.89), R/S: 28.07, RL: 4545, Time: 14.00 3.00 76.00, Align: 1.00, 375, 0.89
[A[2KProcessed: 20550 (0.89), R/S: 28.07, RL: 4547, Time: 14.00 3.00 76.00, Align: 1.00, 375, 0.89
[A[2KProcessed: 20647 (0.89), R/S: 28.13, RL: 4540, Time: 14.00 3.00 76.00, Align: 1.00, 375, 0.89
[A[2KProcessed: 20699 (0.88), R/S: 28.12, RL: 4542, Time: 14.00 3.00 76.00, Align: 1.00, 375, 0.89
[A[2KProcessed: 20766 (0.89), R/S: 28.14, RL: 4542, Time: 14.00 3.00 76.00, Align: 1.00, 375, 0.89
[A[2KProcessed: 20800 (0.88), R/S: 28.11, RL: 4541, Time: 14.00 3.00 76.00, Align: 1.00, 375, 0.89
[A[2KProcessed: 20834 (0.89), R/S: 28.08, RL: 4543, Time: 14.00 3.00 76.00, Align: 1.00, 375, 0.89
[A[2KProcessed: 20877 (0.88), R/S: 28.06, RL: 4540, Time: 14.00 3.00 76.00, Align: 1.00, 375, 0.89
[A[2KProcessed: 20923 (0.88), R/S: 28.04, RL: 4544, Time: 14.00 3.00 76.00, Align: 1.00, 375, 0.89
[A[2KProcessed: 20990 (0.88), R/S: 28.06, RL: 4544, Time: 14.00 3.00 76.00, Align: 1.00, 375, 0.89
[A[2KProcessed: 21047 (0.88), R/S: 28.06, RL: 4544, Time: 14.00 3.00 76.00, Align: 1.00, 375, 0.89
[A[2KProcessed: 21105 (0.88), R/S: 28.06, RL: 4546, Time: 14.00 3.00 76.00, Align: 1.00, 374, 0.89
[A[2KProcessed: 21155 (0.88), R/S: 28.05, RL: 4548, Time: 14.00 3.00 76.00, Align: 1.00, 374, 0.89
[A[2KProcessed: 21220 (0.88), R/S: 28.07, RL: 4550, Time: 14.00 3.00 76.00, Align: 1.00, 374, 0.89
[A[2KProcessed: 21292 (0.88), R/S: 28.09, RL: 4549, Time: 14.00 3.00 76.00, Align: 1.00, 374, 0.89
[A[2KProcessed: 21337 (0.88), R/S: 28.07, RL: 4551, Time: 14.00 3.00 76.00, Align: 1.00, 374, 0.89
[A[2KProcessed: 21395 (0.88), R/S: 28.08, RL: 4553, Time: 14.00 3.00 76.00, Align: 1.00, 374, 0.89
[A[2KProcessed: 21430 (0.88), R/S: 28.05, RL: 4556, Time: 14.00 3.00 76.00, Align: 1.00, 374, 0.89
[A[2KProcessed: 21481 (0.88), R/S: 28.04, RL: 4557, Time: 14.00 3.00 76.00, Align: 1.00, 374, 0.89
[A[2KProcessed: 21538 (0.88), R/S: 28.04, RL: 4555, Time: 14.00 3.00 76.00, Align: 1.00, 375, 0.89
[A[2KProcessed: 21591 (0.88), R/S: 28.04, RL: 4556, Time: 14.00 3.00 76.00, Align: 1.00, 375, 0.89
[A[2KProcessed: 21645 (0.88), R/S: 28.04, RL: 4558, Time: 14.00 3.00 76.00, Align: 1.00, 375, 0.89
[A[2KProcessed: 21714 (0.88), R/S: 28.05, RL: 4559, Time: 14.00 3.00 76.00, Align: 1.00, 374, 0.89
[A[2KProcessed: 21806 (0.88), R/S: 28.10, RL: 4554, Time: 14.00 3.00 76.00, Align: 1.00, 374, 0.89
[A[2KProcessed: 21846 (0.88), R/S: 28.08, RL: 4553, Time: 14.00 3.00 76.00, Align: 1.00, 375, 0.89
[A[2KProcessed: 21907 (0.88), R/S: 28.08, RL: 4553, Time: 14.00 3.00 76.00, Align: 1.00, 375, 0.89
[A[2KProcessed: 21986 (0.88), R/S: 28.11, RL: 4549, Time: 14.00 3.00 76.00, Align: 1.00, 374, 0.89
[A[2KProcessed: 22070 (0.88), R/S: 28.15, RL: 4548, Time: 14.00 3.00 76.00, Align: 1.00, 374, 0.89
[A[2KProcessed: 22133 (0.88), R/S: 28.16, RL: 4549, Time: 14.00 3.00 76.00, Align: 1.00, 374, 0.89
[A[2KProcessed: 22208 (0.88), R/S: 28.18, RL: 4545, Time: 14.00 3.00 76.00, Align: 1.00, 374, 0.89
[A[2KProcessed: 22298 (0.88), R/S: 28.22, RL: 4542, Time: 14.00 3.00 76.00, Align: 1.00, 374, 0.89
[A[2KProcessed: 22369 (0.88), R/S: 28.24, RL: 4540, Time: 14.00 3.00 76.00, Align: 1.00, 374, 0.89
[A[2KProcessed: 22440 (0.88), R/S: 28.26, RL: 4542, Time: 14.00 3.00 76.00, Align: 1.00, 374, 0.89
[A[2KProcessed: 22522 (0.88), R/S: 28.29, RL: 4537, Time: 14.00 3.00 76.00, Align: 1.00, 374, 0.89
[A[2KProcessed: 22592 (0.88), R/S: 28.31, RL: 4535, Time: 14.00 3.00 76.00, Align: 1.00, 374, 0.89
[A[2KProcessed: 22657 (0.88), R/S: 28.32, RL: 4534, Time: 14.00 3.00 76.00, Align: 1.00, 374, 0.89
[A[2KProcessed: 22720 (0.88), R/S: 28.33, RL: 4535, Time: 14.00 3.00 76.00, Align: 1.00, 374, 0.89
[A[2KProcessed: 22781 (0.88), R/S: 28.33, RL: 4536, Time: 14.00 3.00 76.00, Align: 1.00, 374, 0.89
[A[2KProcessed: 22847 (0.88), R/S: 28.34, RL: 4535, Time: 14.00 3.00 76.00, Align: 1.00, 373, 0.89
[A[2KProcessed: 22898 (0.88), R/S: 28.34, RL: 4537, Time: 14.00 3.00 76.00, Align: 1.00, 374, 0.89
[A[2KProcessed: 22961 (0.88), R/S: 28.34, RL: 4538, Time: 14.00 3.00 76.00, Align: 1.00, 374, 0.89
[A[2KProcessed: 23037 (0.88), R/S: 28.37, RL: 4536, Time: 14.00 3.00 76.00, Align: 1.00, 373, 0.89
[A[2KProcessed: 23093 (0.88), R/S: 28.37, RL: 4539, Time: 14.00 3.00 76.00, Align: 1.00, 373, 0.89
[A[2KProcessed: 23139 (0.88), R/S: 28.35, RL: 4537, Time: 14.00 3.00 76.00, Align: 1.00, 373, 0.89
[A[2KProcessed: 23180 (0.88), R/S: 28.34, RL: 4541, Time: 14.00 3.00 76.00, Align: 1.00, 373, 0.89
[A[2KProcessed: 23228 (0.88), R/S: 28.32, RL: 4540, Time: 14.00 3.00 76.00, Align: 1.00, 373, 0.89
[A[2KProcessed: 23289 (0.88), R/S: 28.33, RL: 4539, Time: 14.00 3.00 76.00, Align: 1.00, 373, 0.89
[A[2KProcessed: 23325 (0.88), R/S: 28.30, RL: 4542, Time: 14.00 3.00 76.00, Align: 1.00, 374, 0.89
[A[2KProcessed: 23368 (0.88), R/S: 28.29, RL: 4544, Time: 14.00 3.00 76.00, Align: 1.00, 374, 0.89
[A[2KProcessed: 23466 (0.88), R/S: 28.34, RL: 4539, Time: 14.00 3.00 76.00, Align: 1.00, 374, 0.89
[A[2KProcessed: 23527 (0.88), R/S: 28.34, RL: 4538, Time: 14.00 3.00 76.00, Align: 1.00, 374, 0.89
[A[2KProcessed: 23580 (0.88), R/S: 28.34, RL: 4543, Time: 14.00 3.00 76.00, Align: 1.00, 374, 0.89
[A[2KProcessed: 23654 (0.88), R/S: 28.36, RL: 4540, Time: 14.00 3.00 76.00, Align: 1.00, 373, 0.89
[A[2KProcessed: 23715 (0.88), R/S: 28.36, RL: 4541, Time: 14.00 3.00 76.00, Align: 1.00, 373, 0.89
[A[2KProcessed: 23773 (0.88), R/S: 28.37, RL: 4541, Time: 14.00 3.00 76.00, Align: 1.00, 373, 0.89
[A[2KProcessed: 23808 (0.88), R/S: 28.34, RL: 4543, Time: 14.00 3.00 76.00, Align: 1.00, 373, 0.89
[A[2KProcessed: 23874 (0.88), R/S: 28.35, RL: 4543, Time: 14.00 3.00 76.00, Align: 1.00, 373, 0.89
[A[2KProcessed: 23940 (0.88), R/S: 28.36, RL: 4545, Time: 14.00 3.00 76.00, Align: 1.00, 373, 0.89
[A[2KProcessed: 24012 (0.88), R/S: 28.38, RL: 4543, Time: 14.00 3.00 76.00, Align: 1.00, 373, 0.89
[A[2KProcessed: 24069 (0.88), R/S: 28.38, RL: 4545, Time: 14.00 3.00 76.00, Align: 1.00, 373, 0.89
[A[2KProcessed: 24106 (0.88), R/S: 28.36, RL: 4545, Time: 14.00 3.00 76.00, Align: 1.00, 373, 0.89
[A[2KProcessed: 24128 (0.88), R/S: 28.32, RL: 4547, Time: 14.00 3.00 76.00, Align: 1.00, 373, 0.89
[A[2KProcessed: 24143 (0.88), R/S: 28.27, RL: 4550, Time: 14.00 3.00 76.00, Align: 1.00, 374, 0.89
[A[2KProcessed: 24171 (0.88), R/S: 28.23, RL: 4550, Time: 14.00 3.00 76.00, Align: 1.00, 374, 0.89
[A[2KProcessed: 24243 (0.88), R/S: 28.25, RL: 4550, Time: 14.00 3.00 76.00, Align: 1.00, 374, 0.89
[A[2KProcessed: 24260 (0.88), R/S: 28.21, RL: 4553, Time: 14.00 3.00 76.00, Align: 1.00, 374, 0.89
[A[2KProcessed: 24305 (0.89), R/S: 28.19, RL: 4553, Time: 14.00 3.00 76.00, Align: 1.00, 374, 0.89
[A[2KProcessed: 24337 (0.89), R/S: 28.17, RL: 4554, Time: 14.00 3.00 76.00, Align: 1.00, 374, 0.89
[A[2KProcessed: 24371 (0.89), R/S: 28.14, RL: 4558, Time: 14.00 3.00 76.00, Align: 1.00, 374, 0.89
[A[2KProcessed: 24388 (0.89), R/S: 28.09, RL: 4557, Time: 14.00 3.00 76.00, Align: 1.00, 374, 0.89
[A[2KProcessed: 24420 (0.89), R/S: 28.07, RL: 4560, Time: 14.00 3.00 76.00, Align: 1.00, 374, 0.89
[A[2KProcessed: 24488 (0.89), R/S: 28.08, RL: 4559, Time: 14.00 3.00 76.00, Align: 1.00, 374, 0.89
[A[2KProcessed: 24550 (0.89), R/S: 28.09, RL: 4562, Time: 14.00 3.00 76.00, Align: 1.00, 374, 0.89
[A[2KProcessed: 24609 (0.89), R/S: 28.09, RL: 4558, Time: 14.00 3.00 76.00, Align: 1.00, 374, 0.89
[A[2KProcessed: 24680 (0.89), R/S: 28.11, RL: 4559, Time: 14.00 3.00 76.00, Align: 1.00, 374, 0.89
[A[2KProcessed: 24691 (0.89), R/S: 28.06, RL: 4561, Time: 14.00 3.00 76.00, Align: 1.00, 374, 0.89
[A[2KProcessed: 24740 (0.89), R/S: 28.05, RL: 4563, Time: 14.00 3.00 76.84, Align: 1.00, 374, 0.89
[A[2KProcessed: 24784 (0.89), R/S: 28.03, RL: 4562, Time: 14.00 3.00 76.99, Align: 1.00, 374, 0.89
[A[2KProcessed: 24851 (0.89), R/S: 28.05, RL: 4562, Time: 14.00 3.00 77.00, Align: 1.00, 374, 0.89
[A[2KProcessed: 24893 (0.89), R/S: 28.03, RL: 4563, Time: 14.00 3.00 77.00, Align: 1.00, 374, 0.89
[A[2KProcessed: 24945 (0.89), R/S: 28.03, RL: 4565, Time: 14.00 3.00 77.00, Align: 1.00, 374, 0.89
[A[2KProcessed: 25007 (0.89), R/S: 28.03, RL: 4563, Time: 14.00 3.00 77.00, Align: 1.00, 374, 0.89
[A[2KProcessed: 25071 (0.89), R/S: 28.04, RL: 4563, Time: 14.00 3.00 77.00, Align: 1.00, 374, 0.89
[A[2KProcessed: 25150 (0.89), R/S: 28.07, RL: 4562, Time: 14.00 3.00 77.00, Align: 1.00, 374, 0.89
[A[2KProcessed: 25194 (0.89), R/S: 28.05, RL: 4563, Time: 14.00 3.00 77.00, Align: 1.00, 374, 0.89
[A[2KProcessed: 25259 (0.89), R/S: 28.06, RL: 4562, Time: 14.00 3.00 77.00, Align: 1.00, 375, 0.89
[A[2KProcessed: 25301 (0.89), R/S: 28.05, RL: 4565, Time: 14.00 3.00 77.00, Align: 1.00, 375, 0.89
[A[2KProcessed: 25331 (0.89), R/S: 28.02, RL: 4566, Time: 14.00 3.00 77.00, Align: 1.00, 375, 0.89
[A[2KProcessed: 25337 (0.89), R/S: 27.96, RL: 4565, Time: 14.00 3.00 77.00, Align: 1.00, 375, 0.89
[A[2KProcessed: 25353 (0.89), R/S: 27.92, RL: 4566, Time: 14.00 3.00 77.00, Align: 1.00, 375, 0.89
[A[2KProcessed: 25420 (0.89), R/S: 27.93, RL: 4565, Time: 14.00 3.00 77.00, Align: 1.00, 375, 0.89
[A[2KProcessed: 25496 (0.89), R/S: 27.95, RL: 4563, Time: 14.00 3.00 77.00, Align: 1.00, 375, 0.89
[A[2KProcessed: 25543 (0.89), R/S: 27.94, RL: 4566, Time: 14.00 3.00 77.00, Align: 1.00, 375, 0.89
[A[2KProcessed: 25590 (0.89), R/S: 27.93, RL: 4568, Time: 14.00 3.00 77.00, Align: 1.00, 375, 0.89
[A[2KProcessed: 25660 (0.89), R/S: 27.95, RL: 4569, Time: 14.00 3.00 77.00, Align: 1.00, 375, 0.89
[A[2KProcessed: 25689 (0.89), R/S: 27.92, RL: 4570, Time: 14.00 3.00 77.00, Align: 1.00, 375, 0.89
[A[2KProcessed: 25740 (0.89), R/S: 27.92, RL: 4573, Time: 14.00 3.00 77.00, Align: 1.00, 375, 0.89
[A[2KProcessed: 25740 (0.89), R/S: 27.85, RL: 4573, Time: 14.00 3.00 77.00, Align: 1.00, 376, 0.89
[A[2KProcessed: 25801 (0.89), R/S: 27.86, RL: 4574, Time: 14.00 3.00 77.00, Align: 1.00, 376, 0.89
[A[2KProcessed: 25880 (0.89), R/S: 27.89, RL: 4573, Time: 14.00 3.00 77.00, Align: 1.00, 375, 0.89
[A[2KProcessed: 25920 (0.89), R/S: 27.87, RL: 4572, Time: 14.00 3.00 77.00, Align: 1.00, 375, 0.89
[A[2KProcessed: 25995 (0.89), R/S: 27.89, RL: 4570, Time: 14.00 3.00 77.00, Align: 1.00, 375, 0.89
[A[2KProcessed: 26070 (0.89), R/S: 27.91, RL: 4570, Time: 14.00 3.00 77.00, Align: 1.00, 375, 0.89
[A[2KProcessed: 26127 (0.89), R/S: 27.91, RL: 4570, Time: 14.00 3.00 77.00, Align: 1.00, 375, 0.89
[A[2KProcessed: 26150 (0.89), R/S: 27.88, RL: 4574, Time: 14.00 3.00 77.00, Align: 1.00, 375, 0.89
[A[2KProcessed: 26214 (0.89), R/S: 27.89, RL: 4572, Time: 14.00 3.00 77.00, Align: 1.00, 375, 0.89
[A[2KProcessed: 26261 (0.89), R/S: 27.88, RL: 4575, Time: 14.00 3.00 77.00, Align: 1.00, 375, 0.89
[A[2KProcessed: 26306 (0.89), R/S: 27.86, RL: 4577, Time: 14.00 3.00 77.00, Align: 1.00, 375, 0.89
[A[2KProcessed: 26348 (0.89), R/S: 27.85, RL: 4579, Time: 14.00 3.00 77.00, Align: 1.00, 375, 0.89
[A[2KProcessed: 26424 (0.89), R/S: 27.87, RL: 4578, Time: 14.00 3.00 77.00, Align: 1.00, 375, 0.89
[A[2KProcessed: 26488 (0.89), R/S: 27.88, RL: 4578, Time: 14.00 3.00 77.00, Align: 1.00, 376, 0.89
[A[2KProcessed: 26537 (0.89), R/S: 27.87, RL: 4579, Time: 14.00 3.00 77.00, Align: 1.00, 376, 0.89
[A[2KProcessed: 26602 (0.89), R/S: 27.88, RL: 4580, Time: 14.00 3.00 77.00, Align: 1.00, 376, 0.89
[A[2KProcessed: 26667 (0.89), R/S: 27.89, RL: 4580, Time: 14.00 3.00 77.00, Align: 1.00, 376, 0.89
[A[2KProcessed: 26730 (0.89), R/S: 27.90, RL: 4582, Time: 14.00 3.00 77.00, Align: 1.00, 375, 0.89
[A[2KProcessed: 26797 (0.89), R/S: 27.91, RL: 4580, Time: 14.00 3.00 77.00, Align: 1.00, 376, 0.89
[A[2KProcessed: 26850 (0.89), R/S: 27.91, RL: 4584, Time: 14.00 3.00 76.25, Align: 1.00, 375, 0.89
[A[2KProcessed: 26912 (0.89), R/S: 27.91, RL: 4583, Time: 14.00 3.00 76.00, Align: 1.00, 375, 0.89
[A[2KProcessed: 26970 (0.89), R/S: 27.92, RL: 4585, Time: 14.00 3.00 76.00, Align: 1.00, 375, 0.89
[A[2KProcessed: 26992 (0.89), R/S: 27.88, RL: 4586, Time: 14.00 3.00 76.00, Align: 1.00, 376, 0.89
[A[2KProcessed: 27029 (0.89), R/S: 27.86, RL: 4585, Time: 14.00 3.00 76.88, Align: 1.00, 376, 0.89
[A[2KProcessed: 27081 (0.89), R/S: 27.86, RL: 4587, Time: 14.00 3.00 77.00, Align: 1.00, 376, 0.89
[A[2KProcessed: 27147 (0.89), R/S: 27.87, RL: 4586, Time: 14.00 3.00 77.00, Align: 1.00, 376, 0.89
[A[2KProcessed: 27220 (0.89), R/S: 27.89, RL: 4586, Time: 14.00 3.00 77.00, Align: 1.00, 376, 0.89
[A[2KProcessed: 27276 (0.89), R/S: 27.89, RL: 4585, Time: 14.00 3.00 76.50, Align: 1.00, 376, 0.89
[A[2KProcessed: 27340 (0.89), R/S: 27.90, RL: 4588, Time: 14.00 3.00 76.00, Align: 1.00, 375, 0.89
[A[2KProcessed: 27371 (0.89), R/S: 27.87, RL: 4591, Time: 14.00 3.00 76.00, Align: 1.00, 375, 0.89
[A[2KProcessed: 27440 (0.89), R/S: 27.88, RL: 4588, Time: 14.00 3.00 76.00, Align: 1.00, 375, 0.89
[A[2KProcessed: 27493 (0.89), R/S: 27.88, RL: 4588, Time: 14.00 3.00 76.00, Align: 1.00, 375, 0.89
[A[2KProcessed: 27507 (0.89), R/S: 27.84, RL: 4590, Time: 14.00 3.00 76.00, Align: 1.00, 376, 0.89
[A[2KProcessed: 27507 (0.89), R/S: 27.78, RL: 4590, Time: 14.00 3.00 76.00, Align: 1.00, 376, 0.89
[A[2KProcessed: 27535 (0.89), R/S: 27.75, RL: 4594, Time: 14.00 3.00 76.88, Align: 1.00, 376, 0.89
[A[2KProcessed: 27581 (0.89), R/S: 27.75, RL: 4595, Time: 14.00 3.00 77.00, Align: 1.00, 376, 0.89
[A[2KProcessed: 27583 (0.89), R/S: 27.69, RL: 4595, Time: 14.00 3.00 77.00, Align: 1.00, 376, 0.89
[A[2KProcessed: 27583 (0.89), R/S: 27.64, RL: 4595, Time: 14.00 3.00 77.00, Align: 1.00, 376, 0.89
[A[2KProcessed: 27583 (0.89), R/S: 27.58, RL: 4595, Time: 14.00 3.00 77.00, Align: 1.00, 376, 0.89
[A[2KProcessed: 27629 (0.89), R/S: 27.57, RL: 4592, Time: 14.00 3.00 77.00, Align: 1.00, 376, 0.89
[A[2KProcessed: 27719 (0.89), R/S: 27.61, RL: 4588, Time: 14.00 3.00 77.00, Align: 1.00, 376, 0.89
[A[2KProcessed: 27779 (0.89), R/S: 27.61, RL: 4588, Time: 14.00 3.00 77.00, Align: 1.00, 376, 0.89
[A[2KProcessed: 27822 (0.89), R/S: 27.60, RL: 4590, Time: 14.00 3.00 77.00, Align: 1.00, 376, 0.89
[A[2KProcessed: 27889 (0.89), R/S: 27.61, RL: 4591, Time: 14.00 3.00 77.00, Align: 1.00, 376, 0.89
[A[2KProcessed: 27906 (0.89), R/S: 27.57, RL: 4590, Time: 14.00 3.00 77.00, Align: 1.00, 376, 0.89
[A[2KProcessed: 27978 (0.89), R/S: 27.59, RL: 4589, Time: 14.00 3.00 77.00, Align: 1.00, 376, 0.89
[A[2KProcessed: 28050 (0.89), R/S: 27.61, RL: 4589, Time: 14.00 3.00 77.00, Align: 1.00, 376, 0.89
[A[2KProcessed: 28122 (0.89), R/S: 27.62, RL: 4587, Time: 14.00 3.00 77.00, Align: 1.00, 376, 0.89
[A[2KProcessed: 28189 (0.89), R/S: 27.63, RL: 4586, Time: 14.00 3.00 77.00, Align: 1.00, 376, 0.89
[A[2KProcessed: 28262 (0.89), R/S: 27.65, RL: 4585, Time: 14.00 3.00 77.00, Align: 1.00, 376, 0.89
[A[2KProcessed: 28323 (0.89), R/S: 27.66, RL: 4585, Time: 14.00 3.00 77.00, Align: 1.00, 376, 0.89
[A[2KProcessed: 28401 (0.89), R/S: 27.68, RL: 4585, Time: 14.00 3.00 77.00, Align: 1.00, 375, 0.89
[A[2KProcessed: 28456 (0.89), R/S: 27.68, RL: 4583, Time: 14.00 3.00 77.00, Align: 1.00, 376, 0.89
[A[2KProcessed: 28480 (0.89), R/S: 27.65, RL: 4583, Time: 14.00 3.00 77.00, Align: 1.00, 376, 0.89
[A[2KProcessed: 28584 (0.89), R/S: 27.70, RL: 4577, Time: 14.00 3.00 77.00, Align: 1.00, 375, 0.89
[A[2KProcessed: 28656 (0.89), R/S: 27.71, RL: 4575, Time: 14.00 3.00 77.00, Align: 1.00, 375, 0.89
[A[2KProcessed: 28703 (0.89), R/S: 27.70, RL: 4574, Time: 14.00 3.00 77.00, Align: 1.00, 375, 0.89
[A[2KProcessed: 28788 (0.89), R/S: 27.73, RL: 4571, Time: 14.00 3.00 77.00, Align: 1.00, 375, 0.89
[A[2KProcessed: 28864 (0.89), R/S: 27.75, RL: 4571, Time: 14.00 3.00 77.00, Align: 1.00, 375, 0.89
[A[2KProcessed: 28907 (0.89), R/S: 27.74, RL: 4573, Time: 14.00 3.00 77.00, Align: 1.00, 375, 0.89
[A[2KProcessed: 28952 (0.89), R/S: 27.73, RL: 4572, Time: 14.00 3.00 77.00, Align: 1.00, 375, 0.89
[A[2KProcessed: 29020 (0.89), R/S: 27.74, RL: 4572, Time: 14.00 3.00 77.00, Align: 1.00, 375, 0.89
[A[2KProcessed: 29080 (0.89), R/S: 27.75, RL: 4572, Time: 14.00 3.00 77.00, Align: 1.00, 375, 0.89
[A[2KProcessed: 29091 (0.89), R/S: 27.70, RL: 4573, Time: 14.00 3.00 77.00, Align: 1.00, 376, 0.89
[A[2KProcessed: 29142 (0.89), R/S: 27.70, RL: 4573, Time: 14.00 3.00 77.00, Align: 1.00, 376, 0.89
[A[2KProcessed: 29199 (0.89), R/S: 27.70, RL: 4573, Time: 14.00 3.00 77.00, Align: 1.00, 376, 0.89
[A[2KProcessed: 29268 (0.89), R/S: 27.71, RL: 4573, Time: 14.00 3.00 77.00, Align: 1.00, 376, 0.89
[A[2KProcessed: 29300 (0.89), R/S: 27.69, RL: 4573, Time: 14.00 3.00 77.00, Align: 1.00, 376, 0.89
[A[2KProcessed: 29359 (0.89), R/S: 27.70, RL: 4573, Time: 14.00 3.00 77.00, Align: 1.00, 376, 0.89
[A[2KProcessed: 29372 (0.89), R/S: 27.66, RL: 4575, Time: 14.00 3.00 77.00, Align: 1.00, 376, 0.89
[A[2KProcessed: 29391 (0.89), R/S: 27.62, RL: 4575, Time: 14.00 3.00 77.00, Align: 1.00, 376, 0.89
[A[2KProcessed: 29448 (0.89), R/S: 27.62, RL: 4574, Time: 14.00 3.00 77.00, Align: 1.00, 376, 0.89
[A[2KProcessed: 29496 (0.89), R/S: 27.62, RL: 4576, Time: 14.00 3.00 77.00, Align: 1.00, 376, 0.89
[A[2KProcessed: 29542 (0.89), R/S: 27.61, RL: 4577, Time: 14.00 3.00 77.00, Align: 1.00, 376, 0.89
[A[2KProcessed: 29603 (0.89), R/S: 27.61, RL: 4575, Time: 14.00 3.00 77.00, Align: 1.00, 376, 0.89
[A[2KProcessed: 29677 (0.89), R/S: 27.63, RL: 4574, Time: 14.00 3.00 77.00, Align: 1.00, 376, 0.89
[A[2KProcessed: 29738 (0.89), R/S: 27.64, RL: 4575, Time: 14.00 3.00 77.00, Align: 1.00, 376, 0.89
[A[2KProcessed: 29800 (0.89), R/S: 27.64, RL: 4576, Time: 14.00 3.00 77.00, Align: 1.00, 376, 0.89
[A[2KProcessed: 29872 (0.89), R/S: 27.66, RL: 4574, Time: 14.00 3.00 77.00, Align: 1.00, 376, 0.89
[A[2KProcessed: 29924 (0.89), R/S: 27.65, RL: 4574, Time: 14.00 3.00 77.00, Align: 1.00, 376, 0.89
[A[2KProcessed: 29972 (0.89), R/S: 27.65, RL: 4574, Time: 14.00 3.00 77.00, Align: 1.00, 376, 0.89
[A[2KProcessed: 30040 (0.89), R/S: 27.66, RL: 4573, Time: 14.00 3.00 77.00, Align: 1.00, 376, 0.89
[A[2KProcessed: 30115 (0.89), R/S: 27.68, RL: 4571, Time: 14.00 3.00 77.00, Align: 1.00, 376, 0.89
[A[2KProcessed: 30173 (0.89), R/S: 27.68, RL: 4571, Time: 14.00 3.00 77.00, Align: 1.00, 376, 0.89
[A[2KProcessed: 30219 (0.89), R/S: 27.67, RL: 4571, Time: 14.00 3.00 77.00, Align: 1.00, 376, 0.89
[A[2KProcessed: 30240 (0.89), R/S: 27.64, RL: 4575, Time: 14.00 3.00 77.00, Align: 1.00, 376, 0.89
[A[2KProcessed: 30289 (0.89), R/S: 27.63, RL: 4573, Time: 14.00 3.00 77.00, Align: 1.00, 376, 0.89
[A[2KProcessed: 30346 (0.89), R/S: 27.64, RL: 4573, Time: 14.00 3.00 77.00, Align: 1.00, 376, 0.89
[A[2KProcessed: 30410 (0.89), R/S: 27.64, RL: 4574, Time: 14.00 3.00 77.00, Align: 1.00, 376, 0.89
[A[2KProcessed: 30467 (0.89), R/S: 27.64, RL: 4575, Time: 14.00 3.00 77.00, Align: 1.00, 376, 0.89
[A[2KProcessed: 30468 (0.89), R/S: 27.60, RL: 4575, Time: 14.00 3.00 77.00, Align: 1.00, 376, 0.89
[A[2KProcessed: 30468 (0.89), R/S: 27.60, RL: 4575, Time: 14.00 3.00 77.00, Align: 1.00, 376, 0.89
Done (26985 reads mapped (88.57%), 3483 reads not mapped, 31894 lines written)(elapsed: 23m, 19 r/s)
[Mon Apr 29 09:52:37 2019]
Finished job 0.
1 of 1 steps (100%) done
