/fast/users/helmsauk_c/work/miniconda/lib/python3.6/site-packages/snakemake/workflow.py:46: FutureWarning: read_table is deprecated, use read_csv instead, passing sep='\t'.
  overwrite_workdir=None,
Wildcard constraints in inputs are ignored.
Building DAG of jobs...
WARNING: The conda.compat module is deprecated and will be removed in a future release.
WARNING: The conda.compat module is deprecated and will be removed in a future release.
Using shell: /usr/bin/bash
Provided cores: 32
Rules claiming more threads will be scaled down.
Job counts:
	count	jobs
	1	demultiplex
	1

[Wed Apr 10 08:01:53 2019]
rule demultiplex:
    input: /fast/users/helmsauk_c/work/NanoporeTestingDir/RawData/ecDNA-round1/ecDNA-round1-Barcodes.tsv, /fast/users/helmsauk_c/work/NanoporeTestingDir/Basecalled/ecDNA-round1-basecalled/sequencing_summary.txt
    output: /fast/users/helmsauk_c/work/NanoporeTestingDir/Basecalled/ecDNA-round1-basecalled/ecDNA-round1.AH_eccDNA_17.fastq, /fast/users/helmsauk_c/work/NanoporeTestingDir/Basecalled/ecDNA-round1-basecalled/ecDNA-round1.AH_eccDNA_18.fastq, /fast/users/helmsauk_c/work/NanoporeTestingDir/Basecalled/ecDNA-round1-basecalled/ecDNA-round1.AH_eccDNA_19.fastq, /fast/users/helmsauk_c/work/NanoporeTestingDir/Basecalled/ecDNA-round1-basecalled/ecDNA-round1.AH_eccDNA_20.fastq, /fast/users/helmsauk_c/work/NanoporeTestingDir/Basecalled/ecDNA-round1-basecalled/ecDNA-round1.AH_eccDNA_21.fastq, /fast/users/helmsauk_c/work/NanoporeTestingDir/Basecalled/ecDNA-round1-basecalled/ecDNA-round1.NGP.fastq, /fast/users/helmsauk_c/work/NanoporeTestingDir/Basecalled/ecDNA-round1-basecalled/ecDNA-round1.NoBarcode.fastq, /fast/users/helmsauk_c/work/NanoporeTestingDir/Basecalled/ecDNA-round1-basecalled/ecDNA-round2.AH_eccDNA_12.fastq, /fast/users/helmsauk_c/work/NanoporeTestingDir/Basecalled/ecDNA-round1-basecalled/ecDNA-round2.AH_eccDNA_13.fastq, /fast/users/helmsauk_c/work/NanoporeTestingDir/Basecalled/ecDNA-round1-basecalled/ecDNA-round2.AH_eccDNA_15.fastq, /fast/users/helmsauk_c/work/NanoporeTestingDir/Basecalled/ecDNA-round1-basecalled/ecDNA-round2.AH_eccDNA_16.fastq, /fast/users/helmsauk_c/work/NanoporeTestingDir/Basecalled/ecDNA-round1-basecalled/ecDNA-round2.AH_eccDNA_17.fastq, /fast/users/helmsauk_c/work/NanoporeTestingDir/Basecalled/ecDNA-round1-basecalled/ecDNA-round2.AH_eccDNA_19.fastq, /fast/users/helmsauk_c/work/NanoporeTestingDir/Basecalled/ecDNA-round1-basecalled/ecDNA-round2.NoBarcode.fastq, /fast/users/helmsauk_c/work/NanoporeTestingDir/Basecalled/ecDNA-round1-basecalled/ecDNA-round1-QC/ecDNA-round1-NanoComp-report.html
    jobid: 0
    wildcards: dataset=ecDNA-round1

cat /fast/users/helmsauk_c/work/NanoporeTestingDir/Basecalled/ecDNA-round1-basecalled/*.fastq > /fast/users/helmsauk_c/work/NanoporeTestingDir/Basecalled/ecDNA-round1-basecalled/ecDNA-round1.fastq
rm /fast/users/helmsauk_c/work/NanoporeTestingDir/Basecalled/ecDNA-round1-basecalled/fastq_runid*.fastq
qcat --trim -f /fast/users/helmsauk_c/work/NanoporeTestingDir/Basecalled/ecDNA-round1-basecalled/ecDNA-round1.fastq -b /fast/users/helmsauk_c/work/NanoporeTestingDir/Basecalled/ecDNA-round1-basecalled/
/fast/users/helmsauk_c/work/miniconda/lib/python3.6/site-packages/qcat/adapters.py:73: YAMLLoadWarning: calling yaml.load() without Loader=... is deprecated, as the default Loader is unsafe. Please read https://msg.pyyaml.org/load for full details.
  data = yaml.load(stream)
Adapters detected in 14463 of 16000 reads
         RBK004  14463: |   ################## |  90.39 %
           none   1537: |                    # |   9.61 %
Barcodes detected in 14463 of 16000 adapters
      barcode01   2703: |                  ### |  16.89 %
      barcode02   2535: |                  ### |  15.84 %
      barcode03   2510: |                  ### |  15.69 %
      barcode04   2021: |                   ## |  12.63 %
      barcode05   2225: |                   ## |  13.91 %
      barcode06   2468: |                  ### |  15.43 %
      barcode12      1: |                      |   0.01 %
           none   1537: |                    # |   9.61 %
Demultiplexing finished in 10.52s
rm /fast/users/helmsauk_c/work/NanoporeTestingDir/Basecalled/ecDNA-round1-basecalled/ecDNA-round1.fastq
/fast/users/helmsauk_c/work/miniconda/lib/python3.6/site-packages/snakemake/workflow.py:123: FutureWarning: read_table is deprecated, use read_csv instead, passing sep='\t'.
  
NanoComp --fastq /fast/users/helmsauk_c/work/NanoporeTestingDir/Basecalled/ecDNA-round1-basecalled/ecDNA-round1*.fastq --outdir /fast/users/helmsauk_c/work/NanoporeTestingDir/Basecalled/ecDNA-round1-basecalled/ecDNA-round1-QC --format pdf --title ecDNA-round1 --prefix ecDNA-round1-
/usr/bin/bash: NanoComp: command not found
[Wed Apr 10 08:02:06 2019]
Error in rule demultiplex:
    jobid: 0
    output: /fast/users/helmsauk_c/work/NanoporeTestingDir/Basecalled/ecDNA-round1-basecalled/ecDNA-round1.AH_eccDNA_17.fastq, /fast/users/helmsauk_c/work/NanoporeTestingDir/Basecalled/ecDNA-round1-basecalled/ecDNA-round1.AH_eccDNA_18.fastq, /fast/users/helmsauk_c/work/NanoporeTestingDir/Basecalled/ecDNA-round1-basecalled/ecDNA-round1.AH_eccDNA_19.fastq, /fast/users/helmsauk_c/work/NanoporeTestingDir/Basecalled/ecDNA-round1-basecalled/ecDNA-round1.AH_eccDNA_20.fastq, /fast/users/helmsauk_c/work/NanoporeTestingDir/Basecalled/ecDNA-round1-basecalled/ecDNA-round1.AH_eccDNA_21.fastq, /fast/users/helmsauk_c/work/NanoporeTestingDir/Basecalled/ecDNA-round1-basecalled/ecDNA-round1.NGP.fastq, /fast/users/helmsauk_c/work/NanoporeTestingDir/Basecalled/ecDNA-round1-basecalled/ecDNA-round1.NoBarcode.fastq, /fast/users/helmsauk_c/work/NanoporeTestingDir/Basecalled/ecDNA-round1-basecalled/ecDNA-round2.AH_eccDNA_12.fastq, /fast/users/helmsauk_c/work/NanoporeTestingDir/Basecalled/ecDNA-round1-basecalled/ecDNA-round2.AH_eccDNA_13.fastq, /fast/users/helmsauk_c/work/NanoporeTestingDir/Basecalled/ecDNA-round1-basecalled/ecDNA-round2.AH_eccDNA_15.fastq, /fast/users/helmsauk_c/work/NanoporeTestingDir/Basecalled/ecDNA-round1-basecalled/ecDNA-round2.AH_eccDNA_16.fastq, /fast/users/helmsauk_c/work/NanoporeTestingDir/Basecalled/ecDNA-round1-basecalled/ecDNA-round2.AH_eccDNA_17.fastq, /fast/users/helmsauk_c/work/NanoporeTestingDir/Basecalled/ecDNA-round1-basecalled/ecDNA-round2.AH_eccDNA_19.fastq, /fast/users/helmsauk_c/work/NanoporeTestingDir/Basecalled/ecDNA-round1-basecalled/ecDNA-round2.NoBarcode.fastq, /fast/users/helmsauk_c/work/NanoporeTestingDir/Basecalled/ecDNA-round1-basecalled/ecDNA-round1-QC/ecDNA-round1-NanoComp-report.html

RuleException:
CalledProcessError in line 105 of /fast/work/users/helmsauk_c/nano-wgs/Snakefile:
Command 'set -euo pipefail;  NanoComp --fastq /fast/users/helmsauk_c/work/NanoporeTestingDir/Basecalled/ecDNA-round1-basecalled/ecDNA-round1*.fastq --outdir /fast/users/helmsauk_c/work/NanoporeTestingDir/Basecalled/ecDNA-round1-basecalled/ecDNA-round1-QC --format pdf --title ecDNA-round1 --prefix ecDNA-round1-' returned non-zero exit status 127.
  File "/fast/work/users/helmsauk_c/nano-wgs/Snakefile", line 105, in __rule_demultiplex
  File "/fast/users/helmsauk_c/work/miniconda/lib/python3.6/concurrent/futures/thread.py", line 56, in run
Removing output files of failed job demultiplex since they might be corrupted:
/fast/users/helmsauk_c/work/NanoporeTestingDir/Basecalled/ecDNA-round1-basecalled/ecDNA-round1.AH_eccDNA_17.fastq, /fast/users/helmsauk_c/work/NanoporeTestingDir/Basecalled/ecDNA-round1-basecalled/ecDNA-round1.AH_eccDNA_18.fastq, /fast/users/helmsauk_c/work/NanoporeTestingDir/Basecalled/ecDNA-round1-basecalled/ecDNA-round1.AH_eccDNA_19.fastq, /fast/users/helmsauk_c/work/NanoporeTestingDir/Basecalled/ecDNA-round1-basecalled/ecDNA-round1.AH_eccDNA_20.fastq, /fast/users/helmsauk_c/work/NanoporeTestingDir/Basecalled/ecDNA-round1-basecalled/ecDNA-round1.AH_eccDNA_21.fastq, /fast/users/helmsauk_c/work/NanoporeTestingDir/Basecalled/ecDNA-round1-basecalled/ecDNA-round1.NGP.fastq, /fast/users/helmsauk_c/work/NanoporeTestingDir/Basecalled/ecDNA-round1-basecalled/ecDNA-round1.NoBarcode.fastq
Shutting down, this might take some time.
Exiting because a job execution failed. Look above for error message
