Wildcard constraints in inputs are ignored.
Building DAG of jobs...
Using shell: /usr/bin/bash
Provided cores: 32
Rules claiming more threads will be scaled down.
Job counts:
	count	jobs
	1	getsortedbam
	1

[Fri Apr 26 20:53:55 2019]
rule getsortedbam:
    input: /fast/users/helmsauk_c/work/NanoporeTestingDir/Alignment/ecDNA-round2-alignment/ecDNA-round2.AH_eccDNA_16.minimap_hg19.sam
    output: /fast/users/helmsauk_c/work/NanoporeTestingDir/Alignment/ecDNA-round2-alignment/ecDNA-round2.AH_eccDNA_16.minimap_hg19.sorted.bam
    jobid: 0
    wildcards: run=ecDNA-round2, dataset=ecDNA-round2.AH_eccDNA_16, alignment=minimap_hg19


        samtools view -h /fast/users/helmsauk_c/work/NanoporeTestingDir/Alignment/ecDNA-round2-alignment/ecDNA-round2.AH_eccDNA_16.minimap_hg19.sam | samtools sort > /fast/users/helmsauk_c/work/NanoporeTestingDir/Alignment/ecDNA-round2-alignment/ecDNA-round2.AH_eccDNA_16.minimap_hg19.sorted.bam
        samtools index /fast/users/helmsauk_c/work/NanoporeTestingDir/Alignment/ecDNA-round2-alignment/ecDNA-round2.AH_eccDNA_16.minimap_hg19.sorted.bam
        
[Fri Apr 26 20:53:56 2019]
Finished job 0.
1 of 1 steps (100%) done
