Wildcard constraints in inputs are ignored.
Building DAG of jobs...
Using shell: /usr/bin/bash
Provided cores: 32
Rules claiming more threads will be scaled down.
Job counts:
	count	jobs
	1	sam2paf
	1

[Fri Apr 26 20:54:02 2019]
rule sam2paf:
    input: /fast/users/helmsauk_c/work/NanoporeTestingDir/Alignment/ecDNA-round2-alignment/ecDNA-round2.NoBarcode.minimap_hg19.sam
    output: /fast/users/helmsauk_c/work/NanoporeTestingDir/Alignment/ecDNA-round2-alignment/ecDNA-round2.NoBarcode.minimap_hg19.paf
    jobid: 0
    wildcards: run=ecDNA-round2, dataset=ecDNA-round2.NoBarcode, alignment=minimap_hg19

/fast/users/helmsauk_c/work/nano-wgs/utils/k8-linux /fast/users/helmsauk_c/work/nano-wgs/utils/sam2paf.js /fast/users/helmsauk_c/work/NanoporeTestingDir/Alignment/ecDNA-round2-alignment/ecDNA-round2.NoBarcode.minimap_hg19.sam > /fast/users/helmsauk_c/work/NanoporeTestingDir/Alignment/ecDNA-round2-alignment/ecDNA-round2.NoBarcode.minimap_hg19.paf
[Fri Apr 26 20:54:03 2019]
Finished job 0.
1 of 1 steps (100%) done
