Wildcard constraints in inputs are ignored.
Building DAG of jobs...
Using shell: /usr/bin/bash
Provided cores: 32
Rules claiming more threads will be scaled down.
Job counts:
	count	jobs
	1	samanalysis_genomic_alignment
	1

[Fri Apr 26 21:00:11 2019]
rule samanalysis_genomic_alignment:
    input: /fast/users/helmsauk_c/work/NanoporeTestingDir/Alignment/ecDNA-round2-alignment/ecDNA-round2.NoBarcode.ngmlr_hg19.sam, /fast/users/helmsauk_c/work/NanoporeTestingDir/Alignment/ecDNA-round2-alignment/ecDNA-round2.NoBarcode.ngmlr_hg19.paf
    output: /fast/users/helmsauk_c/work/NanoporeTestingDir/Alignment/ecDNA-round2-alignment/ecDNA-round2.NoBarcode.ngmlr_hg19.sam-samanalysis/stats.txt
    jobid: 0
    wildcards: run=ecDNA-round2, dataset=ecDNA-round2.NoBarcode, alignment=ngmlr_hg19

python samanalysis-genomicalignment.py /fast/users/helmsauk_c/work/NanoporeTestingDir/Alignment/ecDNA-round2-alignment/ecDNA-round2.NoBarcode.ngmlr_hg19.sam /fast/users/helmsauk_c/work/NanoporeTestingDir/Alignment/ecDNA-round2-alignment/ecDNA-round2.NoBarcode.ngmlr_hg19.paf
mkdir: cannot create directory ‘/fast/users/helmsauk_c/work/NanoporeTestingDir/Alignment/ecDNA-round2-alignment/ecDNA-round2.NoBarcode.ngmlr_hg19.sam-samanalysis/’: File exists
[Fri Apr 26 21:00:16 2019]
Finished job 0.
1 of 1 steps (100%) done
