Wildcard constraints in inputs are ignored.
Building DAG of jobs...
Using shell: /usr/bin/bash
Provided cores: 32
Rules claiming more threads will be scaled down.
Job counts:
	count	jobs
	1	ngmlr2genome
	1

[Fri Apr 26 20:53:46 2019]
rule ngmlr2genome:
    input: /fast/users/helmsauk_c/work/NanoporeTestingDir/Basecalled/ecDNA-round2-basecalled/demultiplexed/ecDNA-round2.NoBarcode.fastq, /fast/projects/cubit/current/static_data/reference/hg19/ucsc/hg19.fa
    output: /fast/users/helmsauk_c/work/NanoporeTestingDir/Alignment/ecDNA-round2-alignment/ecDNA-round2.AH_eccDNA_12.ngmlr_hg19.sam
    jobid: 0
    wildcards: run=ecDNA-round2, dataset=ecDNA-round2.AH_eccDNA_12

ngmlr -r /fast/projects/cubit/current/static_data/reference/hg19/ucsc/hg19.fa -q /fast/users/helmsauk_c/work/NanoporeTestingDir/Basecalled/ecDNA-round2-basecalled/demultiplexed/ecDNA-round2.NoBarcode.fastq -o /fast/users/helmsauk_c/work/NanoporeTestingDir/Alignment/ecDNA-round2-alignment/ecDNA-round2.AH_eccDNA_12.ngmlr_hg19.sam -x ont
ngmlr 0.2.7 (build: Mar  8 2019 09:29:16, start: 2019-04-26.20:53:46)
Contact: philipp.rescheneder@univie.ac.at
Opening for output (SAM): /fast/users/helmsauk_c/work/NanoporeTestingDir/Alignment/ecDNA-round2-alignment/ecDNA-round2.AH_eccDNA_12.ngmlr_hg19.sam
Encoding reference sequence.
Size of reference genome 3101 Mbp (max. 68719 Mbp)
0 reference sequences were skipped (length < 10).
Writing encoded reference to /fast/projects/cubit/current/static_data/reference/hg19/ucsc/hg19.fa-enc.2.ngm
WARNING: Could not write encoded reference file to disk: Unable to open output file /fast/projects/cubit/current/static_data/reference/hg19/ucsc/hg19.fa-enc.2.ngm. Please check file permissions.
Building reference index #0 (kmer length: 13, reference skip: 2)
57552 prefixes were ignored due to the frequency cutoff (1000)
Overall time for creating RefTable: 267.53s
Writing reference index to /fast/projects/cubit/current/static_data/reference/hg19/ucsc/hg19.fa-ht-13-2.2.ngm
WARNING: Could not write reference index to disk: Error while opening file /fast/projects/cubit/current/static_data/reference/hg19/ucsc/hg19.fa-ht-13-2.2.ngm for writing. Please check file permissions.
Opening query file /fast/users/helmsauk_c/work/NanoporeTestingDir/Basecalled/ecDNA-round2-basecalled/demultiplexed/ecDNA-round2.NoBarcode.fastq
Mapping reads...
Processed: 129 (0.86), R/S: 64.50, RL: 1804, Time: 21.30 2.75 71.32, Align: 0.99, 429, 0.89
[A[2KProcessed: 129 (0.86), R/S: 64.49, RL: 1804, Time: 21.30 2.75 71.32, Align: 0.99, 429, 0.89
Done (111 reads mapped (86.05%), 18 reads not mapped, 157 lines written)(elapsed: 4m, 0 r/s)
[Fri Apr 26 20:58:35 2019]
Finished job 0.
1 of 1 steps (100%) done
