Wildcard constraints in inputs are ignored.
Building DAG of jobs...
Using shell: /usr/bin/bash
Provided cores: 32
Rules claiming more threads will be scaled down.
Job counts:
	count	jobs
	1	stats
	1

[Fri Apr 26 21:01:46 2019]
rule stats:
    input: /fast/users/helmsauk_c/work/NanoporeTestingDir/Alignment/ecDNA-round2-alignment/ecDNA-round2.AH_eccDNA_12.ngmlr_hg19.sorted.bam
    output: /fast/users/helmsauk_c/work/NanoporeTestingDir/Alignment/ecDNA-round2-alignment/ecDNA-round2.AH_eccDNA_12.ngmlr_hg19.sorted.stats.txt
    jobid: 0
    wildcards: run=ecDNA-round2, dataset=ecDNA-round2.AH_eccDNA_12, alignment=ngmlr_hg19, filtered=


        samtools stats /fast/users/helmsauk_c/work/NanoporeTestingDir/Alignment/ecDNA-round2-alignment/ecDNA-round2.AH_eccDNA_12.ngmlr_hg19.sorted.bam > /fast/users/helmsauk_c/work/NanoporeTestingDir/Alignment/ecDNA-round2-alignment/ecDNA-round2.AH_eccDNA_12.ngmlr_hg19.sorted.stats.txt
        
[Fri Apr 26 21:01:46 2019]
Finished job 0.
1 of 1 steps (100%) done
