Wildcard constraints in inputs are ignored.
Building DAG of jobs...
Using shell: /usr/bin/bash
Provided cores: 32
Rules claiming more threads will be scaled down.
Job counts:
	count	jobs
	1	stats
	1

[Fri Apr 26 20:54:11 2019]
rule stats:
    input: /fast/users/helmsauk_c/work/NanoporeTestingDir/Alignment/ecDNA-round1-alignment/ecDNA-round1.AH_eccDNA_17.minimap_hg19.sorted.bam
    output: /fast/users/helmsauk_c/work/NanoporeTestingDir/Alignment/ecDNA-round1-alignment/ecDNA-round1.AH_eccDNA_17.minimap_hg19.sorted.stats.txt
    jobid: 0
    wildcards: run=ecDNA-round1, dataset=ecDNA-round1.AH_eccDNA_17, alignment=minimap_hg19, filtered=


        samtools stats /fast/users/helmsauk_c/work/NanoporeTestingDir/Alignment/ecDNA-round1-alignment/ecDNA-round1.AH_eccDNA_17.minimap_hg19.sorted.bam > /fast/users/helmsauk_c/work/NanoporeTestingDir/Alignment/ecDNA-round1-alignment/ecDNA-round1.AH_eccDNA_17.minimap_hg19.sorted.stats.txt
        
[Fri Apr 26 20:54:11 2019]
Finished job 0.
1 of 1 steps (100%) done
