Wildcard constraints in inputs are ignored.
Building DAG of jobs...
Using shell: /usr/bin/bash
Provided cores: 32
Rules claiming more threads will be scaled down.
Job counts:
	count	jobs
	1	minimap2genome_sam
	1

[Fri Apr 26 20:53:26 2019]
rule minimap2genome_sam:
    input: /fast/users/helmsauk_c/work/NanoporeTestingDir/Basecalled/ecDNA-round2-basecalled/demultiplexed/ecDNA-round2.NoBarcode.fastq, /fast/users/helmsauk_c/work/resources/hg19.mmi
    output: /fast/users/helmsauk_c/work/NanoporeTestingDir/Alignment/ecDNA-round2-alignment/ecDNA-round2.AH_eccDNA_17.minimap_hg19.sam
    jobid: 0
    wildcards: run=ecDNA-round2, dataset=ecDNA-round2.AH_eccDNA_17

minimap2 -ax map-ont /fast/users/helmsauk_c/work/resources/hg19.mmi /fast/users/helmsauk_c/work/NanoporeTestingDir/Basecalled/ecDNA-round2-basecalled/demultiplexed/ecDNA-round2.NoBarcode.fastq > /fast/users/helmsauk_c/work/NanoporeTestingDir/Alignment/ecDNA-round2-alignment/ecDNA-round2.AH_eccDNA_17.minimap_hg19.sam
[M::main::15.969*0.61] loaded/built the index for 84 target sequence(s)
[M::mm_mapopt_update::17.530*0.64] mid_occ = 603
[M::mm_idx_stat] kmer size: 15; skip: 10; is_hpc: 0; #seq: 84
[M::mm_idx_stat::18.290*0.66] distinct minimizers: 100013811 (38.83% are singletons); average occurrences: 5.403; average spacing: 5.741
[M::worker_pipeline::18.510*0.69] mapped 129 sequences
[M::main] Version: 2.16-r922
[M::main] CMD: minimap2 -ax map-ont /fast/users/helmsauk_c/work/resources/hg19.mmi /fast/users/helmsauk_c/work/NanoporeTestingDir/Basecalled/ecDNA-round2-basecalled/demultiplexed/ecDNA-round2.NoBarcode.fastq
[M::main] Real time: 18.816 sec; CPU: 12.998 sec; Peak RSS: 7.620 GB
[Fri Apr 26 20:53:45 2019]
Finished job 0.
1 of 1 steps (100%) done
