Wildcard constraints in inputs are ignored.
Building DAG of jobs...
Using shell: /usr/bin/bash
Provided cores: 32
Rules claiming more threads will be scaled down.
Job counts:
	count	jobs
	1	demultiplex
	1

[Fri Apr 26 20:49:46 2019]
rule demultiplex:
    input: /fast/users/helmsauk_c/work/NanoporeTestingDir/RawData/ecDNA-round2/ecDNA-round2-Barcodes.tsv, /fast/users/helmsauk_c/work/NanoporeTestingDir/Basecalled/ecDNA-round2-basecalled/sequencing_summary.txt
    output: /fast/users/helmsauk_c/work/NanoporeTestingDir/Basecalled/ecDNA-round2-basecalled/demultiplexed/ecDNA-round2.NoBarcode.fastq, /fast/users/helmsauk_c/work/NanoporeTestingDir/Basecalled/ecDNA-round2-basecalled/ecDNA-round2-QC/ecDNA-round2-NanoComp-report.html
    jobid: 0
    wildcards: dataset=ecDNA-round2

mkdir /fast/users/helmsauk_c/work/NanoporeTestingDir/Basecalled/ecDNA-round2-basecalled/pass_merged/
cat /fast/users/helmsauk_c/work/NanoporeTestingDir/Basecalled/ecDNA-round2-basecalled/pass/*.fastq > /fast/users/helmsauk_c/work/NanoporeTestingDir/Basecalled/ecDNA-round2-basecalled/pass_merged/ecDNA-round2.fastq
qcat --trim --kit RBK004 -f /fast/users/helmsauk_c/work/NanoporeTestingDir/Basecalled/ecDNA-round2-basecalled/pass_merged/ecDNA-round2.fastq -b /fast/users/helmsauk_c/work/NanoporeTestingDir/Basecalled/ecDNA-round2-basecalled/demultiplexed/
/fast/users/helmsauk_c/work/miniconda/lib/python3.6/site-packages/qcat/adapters.py:73: YAMLLoadWarning: calling yaml.load() without Loader=... is deprecated, as the default Loader is unsafe. Please read https://msg.pyyaml.org/load for full details.
  data = yaml.load(stream)
Adapters detected in 2365 of 2494 reads
         RBK004   2365: |   ################## |  94.83 %
           none    129: |                    # |   5.17 %
Barcodes detected in 2365 of 2494 adapters
      barcode07    551: |                 #### |  22.09 %
      barcode08    485: |                  ### |  19.45 %
      barcode09    222: |                    # |   8.90 %
      barcode10    215: |                    # |   8.62 %
      barcode11    464: |                  ### |  18.60 %
      barcode12    428: |                  ### |  17.16 %
           none    129: |                    # |   5.17 %
Demultiplexing finished in 2.00s
NanoComp --fastq /fast/users/helmsauk_c/work/NanoporeTestingDir/Basecalled/ecDNA-round2-basecalled/demultiplexed/ecDNA-round2*.fastq --outdir /fast/users/helmsauk_c/work/NanoporeTestingDir/Basecalled/ecDNA-round2-basecalled/ecDNA-round2-QC --format pdf --title ecDNA-round2 --prefix ecDNA-round2-
rm /fast/users/helmsauk_c/work/NanoporeTestingDir/Basecalled/ecDNA-round2-basecalled/pass/*.fastq
rm /fast/users/helmsauk_c/work/NanoporeTestingDir/Basecalled/ecDNA-round2-basecalled/fail/*.fastq
[Fri Apr 26 20:50:15 2019]
Finished job 0.
1 of 1 steps (100%) done
