Wildcard constraints in inputs are ignored.
Building DAG of jobs...
Using shell: /usr/bin/bash
Provided cores: 32
Rules claiming more threads will be scaled down.
Job counts:
	count	jobs
	1	getsortedbam
	1

[Thu May  2 00:40:25 2019]
rule getsortedbam:
    input: /fast/users/helmsauk_c/scratch/Henssen_RMSPDX_NanoporeWGS_Feb2019/Alignment/rms5-8-alignment/rms5-8.12181.ngmlr_hg19.sam
    output: /fast/users/helmsauk_c/scratch/Henssen_RMSPDX_NanoporeWGS_Feb2019/Alignment/rms5-8-alignment/rms5-8.12181.ngmlr_hg19.sorted.bam
    jobid: 0
    wildcards: run=rms5-8, alignment=rms5-8.12181.ngmlr_hg19


        samtools view -h /fast/users/helmsauk_c/scratch/Henssen_RMSPDX_NanoporeWGS_Feb2019/Alignment/rms5-8-alignment/rms5-8.12181.ngmlr_hg19.sam | samtools sort > /fast/users/helmsauk_c/scratch/Henssen_RMSPDX_NanoporeWGS_Feb2019/Alignment/rms5-8-alignment/rms5-8.12181.ngmlr_hg19.sorted.bam
        samtools index /fast/users/helmsauk_c/scratch/Henssen_RMSPDX_NanoporeWGS_Feb2019/Alignment/rms5-8-alignment/rms5-8.12181.ngmlr_hg19.sorted.bam
        
[bam_sort_core] merging from 4 files and 1 in-memory blocks...
[Thu May  2 00:42:56 2019]
Finished job 0.
1 of 1 steps (100%) done
