Wildcard constraints in inputs are ignored.
Building DAG of jobs...
Using shell: /usr/bin/bash
Provided cores: 32
Rules claiming more threads will be scaled down.
Job counts:
	count	jobs
	1	nanocomp_after_demultiplexing
	1

[Wed May  1 21:47:17 2019]
rule nanocomp_after_demultiplexing:
    input: /fast/users/helmsauk_c/scratch/Henssen_RMSPDX_NanoporeWGS_Feb2019/Basecalled/rms5-8-basecalled/demultiplexed/rms5-8.NoBarcode.fastq
    output: /fast/users/helmsauk_c/scratch/Henssen_RMSPDX_NanoporeWGS_Feb2019/Basecalled/rms5-8-basecalled/rms5-8-QC/rms5-8-NanoComp-report.html
    jobid: 0
    wildcards: dataset=rms5-8

NanoComp --fastq /fast/users/helmsauk_c/scratch/Henssen_RMSPDX_NanoporeWGS_Feb2019/Basecalled/rms5-8-basecalled/demultiplexed/rms5-8*.fastq --outdir /fast/users/helmsauk_c/scratch/Henssen_RMSPDX_NanoporeWGS_Feb2019/Basecalled/rms5-8-basecalled/rms5-8-QC --format pdf --title rms5-8 --prefix rms5-8-
[Wed May  1 21:56:05 2019]
Finished job 0.
1 of 1 steps (100%) done
