Wildcard constraints in inputs are ignored.
Building DAG of jobs...
Using shell: /usr/bin/bash
Provided cores: 32
Rules claiming more threads will be scaled down.
Job counts:
	count	jobs
	1	rename_after_demultiplexing
	1

[Wed May  1 20:56:23 2019]
rule rename_after_demultiplexing:
    input: /fast/users/helmsauk_c/scratch/Henssen_RMSPDX_NanoporeWGS_Feb2019/Basecalled/rms1-4-basecalled/demultiplexed/none.fastq, /fast/users/helmsauk_c/scratch/Henssen_RMSPDX_NanoporeWGS_Feb2019/Basecalled/rms5-8-basecalled/demultiplexed/none.fastq
    output: /fast/users/helmsauk_c/scratch/Henssen_RMSPDX_NanoporeWGS_Feb2019/Basecalled/rms1-4-basecalled/demultiplexed/rms1-4.11410.fastq, /fast/users/helmsauk_c/scratch/Henssen_RMSPDX_NanoporeWGS_Feb2019/Basecalled/rms1-4-basecalled/demultiplexed/rms1-4.13454.fastq, /fast/users/helmsauk_c/scratch/Henssen_RMSPDX_NanoporeWGS_Feb2019/Basecalled/rms1-4-basecalled/demultiplexed/rms1-4.13810.fastq, /fast/users/helmsauk_c/scratch/Henssen_RMSPDX_NanoporeWGS_Feb2019/Basecalled/rms1-4-basecalled/demultiplexed/rms1-4.13933.fastq, /fast/users/helmsauk_c/scratch/Henssen_RMSPDX_NanoporeWGS_Feb2019/Basecalled/rms1-4-basecalled/demultiplexed/rms1-4.NoBarcode.fastq, /fast/users/helmsauk_c/scratch/Henssen_RMSPDX_NanoporeWGS_Feb2019/Basecalled/rms5-8-basecalled/demultiplexed/rms5-8.10752.fastq, /fast/users/helmsauk_c/scratch/Henssen_RMSPDX_NanoporeWGS_Feb2019/Basecalled/rms5-8-basecalled/demultiplexed/rms5-8.11492.fastq, /fast/users/helmsauk_c/scratch/Henssen_RMSPDX_NanoporeWGS_Feb2019/Basecalled/rms5-8-basecalled/demultiplexed/rms5-8.12181.fastq, /fast/users/helmsauk_c/scratch/Henssen_RMSPDX_NanoporeWGS_Feb2019/Basecalled/rms5-8-basecalled/demultiplexed/rms5-8.14419.fastq, /fast/users/helmsauk_c/scratch/Henssen_RMSPDX_NanoporeWGS_Feb2019/Basecalled/rms5-8-basecalled/demultiplexed/rms5-8.NoBarcode.fastq
    jobid: 0

[Wed May  1 20:56:23 2019]
Finished job 0.
1 of 1 steps (100%) done
