Wildcard constraints in inputs are ignored.
Building DAG of jobs...
Using shell: /usr/bin/bash
Provided cores: 32
Rules claiming more threads will be scaled down.
Job counts:
	count	jobs
	1	demultiplex
	1

[Wed May  1 05:29:28 2019]
rule demultiplex:
    input: /fast/users/helmsauk_c/scratch/Henssen_RMSPDX_NanoporeWGS_Feb2019/Basecalled/rms1-4-basecalled/sequencing_summary.txt
    output: /fast/users/helmsauk_c/scratch/Henssen_RMSPDX_NanoporeWGS_Feb2019/Basecalled/rms1-4-basecalled/demultiplexed/none.fastq
    jobid: 0
    wildcards: dataset=rms1-4

mkdir /fast/users/helmsauk_c/scratch/Henssen_RMSPDX_NanoporeWGS_Feb2019/Basecalled/rms1-4-basecalled/pass_merged/
cat /fast/users/helmsauk_c/scratch/Henssen_RMSPDX_NanoporeWGS_Feb2019/Basecalled/rms1-4-basecalled/pass/*.fastq > /fast/users/helmsauk_c/scratch/Henssen_RMSPDX_NanoporeWGS_Feb2019/Basecalled/rms1-4-basecalled/pass_merged/rms1-4.fastq
qcat --trim --kit RBK004 -f /fast/users/helmsauk_c/scratch/Henssen_RMSPDX_NanoporeWGS_Feb2019/Basecalled/rms1-4-basecalled/pass_merged/rms1-4.fastq -b /fast/users/helmsauk_c/scratch/Henssen_RMSPDX_NanoporeWGS_Feb2019/Basecalled/rms1-4-basecalled/demultiplexed/
/fast/users/helmsauk_c/work/miniconda/lib/python3.6/site-packages/qcat/adapters.py:73: YAMLLoadWarning: calling yaml.load() without Loader=... is deprecated, as the default Loader is unsafe. Please read https://msg.pyyaml.org/load for full details.
  data = yaml.load(stream)
Adapters detected in 873019 of 903487 reads
         RBK004 873019: |  ################### |  96.63 %
           none  30468: |                      |   3.37 %
Barcodes detected in 873019 of 903487 adapters
      barcode01 179917: |                  ### |  19.91 %
      barcode02 194160: |                 #### |  21.49 %
      barcode03 205252: |                 #### |  22.72 %
      barcode04 293540: |               ###### |  32.49 %
      barcode05    119: |                      |   0.01 %
      barcode06      1: |                      |   0.00 %
      barcode07      3: |                      |   0.00 %
      barcode08      5: |                      |   0.00 %
      barcode09      6: |                      |   0.00 %
      barcode10      3: |                      |   0.00 %
      barcode11     11: |                      |   0.00 %
      barcode12      2: |                      |   0.00 %
           none  30468: |                      |   3.37 %
Demultiplexing finished in 313.43s
[Wed May  1 05:35:03 2019]
Finished job 0.
1 of 1 steps (100%) done
