Wildcard constraints in inputs are ignored.
Building DAG of jobs...
Using shell: /usr/bin/bash
Provided cores: 32
Rules claiming more threads will be scaled down.
Job counts:
	count	jobs
	1	sniffles
	1

[Mon Apr 29 16:19:10 2019]
rule sniffles:
    input: /fast/users/helmsauk_c/scratch/Henssen_RMSPDX_NanoporeWGS_Feb2019/Alignment/rms1-4-alignment/rms1-4.Sample02.ngmlr_hg19.sorted.bam
    output: /fast/users/helmsauk_c/scratch/Henssen_RMSPDX_NanoporeWGS_Feb2019/SV/rms1-4-sv/rms1-4.Sample02.ngmlr_hg19.sorted.sniffles.vcf
    jobid: 0
    wildcards: run=rms1-4, alignment=rms1-4.Sample02.ngmlr_hg19

sniffles -m /fast/users/helmsauk_c/scratch/Henssen_RMSPDX_NanoporeWGS_Feb2019/Alignment/rms1-4-alignment/rms1-4.Sample02.ngmlr_hg19.sorted.bam -v /fast/users/helmsauk_c/scratch/Henssen_RMSPDX_NanoporeWGS_Feb2019/SV/rms1-4-sv/rms1-4.Sample02.ngmlr_hg19.sorted.sniffles.vcf
Estimating parameter...
	Max dist between aln events: 8
	Max diff in window: 50
	Min score ratio: 2
	Avg DEL ratio: 0.0453324
	Avg INS ratio: 0.0234716
Start parsing... chr1
		# Processed reads: 10000
	Switch Chr chr10
		# Processed reads: 20000
	Switch Chr chr11
	Switch Chr chr11_gl000202_random
	Switch Chr chr12
		# Processed reads: 30000
	Switch Chr chr13
		# Processed reads: 40000
	Switch Chr chr14
	Switch Chr chr15
		# Processed reads: 50000
	Switch Chr chr16
	Switch Chr chr17
		# Processed reads: 60000
	Switch Chr chr17_gl000203_random
	Switch Chr chr17_gl000204_random
	Switch Chr chr17_gl000205_random
	Switch Chr chr18
	Switch Chr chr19
	Switch Chr chr19_gl000208_random
	Switch Chr chr19_gl000209_random
	Switch Chr chr1_gl000191_random
	Switch Chr chr1_gl000192_random
	Switch Chr chr2
		# Processed reads: 70000
		# Processed reads: 80000
	Switch Chr chr20
	Switch Chr chr21
	Switch Chr chr22
		# Processed reads: 90000
	Switch Chr chr3
		# Processed reads: 100000
	Switch Chr chr4
		# Processed reads: 110000
	Switch Chr chr4_gl000193_random
	Switch Chr chr4_gl000194_random
	Switch Chr chr5
		# Processed reads: 120000
	Switch Chr chr6
		# Processed reads: 130000
	Switch Chr chr7
		# Processed reads: 140000
	Switch Chr chr7_gl000195_random
	Switch Chr chr8
		# Processed reads: 150000
	Switch Chr chr9
		# Processed reads: 160000
	Switch Chr chr9_gl000198_random
	Switch Chr chr9_gl000199_random
	Switch Chr chr9_gl000200_random
	Switch Chr chrM
	Switch Chr chrUn_gl000211
	Switch Chr chrUn_gl000212
	Switch Chr chrUn_gl000213
	Switch Chr chrUn_gl000214
	Switch Chr chrUn_gl000215
	Switch Chr chrUn_gl000216
	Switch Chr chrUn_gl000217
	Switch Chr chrUn_gl000218
	Switch Chr chrUn_gl000219
	Switch Chr chrUn_gl000220
	Switch Chr chrUn_gl000222
	Switch Chr chrUn_gl000224
	Switch Chr chrUn_gl000225
	Switch Chr chrUn_gl000226
	Switch Chr chrUn_gl000228
	Switch Chr chrUn_gl000230
	Switch Chr chrUn_gl000231
	Switch Chr chrUn_gl000232
	Switch Chr chrUn_gl000233
	Switch Chr chrUn_gl000234
	Switch Chr chrUn_gl000235
	Switch Chr chrUn_gl000236
	Switch Chr chrUn_gl000237
	Switch Chr chrUn_gl000241
	Switch Chr chrX
		# Processed reads: 170000
	Switch Chr chrY
Finalizing  ..
[Mon Apr 29 16:19:26 2019]
Finished job 0.
1 of 1 steps (100%) done
