Wildcard constraints in inputs are ignored.
Building DAG of jobs...
Using shell: /usr/bin/bash
Provided cores: 32
Rules claiming more threads will be scaled down.
Job counts:
	count	jobs
	1	copynumber
	1

[Mon May 13 14:10:31 2019]
rule copynumber:
    input: /fast/users/helmsauk_c/scratch/Henssen_RMSPDX_NanoporeWGS_Feb2019/Alignment/rms5-8-alignment/rms5-8.NoBarcode.minimap_hg19.sorted.bam
    output: /fast/users/helmsauk_c/scratch/Henssen_RMSPDX_NanoporeWGS_Feb2019/CopyNumber/rms5-8-copynumber/rms5-8.NoBarcode.minimap_hg19.sorted.copynumber.pdf, /fast/users/helmsauk_c/scratch/Henssen_RMSPDX_NanoporeWGS_Feb2019/CopyNumber/rms5-8-copynumber/rms5-8.NoBarcode.minimap_hg19.sorted.copynumber.Rdata
    jobid: 0
    wildcards: run=rms5-8, alignment=rms5-8.NoBarcode.minimap_hg19

Rscript cnprofile.R /fast/users/helmsauk_c/scratch/Henssen_RMSPDX_NanoporeWGS_Feb2019/Alignment/rms5-8-alignment/rms5-8.NoBarcode.minimap_hg19.sorted.bam /fast/users/helmsauk_c/scratch/Henssen_RMSPDX_NanoporeWGS_Feb2019/CopyNumber/rms5-8-copynumber/rms5-8.NoBarcode.minimap_hg19.sorted.copynumber.pdf /fast/users/helmsauk_c/scratch/Henssen_RMSPDX_NanoporeWGS_Feb2019/CopyNumber/rms5-8-copynumber/rms5-8.NoBarcode.minimap_hg19.sorted.copynumber.Rdata
Activating conda environment: /fast/work/users/helmsauk_c/nano-wgs/.snakemake/conda/4a95a64c
Annotation package QDNAseq.hg19 not found.
Downloading bin annotations for genome hg19, bin size 100kbp, and experiment type SR50 from URL http://qdnaseq-ireland.s3.amazonaws.com ...
    rms5-8.NoBarcode.minimap_hg19.sorted (1 of 1): extracting reads ... binning ...
Note: Residual filter missing for chromosomes: X
30,970	total bins
30,376	of which in selected chromosomes
28,529	of which with reference sequence
27,098	final bins
Calculating correction for GC content and mappability
    Calculating fit for sample rms5-8.NoBarcode.minimap_hg19.sorted (1 of 1) ...
Done.
Applying median normalization ...
Performing segmentation:
NA
EM algorithm started ... 

[1] "Total number of segments present in the data: 29"
[1] "Number of segments used for fitting the model: 27"
33911586746269181.251.5494665212255594264.293.6431552512254531230.593.5
Calling iteration1:

optim results
time: 1
minimum: 13563.800962475
113538.9408892207-1.54743078300055-0.640783770182517-0.04996107500063130.1421065544352860.2429327593821721.14584992709880.8569693296673420.2301260179074030.1778839813128550.01466353992698160.1264882198408480.126494731904759
33926696749831181.251.5642756112255594343.393.6494665212254531264.293.5
Calling iteration2:

optim results
time: 1
minimum: 13559.9234810937
113537.7851554092-1.75226959838907-0.750312904216402-0.04996546639888570.1016574265737690.1737845185775890.5424816135359550.9960163465450780.01343601346156970.03890578603124090.01319126414817180.03878559565255294.80382898147314
33926696749831181.251.5642756112255594343.393.6642756112254531343.393.5
Calling iteration3:

optim results
time: 0
minimum: 13558.2048945401
113537.4265097204-1.82420569919391-0.789858906309089-0.04999395117884790.1006695819101920.1720957869711030.5826289342811151.04367313465506-0.001975904704341850.01122901059775180.001678500535457860.01928037067654644.63856348819563
33926696749831181.251.5642756112255594343.393.6642756112254531343.393.5
Calling iteration4:

optim results
time: 0
minimum: 13557.3598978817
113537.2190189867-1.91868919610359-0.793923166037378-0.04999956835656890.1004208122578910.1716705124415490.5579497002350341.085739370727790.0008057693440728220.01120883885028430.00210994394037980.02269295591599294.31028589319367
EM algorithm done ...

Computing posterior probabilities for all segments ...

Total time:0minutes

Adjusting segmented data for cellularity ... 

Cellularity sample1: 1

Adjusting normalized data for cellularity ... 

Cellularity sample1: 1

1
33953356888974181.452.6642756112255594343.393.6642756112254531343.393.5
33953547024472181.453.6642756114786712343.3112.9642756112254531343.393.5
33953527024470181.453.6642756114786712343.3112.9642756112254531343.393.5
33953787241669181.455.3642756114786712343.3112.9642756112254531343.393.5
33958087242623181.455.3642756114786712343.3112.9642756112254531343.393.5
33958147242626181.455.3642756114786712343.3112.9642756112254531343.393.5
33958207242629181.455.3642756114786712343.3112.9642756112254531343.393.5
33958267242632181.455.3642756114786712343.3112.9642756112254531343.393.5
33958327242635181.455.3642756114786712343.3112.9642756112254531343.393.5
33958357242637181.455.3642756114786712343.3112.9642756112254531343.393.5
33958537323966181.455.9642756114786712343.3112.9642756112254531343.393.5
33962807324311181.455.9642756114786712343.3112.9642756112254531343.393.5
FINISHED!

Total time:0minutes

There were 50 or more warnings (use warnings() to see the first 50)
Plotting sample rms5-8.NoBarcode.minimap_hg19.sorted (74,020 reads) (1 of 1) ...
null device 
          1 
[Mon May 13 14:10:52 2019]
Finished job 0.
1 of 1 steps (100%) done
