Wildcard constraints in inputs are ignored.
Building DAG of jobs...
Using shell: /usr/bin/bash
Provided cores: 32
Rules claiming more threads will be scaled down.
Job counts:
	count	jobs
	1	samanalysis_genomic_alignment
	1

[Fri Jul  5 12:49:57 2019]
rule samanalysis_genomic_alignment:
    input: /fast/projects/NB_CircleSeq/work/Henssen_eccDNA_Nanopore_April2019/Alignment/circ-seqval-round4-hek12-alignment/circ-seqval-round4-hek12.HEK_gRNA1+2.minimap_hg19.sam, /fast/projects/NB_CircleSeq/work/Henssen_eccDNA_Nanopore_April2019/Alignment/circ-seqval-round4-hek12-alignment/circ-seqval-round4-hek12.HEK_gRNA1+2.minimap_hg19.paf
    output: /fast/projects/NB_CircleSeq/work/Henssen_eccDNA_Nanopore_April2019/Alignment/circ-seqval-round4-hek12-alignment/circ-seqval-round4-hek12.HEK_gRNA1+2.minimap_hg19.sam-samanalysis/stats.txt
    jobid: 0
    wildcards: run=circ-seqval-round4-hek12, alignment=circ-seqval-round4-hek12.HEK_gRNA1+2.minimap_hg19

python samanalysis-genomicalignment.py /fast/projects/NB_CircleSeq/work/Henssen_eccDNA_Nanopore_April2019/Alignment/circ-seqval-round4-hek12-alignment/circ-seqval-round4-hek12.HEK_gRNA1+2.minimap_hg19.sam /fast/projects/NB_CircleSeq/work/Henssen_eccDNA_Nanopore_April2019/Alignment/circ-seqval-round4-hek12-alignment/circ-seqval-round4-hek12.HEK_gRNA1+2.minimap_hg19.paf
mkdir: cannot create directory ‘/fast/projects/NB_CircleSeq/work/Henssen_eccDNA_Nanopore_April2019/Alignment/circ-seqval-round4-hek12-alignment/circ-seqval-round4-hek12.HEK_gRNA1+2.minimap_hg19.sam-samanalysis/’: File exists
[Fri Jul  5 12:50:41 2019]
Finished job 0.
1 of 1 steps (100%) done
