Wildcard constraints in inputs are ignored.
Building DAG of jobs...
Using shell: /usr/bin/bash
Provided cores: 32
Rules claiming more threads will be scaled down.
Job counts:
	count	jobs
	1	sam2paf
	1

[Fri Jul  5 12:48:34 2019]
rule sam2paf:
    input: /fast/projects/NB_CircleSeq/work/Henssen_eccDNA_Nanopore_April2019/Alignment/circ-seqval-round4-hek12-alignment/circ-seqval-round4-hek12.HEK_gRNA1+2.minimap_hg19.sam
    output: /fast/projects/NB_CircleSeq/work/Henssen_eccDNA_Nanopore_April2019/Alignment/circ-seqval-round4-hek12-alignment/circ-seqval-round4-hek12.HEK_gRNA1+2.minimap_hg19.paf
    jobid: 0
    wildcards: run=circ-seqval-round4-hek12, alignment=circ-seqval-round4-hek12.HEK_gRNA1+2.minimap_hg19

/fast/users/helmsauk_c/work/nano-wgs/utils/k8-linux /fast/users/helmsauk_c/work/nano-wgs/utils/sam2paf.js /fast/projects/NB_CircleSeq/work/Henssen_eccDNA_Nanopore_April2019/Alignment/circ-seqval-round4-hek12-alignment/circ-seqval-round4-hek12.HEK_gRNA1+2.minimap_hg19.sam > /fast/projects/NB_CircleSeq/work/Henssen_eccDNA_Nanopore_April2019/Alignment/circ-seqval-round4-hek12-alignment/circ-seqval-round4-hek12.HEK_gRNA1+2.minimap_hg19.paf
[Fri Jul  5 12:48:58 2019]
Finished job 0.
1 of 1 steps (100%) done
