Wildcard constraints in inputs are ignored.
Building DAG of jobs...
Using shell: /usr/bin/bash
Provided cores: 32
Rules claiming more threads will be scaled down.
Job counts:
	count	jobs
	1	nanocomp_after_demultiplexing
	1

[Wed Jun 26 02:33:23 2019]
rule nanocomp_after_demultiplexing:
    input: /fast/projects/NB_CircleSeq/work/Henssen_eccDNA_Nanopore_April2019/Basecalled/circ-seqval-round2-basecalled/demultiplexed/circ-seqval-round2.NoBarcode.fastq
    output: /fast/projects/NB_CircleSeq/work/Henssen_eccDNA_Nanopore_April2019/Basecalled/circ-seqval-round2-basecalled/circ-seqval-round2-QC/circ-seqval-round2-NanoComp-report.html
    jobid: 0
    wildcards: dataset=circ-seqval-round2

NanoComp --fastq /fast/projects/NB_CircleSeq/work/Henssen_eccDNA_Nanopore_April2019/Basecalled/circ-seqval-round2-basecalled/demultiplexed/circ-seqval-round2*.fastq --outdir /fast/projects/NB_CircleSeq/work/Henssen_eccDNA_Nanopore_April2019/Basecalled/circ-seqval-round2-basecalled/circ-seqval-round2-QC --format pdf --title circ-seqval-round2 --prefix circ-seqval-round2-
[Wed Jun 26 02:37:37 2019]
Finished job 0.
1 of 1 steps (100%) done
