Wildcard constraints in inputs are ignored.
Building DAG of jobs...
Using shell: /usr/bin/bash
Provided cores: 32
Rules claiming more threads will be scaled down.
Job counts:
	count	jobs
	1	getsortedbam
	1

[Wed Jun 26 00:39:04 2019]
rule getsortedbam:
    input: /fast/projects/NB_CircleSeq/work/Henssen_eccDNA_Nanopore_April2019/Alignment/circ-seqval-round3-alignment/circ-seqval-round3.pTRE_superPB.ngmlr_hg19.sam
    output: /fast/projects/NB_CircleSeq/work/Henssen_eccDNA_Nanopore_April2019/Alignment/circ-seqval-round3-alignment/circ-seqval-round3.pTRE_superPB.ngmlr_hg19.sorted.bam
    jobid: 0
    wildcards: run=circ-seqval-round3, alignment=circ-seqval-round3.pTRE_superPB.ngmlr_hg19


        samtools view -h /fast/projects/NB_CircleSeq/work/Henssen_eccDNA_Nanopore_April2019/Alignment/circ-seqval-round3-alignment/circ-seqval-round3.pTRE_superPB.ngmlr_hg19.sam | samtools sort > /fast/projects/NB_CircleSeq/work/Henssen_eccDNA_Nanopore_April2019/Alignment/circ-seqval-round3-alignment/circ-seqval-round3.pTRE_superPB.ngmlr_hg19.sorted.bam
        samtools index /fast/projects/NB_CircleSeq/work/Henssen_eccDNA_Nanopore_April2019/Alignment/circ-seqval-round3-alignment/circ-seqval-round3.pTRE_superPB.ngmlr_hg19.sorted.bam
        
[bam_sort_core] merging from 1 files and 1 in-memory blocks...
[Wed Jun 26 00:39:49 2019]
Finished job 0.
1 of 1 steps (100%) done
