Wildcard constraints in inputs are ignored.
Building DAG of jobs...
Using shell: /usr/bin/bash
Provided cores: 32
Rules claiming more threads will be scaled down.
Job counts:
	count	jobs
	1	minimap2genome_sam
	1

[Wed Jun 26 00:17:37 2019]
rule minimap2genome_sam:
    input: /fast/projects/NB_CircleSeq/work/Henssen_eccDNA_Nanopore_April2019/Basecalled/circ-seqval-round3-basecalled/demultiplexed/circ-seqval-round3.HEK_gRNA1+2.fastq, /fast/users/helmsauk_c/work/resources/hg19.mmi
    output: /fast/projects/NB_CircleSeq/work/Henssen_eccDNA_Nanopore_April2019/Alignment/circ-seqval-round3-alignment/circ-seqval-round3.HEK_gRNA1+2.minimap_hg19.sam
    jobid: 0
    wildcards: run=circ-seqval-round3, runsample=circ-seqval-round3.HEK_gRNA1+2

minimap2 -ax map-ont /fast/users/helmsauk_c/work/resources/hg19.mmi /fast/projects/NB_CircleSeq/work/Henssen_eccDNA_Nanopore_April2019/Basecalled/circ-seqval-round3-basecalled/demultiplexed/circ-seqval-round3.HEK_gRNA1+2.fastq > /fast/projects/NB_CircleSeq/work/Henssen_eccDNA_Nanopore_April2019/Alignment/circ-seqval-round3-alignment/circ-seqval-round3.HEK_gRNA1+2.minimap_hg19.sam
[M::main::9.711*0.78] loaded/built the index for 84 target sequence(s)
[M::mm_mapopt_update::12.419*0.83] mid_occ = 603
[M::mm_idx_stat] kmer size: 15; skip: 10; is_hpc: 0; #seq: 84
[M::mm_idx_stat::13.218*0.84] distinct minimizers: 100013811 (38.83% are singletons); average occurrences: 5.403; average spacing: 5.741
[M::worker_pipeline::69.058*2.55] mapped 116263 sequences
[M::worker_pipeline::72.486*2.57] mapped 10201 sequences
[M::main] Version: 2.16-r922
[M::main] CMD: minimap2 -ax map-ont /fast/users/helmsauk_c/work/resources/hg19.mmi /fast/projects/NB_CircleSeq/work/Henssen_eccDNA_Nanopore_April2019/Basecalled/circ-seqval-round3-basecalled/demultiplexed/circ-seqval-round3.HEK_gRNA1+2.fastq
[M::main] Real time: 73.007 sec; CPU: 186.484 sec; Peak RSS: 8.544 GB
[Wed Jun 26 00:18:50 2019]
Finished job 0.
1 of 1 steps (100%) done
