Wildcard constraints in inputs are ignored.
Building DAG of jobs...
Using shell: /usr/bin/bash
Provided cores: 32
Rules claiming more threads will be scaled down.
Job counts:
	count	jobs
	1	sam2paf
	1

[Tue Jun 25 23:23:46 2019]
rule sam2paf:
    input: /fast/projects/NB_CircleSeq/work/Henssen_eccDNA_Nanopore_April2019/Alignment/circ-seqval-round3-alignment/circ-seqval-round3.NoBarcode.minimap_hg19.sam
    output: /fast/projects/NB_CircleSeq/work/Henssen_eccDNA_Nanopore_April2019/Alignment/circ-seqval-round3-alignment/circ-seqval-round3.NoBarcode.minimap_hg19.paf
    jobid: 0
    wildcards: run=circ-seqval-round3, alignment=circ-seqval-round3.NoBarcode.minimap_hg19

/fast/users/helmsauk_c/work/nano-wgs/utils/k8-linux /fast/users/helmsauk_c/work/nano-wgs/utils/sam2paf.js /fast/projects/NB_CircleSeq/work/Henssen_eccDNA_Nanopore_April2019/Alignment/circ-seqval-round3-alignment/circ-seqval-round3.NoBarcode.minimap_hg19.sam > /fast/projects/NB_CircleSeq/work/Henssen_eccDNA_Nanopore_April2019/Alignment/circ-seqval-round3-alignment/circ-seqval-round3.NoBarcode.minimap_hg19.paf
[Tue Jun 25 23:23:50 2019]
Finished job 0.
1 of 1 steps (100%) done
