Wildcard constraints in inputs are ignored.
Building DAG of jobs...
Using shell: /usr/bin/bash
Provided cores: 32
Rules claiming more threads will be scaled down.
Job counts:
	count	jobs
	1	ngmlr2genome
	1

[Wed Jun 26 02:13:09 2019]
rule ngmlr2genome:
    input: /fast/projects/NB_CircleSeq/work/Henssen_eccDNA_Nanopore_April2019/Basecalled/circ-seqval-round1-basecalled/demultiplexed/circ-seqval-round1.TR14.fastq, /fast/projects/cubit/current/static_data/reference/hg19/ucsc/hg19.fa
    output: /fast/projects/NB_CircleSeq/work/Henssen_eccDNA_Nanopore_April2019/Alignment/circ-seqval-round1-alignment/circ-seqval-round1.TR14.ngmlr_hg19.sam
    jobid: 0
    wildcards: run=circ-seqval-round1, runsample=circ-seqval-round1.TR14

ngmlr -r /fast/projects/cubit/current/static_data/reference/hg19/ucsc/hg19.fa -q /fast/projects/NB_CircleSeq/work/Henssen_eccDNA_Nanopore_April2019/Basecalled/circ-seqval-round1-basecalled/demultiplexed/circ-seqval-round1.TR14.fastq -o /fast/projects/NB_CircleSeq/work/Henssen_eccDNA_Nanopore_April2019/Alignment/circ-seqval-round1-alignment/circ-seqval-round1.TR14.ngmlr_hg19.sam -x ont
ngmlr 0.2.7 (build: Mar  8 2019 09:29:16, start: 2019-06-26.02:13:09)
Contact: philipp.rescheneder@univie.ac.at
Opening for output (SAM): /fast/projects/NB_CircleSeq/work/Henssen_eccDNA_Nanopore_April2019/Alignment/circ-seqval-round1-alignment/circ-seqval-round1.TR14.ngmlr_hg19.sam
Encoding reference sequence.
Size of reference genome 3101 Mbp (max. 68719 Mbp)
0 reference sequences were skipped (length < 10).
Writing encoded reference to /fast/projects/cubit/current/static_data/reference/hg19/ucsc/hg19.fa-enc.2.ngm
WARNING: Could not write encoded reference file to disk: Unable to open output file /fast/projects/cubit/current/static_data/reference/hg19/ucsc/hg19.fa-enc.2.ngm. Please check file permissions.
Building reference index #0 (kmer length: 13, reference skip: 2)
57552 prefixes were ignored due to the frequency cutoff (1000)
Overall time for creating RefTable: 267.11s
Writing reference index to /fast/projects/cubit/current/static_data/reference/hg19/ucsc/hg19.fa-ht-13-2.2.ngm
WARNING: Could not write reference index to disk: Error while opening file /fast/projects/cubit/current/static_data/reference/hg19/ucsc/hg19.fa-ht-13-2.2.ngm for writing. Please check file permissions.
Opening query file /fast/projects/NB_CircleSeq/work/Henssen_eccDNA_Nanopore_April2019/Basecalled/circ-seqval-round1-basecalled/demultiplexed/circ-seqval-round1.TR14.fastq
Mapping reads...
Processed: 101 (0.92), R/S: 50.50, RL: 2759, Time: 22.04 2.10 73.63, Align: 0.99, 342, 0.97
[A[2KProcessed: 210 (0.95), R/S: 52.50, RL: 2686, Time: 19.01 3.00 74.19, Align: 1.00, 342, 0.96
[A[2KProcessed: 328 (0.96), R/S: 54.66, RL: 2621, Time: 19.00 3.00 75.00, Align: 1.00, 339, 0.97
[A[2KProcessed: 433 (0.96), R/S: 54.12, RL: 2590, Time: 18.00 3.00 72.99, Align: 1.00, 343, 0.96
[A[2KProcessed: 560 (0.96), R/S: 56.00, RL: 2594, Time: 18.00 3.00 73.25, Align: 1.00, 342, 0.96
[A[2KProcessed: 683 (0.96), R/S: 56.91, RL: 2550, Time: 18.00 3.00 73.94, Align: 1.00, 350, 0.96
[A[2KProcessed: 820 (0.95), R/S: 58.57, RL: 2521, Time: 18.00 3.00 74.00, Align: 1.00, 349, 0.96
[A[2KProcessed: 945 (0.96), R/S: 59.06, RL: 2516, Time: 18.00 3.00 74.00, Align: 1.00, 352, 0.96
[A[2KProcessed: 1080 (0.95), R/S: 60.00, RL: 2506, Time: 18.00 3.00 74.00, Align: 1.00, 359, 0.96
[A[2KProcessed: 1218 (0.95), R/S: 60.90, RL: 2465, Time: 18.00 3.00 74.00, Align: 1.00, 357, 0.96
[A[2KProcessed: 1283 (0.95), R/S: 58.31, RL: 2478, Time: 18.00 3.00 74.00, Align: 1.00, 358, 0.96
[A[2KProcessed: 1400 (0.95), R/S: 58.33, RL: 2483, Time: 17.00 3.00 74.00, Align: 1.00, 356, 0.96
[A[2KProcessed: 1551 (0.95), R/S: 59.65, RL: 2464, Time: 17.00 3.00 74.00, Align: 1.00, 354, 0.96
[A[2KProcessed: 1688 (0.95), R/S: 60.28, RL: 2434, Time: 17.00 3.00 74.00, Align: 1.00, 353, 0.96
[A[2KProcessed: 1805 (0.95), R/S: 60.16, RL: 2451, Time: 17.99 3.00 74.00, Align: 1.00, 351, 0.96
[A[2KProcessed: 1934 (0.95), R/S: 60.43, RL: 2445, Time: 18.00 3.00 74.00, Align: 1.00, 350, 0.96
[A[2KProcessed: 2060 (0.95), R/S: 60.58, RL: 2449, Time: 18.00 3.00 74.00, Align: 1.00, 349, 0.96
[A[2KProcessed: 2202 (0.95), R/S: 61.16, RL: 2437, Time: 18.00 3.00 74.00, Align: 1.00, 347, 0.96
[A[2KProcessed: 2279 (0.95), R/S: 59.97, RL: 2439, Time: 17.12 3.00 74.88, Align: 1.00, 348, 0.96
[A[2KProcessed: 2419 (0.95), R/S: 60.47, RL: 2435, Time: 17.00 3.00 75.00, Align: 1.00, 347, 0.96
[A[2KProcessed: 2547 (0.95), R/S: 60.64, RL: 2441, Time: 18.00 3.00 75.00, Align: 1.00, 348, 0.96
[A[2KProcessed: 2660 (0.95), R/S: 60.45, RL: 2466, Time: 18.00 3.00 75.00, Align: 1.00, 347, 0.96
[A[2KProcessed: 2832 (0.95), R/S: 61.56, RL: 2428, Time: 18.00 3.00 75.00, Align: 1.00, 348, 0.96
[A[2KProcessed: 2942 (0.95), R/S: 61.28, RL: 2440, Time: 18.00 3.00 75.00, Align: 1.00, 347, 0.96
[A[2KProcessed: 3058 (0.95), R/S: 61.15, RL: 2439, Time: 18.00 3.00 75.00, Align: 1.00, 349, 0.96
[A[2KProcessed: 3130 (0.95), R/S: 60.19, RL: 2450, Time: 17.00 3.00 73.51, Align: 1.00, 349, 0.96
[A[2KProcessed: 3279 (0.95), R/S: 60.72, RL: 2430, Time: 17.00 3.00 74.00, Align: 1.00, 348, 0.96
[A[2KProcessed: 3396 (0.95), R/S: 60.64, RL: 2439, Time: 17.00 3.00 74.00, Align: 1.00, 348, 0.96
[A[2KProcessed: 3513 (0.95), R/S: 60.56, RL: 2442, Time: 17.03 3.00 74.00, Align: 1.00, 348, 0.96
[A[2KProcessed: 3642 (0.95), R/S: 60.69, RL: 2442, Time: 18.00 3.00 74.00, Align: 1.00, 347, 0.96
[A[2KProcessed: 3791 (0.95), R/S: 61.14, RL: 2430, Time: 18.00 3.00 74.00, Align: 1.00, 347, 0.96
[A[2KProcessed: 3932 (0.95), R/S: 61.43, RL: 2429, Time: 18.00 3.00 74.00, Align: 1.00, 347, 0.96
[A[2KProcessed: 4080 (0.95), R/S: 61.81, RL: 2427, Time: 18.00 3.00 74.00, Align: 1.00, 347, 0.96
[A[2KProcessed: 4200 (0.95), R/S: 61.76, RL: 2432, Time: 18.00 3.00 74.00, Align: 1.00, 346, 0.96
[A[2KProcessed: 4332 (0.95), R/S: 61.88, RL: 2431, Time: 18.00 3.00 74.00, Align: 1.00, 346, 0.96
[A[2KProcessed: 4439 (0.95), R/S: 61.65, RL: 2434, Time: 18.00 3.00 74.00, Align: 1.00, 346, 0.96
[A[2KProcessed: 4570 (0.95), R/S: 61.75, RL: 2438, Time: 18.00 3.00 74.00, Align: 1.00, 346, 0.96
[A[2KProcessed: 4686 (0.95), R/S: 61.65, RL: 2438, Time: 18.00 3.00 74.00, Align: 1.00, 347, 0.96
[A[2KProcessed: 4806 (0.95), R/S: 61.61, RL: 2438, Time: 17.00 3.00 74.00, Align: 1.00, 348, 0.96
[A[2KProcessed: 4913 (0.95), R/S: 61.41, RL: 2443, Time: 17.00 3.00 74.00, Align: 1.00, 348, 0.96
[A[2KProcessed: 5041 (0.95), R/S: 61.47, RL: 2446, Time: 17.00 3.00 74.00, Align: 1.00, 347, 0.96
[A[2KProcessed: 5137 (0.95), R/S: 61.15, RL: 2445, Time: 17.00 3.00 74.00, Align: 1.00, 348, 0.95
[A[2KProcessed: 5200 (0.95), R/S: 60.46, RL: 2454, Time: 17.00 3.00 74.00, Align: 1.00, 348, 0.95
[A[2KProcessed: 5278 (0.95), R/S: 59.97, RL: 2450, Time: 17.00 3.00 74.00, Align: 1.00, 348, 0.95
[A[2KProcessed: 5397 (0.95), R/S: 59.96, RL: 2452, Time: 17.00 3.00 74.00, Align: 1.00, 348, 0.95
[A[2KProcessed: 5540 (0.95), R/S: 60.21, RL: 2450, Time: 17.00 3.00 74.00, Align: 1.00, 348, 0.95
[A[2KProcessed: 5657 (0.95), R/S: 60.18, RL: 2451, Time: 17.00 3.00 74.00, Align: 1.00, 348, 0.95
[A[2KProcessed: 5800 (0.95), R/S: 60.41, RL: 2449, Time: 17.00 3.00 74.00, Align: 1.00, 347, 0.95
[A[2KProcessed: 5923 (0.95), R/S: 60.43, RL: 2448, Time: 17.00 3.00 74.00, Align: 1.00, 348, 0.95
[A[2KProcessed: 6049 (0.95), R/S: 60.48, RL: 2442, Time: 17.00 3.00 74.00, Align: 1.00, 347, 0.95
[A[2KProcessed: 6179 (0.95), R/S: 60.57, RL: 2444, Time: 17.00 3.00 74.00, Align: 1.00, 348, 0.95
[A[2KProcessed: 6305 (0.95), R/S: 60.62, RL: 2446, Time: 17.00 3.00 74.00, Align: 1.00, 348, 0.95
[A[2KProcessed: 6440 (0.95), R/S: 60.75, RL: 2443, Time: 17.00 3.00 74.00, Align: 1.00, 348, 0.96
[A[2KProcessed: 6561 (0.95), R/S: 60.74, RL: 2449, Time: 17.00 3.00 74.00, Align: 1.00, 348, 0.96
[A[2KProcessed: 6688 (0.95), R/S: 60.79, RL: 2444, Time: 17.00 3.00 74.00, Align: 1.00, 349, 0.96
[A[2KProcessed: 6806 (0.95), R/S: 60.76, RL: 2449, Time: 17.00 3.00 74.00, Align: 1.00, 350, 0.96
[A[2KProcessed: 6934 (0.95), R/S: 60.82, RL: 2447, Time: 17.00 3.00 74.00, Align: 1.00, 350, 0.96
[A[2KProcessed: 7070 (0.95), R/S: 60.94, RL: 2450, Time: 17.00 3.00 74.00, Align: 1.00, 349, 0.96
[A[2KProcessed: 7200 (0.95), R/S: 61.01, RL: 2448, Time: 17.00 3.00 74.00, Align: 1.00, 349, 0.96
[A[2KProcessed: 7340 (0.95), R/S: 61.16, RL: 2446, Time: 17.00 3.00 74.00, Align: 1.00, 350, 0.96
[A[2KProcessed: 7487 (0.95), R/S: 61.36, RL: 2439, Time: 17.00 3.00 74.00, Align: 1.00, 349, 0.96
[A[2KProcessed: 7635 (0.95), R/S: 61.57, RL: 2434, Time: 17.00 3.00 75.00, Align: 1.00, 350, 0.96
[A[2KProcessed: 7731 (0.95), R/S: 61.35, RL: 2441, Time: 17.00 3.00 74.76, Align: 1.00, 350, 0.96
[A[2KProcessed: 7878 (0.95), R/S: 61.54, RL: 2435, Time: 17.00 3.00 75.00, Align: 1.00, 350, 0.96
[A[2KProcessed: 7988 (0.95), R/S: 61.44, RL: 2437, Time: 17.00 3.00 75.00, Align: 1.00, 350, 0.96
[A[2KProcessed: 8126 (0.95), R/S: 61.56, RL: 2436, Time: 17.00 3.00 75.00, Align: 1.00, 349, 0.96
[A[2KProcessed: 8258 (0.95), R/S: 61.62, RL: 2430, Time: 17.00 3.00 74.03, Align: 1.00, 349, 0.96
[A[2KProcessed: 8361 (0.95), R/S: 61.47, RL: 2436, Time: 17.00 3.00 74.00, Align: 1.00, 348, 0.96
[A[2KProcessed: 8478 (0.95), R/S: 61.43, RL: 2440, Time: 17.00 3.00 74.00, Align: 1.00, 348, 0.96
[A[2KProcessed: 8599 (0.95), R/S: 61.42, RL: 2440, Time: 17.00 3.00 74.00, Align: 1.00, 348, 0.96
[A[2KProcessed: 8723 (0.95), R/S: 61.42, RL: 2445, Time: 17.00 3.00 74.00, Align: 1.00, 348, 0.96
[A[2KProcessed: 8841 (0.95), R/S: 61.39, RL: 2447, Time: 17.00 3.00 74.00, Align: 1.00, 348, 0.96
[A[2KProcessed: 8975 (0.95), R/S: 61.47, RL: 2447, Time: 17.00 3.00 74.00, Align: 1.00, 348, 0.96
[A[2KProcessed: 9126 (0.95), R/S: 61.66, RL: 2443, Time: 17.00 3.00 74.94, Align: 1.00, 348, 0.96
[A[2KProcessed: 9245 (0.95), R/S: 61.63, RL: 2446, Time: 17.00 3.00 75.00, Align: 1.00, 348, 0.96
[A[2KProcessed: 9380 (0.95), R/S: 61.71, RL: 2446, Time: 17.00 3.00 75.00, Align: 1.00, 348, 0.96
[A[2KProcessed: 9520 (0.95), R/S: 61.81, RL: 2444, Time: 17.00 3.00 75.00, Align: 1.00, 348, 0.96
[A[2KProcessed: 9659 (0.95), R/S: 61.91, RL: 2441, Time: 17.00 3.00 75.00, Align: 1.00, 348, 0.96
[A[2KProcessed: 9781 (0.95), R/S: 61.90, RL: 2444, Time: 17.00 3.00 75.00, Align: 1.00, 348, 0.96
[A[2KProcessed: 9920 (0.95), R/S: 61.99, RL: 2443, Time: 17.00 3.00 75.00, Align: 1.00, 347, 0.96
[A[2KProcessed: 10042 (0.95), R/S: 61.98, RL: 2442, Time: 17.00 3.00 75.00, Align: 1.00, 347, 0.96
[A[2KProcessed: 10199 (0.95), R/S: 62.18, RL: 2436, Time: 17.00 3.00 75.00, Align: 1.00, 347, 0.96
[A[2KProcessed: 10337 (0.95), R/S: 62.27, RL: 2435, Time: 17.00 3.00 75.00, Align: 1.00, 347, 0.96
[A[2KProcessed: 10479 (0.95), R/S: 62.37, RL: 2432, Time: 17.00 3.00 75.00, Align: 1.00, 348, 0.96
[A[2KProcessed: 10611 (0.95), R/S: 62.41, RL: 2432, Time: 17.00 3.00 75.00, Align: 1.00, 348, 0.96
[A[2KProcessed: 10736 (0.95), R/S: 62.41, RL: 2433, Time: 17.00 3.00 75.00, Align: 1.00, 348, 0.96
[A[2KProcessed: 10860 (0.95), R/S: 62.41, RL: 2436, Time: 17.00 3.00 75.00, Align: 1.00, 348, 0.96
[A[2KProcessed: 11015 (0.95), R/S: 62.58, RL: 2430, Time: 17.00 3.00 75.00, Align: 1.00, 348, 0.96
[A[2KProcessed: 11139 (0.95), R/S: 62.57, RL: 2432, Time: 17.00 3.00 75.00, Align: 1.00, 348, 0.96
[A[2KProcessed: 11268 (0.95), R/S: 62.59, RL: 2433, Time: 17.00 3.00 75.00, Align: 1.00, 347, 0.96
[A[2KProcessed: 11418 (0.95), R/S: 62.73, RL: 2430, Time: 17.00 3.00 75.00, Align: 1.00, 347, 0.96
[A[2KProcessed: 11539 (0.95), R/S: 62.71, RL: 2432, Time: 17.00 3.00 75.00, Align: 1.00, 347, 0.96
[A[2KProcessed: 11658 (0.95), R/S: 62.67, RL: 2434, Time: 17.00 3.00 75.00, Align: 1.00, 347, 0.96
[A[2KProcessed: 11790 (0.95), R/S: 62.71, RL: 2434, Time: 17.00 3.00 75.00, Align: 1.00, 347, 0.96
[A[2KProcessed: 11925 (0.95), R/S: 62.76, RL: 2434, Time: 17.00 3.00 75.00, Align: 1.00, 348, 0.96
[A[2KProcessed: 12036 (0.95), R/S: 62.68, RL: 2436, Time: 17.00 3.00 75.00, Align: 1.00, 347, 0.96
[A[2KProcessed: 12168 (0.95), R/S: 62.72, RL: 2436, Time: 17.00 3.00 75.00, Align: 1.00, 347, 0.96
[A[2KProcessed: 12297 (0.95), R/S: 62.73, RL: 2436, Time: 17.00 3.00 75.00, Align: 1.00, 347, 0.96
[A[2KProcessed: 12447 (0.95), R/S: 62.86, RL: 2432, Time: 17.00 3.00 75.00, Align: 1.00, 347, 0.96
[A[2KProcessed: 12560 (0.95), R/S: 62.79, RL: 2436, Time: 17.00 3.00 75.00, Align: 1.00, 347, 0.96
[A[2KProcessed: 12686 (0.95), R/S: 62.80, RL: 2436, Time: 17.00 3.00 75.00, Align: 1.00, 348, 0.96
[A[2KProcessed: 12839 (0.96), R/S: 62.93, RL: 2433, Time: 17.00 3.00 75.00, Align: 1.00, 348, 0.96
[A[2KProcessed: 12980 (0.96), R/S: 63.00, RL: 2433, Time: 17.00 3.00 75.00, Align: 1.00, 347, 0.96
[A[2KProcessed: 13115 (0.96), R/S: 63.05, RL: 2432, Time: 17.00 3.00 75.00, Align: 1.00, 347, 0.96
[A[2KProcessed: 13259 (0.96), R/S: 63.13, RL: 2428, Time: 17.00 3.00 75.00, Align: 1.00, 347, 0.96
[A[2KProcessed: 13376 (0.96), R/S: 63.09, RL: 2429, Time: 17.00 3.00 75.00, Align: 1.00, 347, 0.96
[A[2KProcessed: 13508 (0.96), R/S: 63.12, RL: 2428, Time: 17.00 3.00 75.00, Align: 1.00, 347, 0.96
[A[2KProcessed: 13655 (0.95), R/S: 63.21, RL: 2426, Time: 17.00 3.00 75.00, Align: 1.00, 347, 0.96
[A[2KProcessed: 13819 (0.95), R/S: 63.38, RL: 2421, Time: 17.00 3.00 75.00, Align: 1.00, 347, 0.96
[A[2KProcessed: 13938 (0.95), R/S: 63.35, RL: 2423, Time: 17.00 3.00 75.00, Align: 1.00, 346, 0.96
[A[2KProcessed: 14081 (0.95), R/S: 63.42, RL: 2423, Time: 17.00 3.00 75.00, Align: 1.00, 346, 0.96
[A[2KProcessed: 14189 (0.95), R/S: 63.34, RL: 2425, Time: 17.00 3.00 75.00, Align: 1.00, 347, 0.96
[A[2KProcessed: 14309 (0.95), R/S: 63.31, RL: 2428, Time: 17.00 3.00 75.00, Align: 1.00, 347, 0.96
[A[2KProcessed: 14423 (0.95), R/S: 63.25, RL: 2428, Time: 17.00 3.00 75.00, Align: 1.00, 347, 0.96
[A[2KProcessed: 14532 (0.95), R/S: 63.18, RL: 2429, Time: 17.00 3.00 75.00, Align: 1.00, 347, 0.96
[A[2KProcessed: 14620 (0.95), R/S: 63.01, RL: 2431, Time: 17.00 3.00 75.00, Align: 1.00, 347, 0.96
[A[2KProcessed: 14730 (0.95), R/S: 62.94, RL: 2432, Time: 17.00 3.00 75.00, Align: 1.00, 347, 0.96
[A[2KProcessed: 14869 (0.95), R/S: 63.00, RL: 2431, Time: 17.00 3.00 75.00, Align: 1.00, 348, 0.96
[A[2KProcessed: 14986 (0.95), R/S: 62.96, RL: 2432, Time: 17.00 3.00 75.00, Align: 1.00, 348, 0.96
[A[2KProcessed: 15126 (0.95), R/S: 63.02, RL: 2429, Time: 17.00 3.00 75.00, Align: 1.00, 348, 0.96
[A[2KProcessed: 15255 (0.96), R/S: 63.03, RL: 2430, Time: 17.00 3.00 75.00, Align: 1.00, 347, 0.96
[A[2KProcessed: 15363 (0.96), R/S: 62.96, RL: 2431, Time: 17.00 3.00 75.00, Align: 1.00, 347, 0.96
[A[2KProcessed: 15490 (0.96), R/S: 62.96, RL: 2432, Time: 17.00 3.00 75.00, Align: 1.00, 347, 0.96
[A[2KProcessed: 15640 (0.96), R/S: 63.06, RL: 2430, Time: 17.00 3.00 75.00, Align: 1.00, 347, 0.96
[A[2KProcessed: 15743 (0.96), R/S: 62.97, RL: 2432, Time: 17.00 3.00 75.00, Align: 1.00, 347, 0.96
[A[2KProcessed: 15873 (0.96), R/S: 62.98, RL: 2432, Time: 17.00 3.00 75.00, Align: 1.00, 347, 0.96
[A[2KProcessed: 16010 (0.96), R/S: 63.03, RL: 2433, Time: 17.00 3.00 75.00, Align: 1.00, 347, 0.96
[A[2KProcessed: 16146 (0.96), R/S: 63.06, RL: 2431, Time: 17.00 3.00 75.00, Align: 1.00, 347, 0.96
[A[2KProcessed: 16258 (0.96), R/S: 63.01, RL: 2432, Time: 17.00 3.00 75.00, Align: 1.00, 347, 0.96
[A[2KProcessed: 16367 (0.96), R/S: 62.94, RL: 2435, Time: 17.00 3.00 75.00, Align: 1.00, 347, 0.96
[A[2KProcessed: 16513 (0.96), R/S: 63.02, RL: 2432, Time: 17.00 3.00 75.98, Align: 1.00, 347, 0.96
[A[2KProcessed: 16631 (0.96), R/S: 62.99, RL: 2434, Time: 17.00 3.00 76.00, Align: 1.00, 347, 0.96
[A[2KProcessed: 16742 (0.96), R/S: 62.93, RL: 2436, Time: 17.00 3.00 75.06, Align: 1.00, 347, 0.96
[A[2KProcessed: 16842 (0.96), R/S: 62.84, RL: 2439, Time: 17.00 3.00 75.38, Align: 1.00, 347, 0.96
[A[2KProcessed: 16980 (0.96), R/S: 62.88, RL: 2439, Time: 17.00 3.00 75.00, Align: 1.00, 347, 0.96
[A[2KProcessed: 17092 (0.96), R/S: 62.83, RL: 2440, Time: 17.00 3.00 75.00, Align: 1.00, 347, 0.96
[A[2KProcessed: 17206 (0.96), R/S: 62.79, RL: 2441, Time: 17.00 3.00 75.00, Align: 1.00, 347, 0.96
[A[2KProcessed: 17313 (0.96), R/S: 62.72, RL: 2444, Time: 17.00 3.00 75.00, Align: 1.00, 347, 0.96
[A[2KProcessed: 17455 (0.96), R/S: 62.78, RL: 2443, Time: 17.00 3.00 75.00, Align: 1.00, 347, 0.96
[A[2KProcessed: 17590 (0.96), R/S: 62.82, RL: 2442, Time: 17.00 3.00 75.00, Align: 1.00, 347, 0.96
[A[2KProcessed: 17727 (0.96), R/S: 62.86, RL: 2439, Time: 17.00 3.00 75.00, Align: 1.00, 347, 0.96
[A[2KProcessed: 17877 (0.96), R/S: 62.94, RL: 2437, Time: 17.00 3.00 75.00, Align: 1.00, 347, 0.96
[A[2KProcessed: 17990 (0.96), R/S: 62.90, RL: 2439, Time: 17.00 3.00 75.00, Align: 1.00, 347, 0.96
[A[2KProcessed: 18108 (0.96), R/S: 62.87, RL: 2439, Time: 17.00 3.00 75.00, Align: 1.00, 347, 0.96
[A[2KProcessed: 18251 (0.96), R/S: 62.93, RL: 2438, Time: 17.00 3.00 75.50, Align: 1.00, 347, 0.96
[A[2KProcessed: 18387 (0.96), R/S: 62.96, RL: 2436, Time: 17.00 3.00 75.00, Align: 1.00, 347, 0.96
[A[2KProcessed: 18508 (0.96), R/S: 62.94, RL: 2438, Time: 17.00 3.00 76.00, Align: 1.00, 347, 0.96
[A[2KProcessed: 18640 (0.96), R/S: 62.96, RL: 2439, Time: 17.00 3.00 76.00, Align: 1.00, 347, 0.96
[A[2KProcessed: 18761 (0.96), R/S: 62.95, RL: 2440, Time: 17.00 3.00 76.00, Align: 1.00, 347, 0.96
[A[2KProcessed: 18897 (0.96), R/S: 62.98, RL: 2438, Time: 17.00 3.00 76.00, Align: 1.00, 347, 0.96
[A[2KProcessed: 19059 (0.96), R/S: 63.10, RL: 2434, Time: 17.00 3.00 76.00, Align: 1.00, 347, 0.96
[A[2KProcessed: 19172 (0.96), R/S: 63.06, RL: 2436, Time: 17.00 3.00 76.00, Align: 1.00, 347, 0.96
[A[2KProcessed: 19297 (0.96), R/S: 63.05, RL: 2437, Time: 17.00 3.00 76.00, Align: 1.00, 347, 0.96
[A[2KProcessed: 19432 (0.96), R/S: 63.08, RL: 2436, Time: 17.00 3.00 76.00, Align: 1.00, 347, 0.96
[A[2KProcessed: 19557 (0.96), R/S: 63.08, RL: 2437, Time: 17.00 3.00 76.00, Align: 1.00, 347, 0.96
[A[2KProcessed: 19673 (0.96), R/S: 63.04, RL: 2439, Time: 17.00 3.00 76.00, Align: 1.00, 348, 0.96
[A[2KProcessed: 19820 (0.96), R/S: 63.11, RL: 2438, Time: 17.00 3.00 76.00, Align: 1.00, 348, 0.96
[A[2KProcessed: 19934 (0.96), R/S: 63.07, RL: 2439, Time: 17.00 3.00 76.00, Align: 1.00, 348, 0.96
[A[2KProcessed: 20051 (0.96), R/S: 63.04, RL: 2440, Time: 17.00 3.00 76.00, Align: 1.00, 348, 0.96
[A[2KProcessed: 20195 (0.96), R/S: 63.10, RL: 2438, Time: 17.00 3.00 76.00, Align: 1.00, 348, 0.96
[A[2KProcessed: 20314 (0.96), R/S: 63.07, RL: 2437, Time: 17.00 3.00 76.00, Align: 1.00, 348, 0.96
[A[2KProcessed: 20443 (0.96), R/S: 63.08, RL: 2437, Time: 17.00 3.00 76.00, Align: 1.00, 348, 0.96
[A[2KProcessed: 20578 (0.96), R/S: 63.11, RL: 2437, Time: 17.00 3.00 76.00, Align: 1.00, 348, 0.96
[A[2KProcessed: 20690 (0.96), R/S: 63.07, RL: 2440, Time: 17.00 3.00 76.00, Align: 1.00, 348, 0.96
[A[2KProcessed: 20820 (0.96), R/S: 63.08, RL: 2440, Time: 17.00 3.00 76.00, Align: 1.00, 348, 0.96
[A[2KProcessed: 20932 (0.96), R/S: 63.03, RL: 2441, Time: 17.00 3.00 76.00, Align: 1.00, 348, 0.96
[A[2KProcessed: 21052 (0.96), R/S: 63.01, RL: 2441, Time: 17.00 3.00 76.00, Align: 1.00, 348, 0.96
[A[2KProcessed: 21193 (0.96), R/S: 63.06, RL: 2439, Time: 17.00 3.00 76.00, Align: 1.00, 348, 0.96
[A[2KProcessed: 21307 (0.96), R/S: 63.02, RL: 2438, Time: 17.00 3.00 76.00, Align: 1.00, 348, 0.96
[A[2KProcessed: 21440 (0.96), R/S: 63.04, RL: 2438, Time: 17.00 3.00 76.00, Align: 1.00, 348, 0.96
[A[2KProcessed: 21594 (0.96), R/S: 63.12, RL: 2435, Time: 17.00 3.00 76.00, Align: 1.00, 348, 0.96
[A[2KProcessed: 21738 (0.96), R/S: 63.17, RL: 2434, Time: 17.00 3.00 76.00, Align: 1.00, 348, 0.96
[A[2KProcessed: 21850 (0.96), R/S: 63.13, RL: 2435, Time: 17.00 3.00 75.00, Align: 1.00, 348, 0.96
[A[2KProcessed: 21986 (0.96), R/S: 63.16, RL: 2434, Time: 17.00 3.00 75.00, Align: 1.00, 348, 0.96
[A[2KProcessed: 22120 (0.96), R/S: 63.18, RL: 2434, Time: 17.00 3.00 75.00, Align: 1.00, 347, 0.96
[A[2KProcessed: 22281 (0.96), R/S: 63.28, RL: 2432, Time: 17.00 3.00 76.00, Align: 1.00, 347, 0.96
[A[2KProcessed: 22405 (0.96), R/S: 63.27, RL: 2432, Time: 17.00 3.00 75.00, Align: 1.00, 347, 0.96
[A[2KProcessed: 22531 (0.96), R/S: 63.27, RL: 2433, Time: 17.00 3.00 75.00, Align: 1.00, 347, 0.96
[A[2KProcessed: 22632 (0.96), R/S: 63.20, RL: 2434, Time: 17.00 3.00 75.00, Align: 1.00, 347, 0.96
[A[2KProcessed: 22762 (0.96), R/S: 63.21, RL: 2434, Time: 17.00 3.00 75.00, Align: 1.00, 347, 0.96
[A[2KProcessed: 22896 (0.96), R/S: 63.23, RL: 2433, Time: 17.00 3.00 75.00, Align: 1.00, 347, 0.96
[A[2KProcessed: 23021 (0.96), R/S: 63.23, RL: 2433, Time: 17.00 3.00 75.99, Align: 1.00, 347, 0.96
[A[2KProcessed: 23161 (0.96), R/S: 63.26, RL: 2432, Time: 17.00 3.00 75.01, Align: 1.00, 347, 0.96
[A[2KProcessed: 23275 (0.96), R/S: 63.23, RL: 2432, Time: 17.00 3.00 75.00, Align: 1.00, 347, 0.96
[A[2KProcessed: 23400 (0.96), R/S: 63.23, RL: 2434, Time: 17.00 3.00 75.00, Align: 1.00, 347, 0.96
[A[2KProcessed: 23510 (0.96), R/S: 63.18, RL: 2435, Time: 17.00 3.00 75.00, Align: 1.00, 347, 0.96
[A[2KProcessed: 23643 (0.96), R/S: 63.20, RL: 2435, Time: 17.00 3.00 75.00, Align: 1.00, 347, 0.96
[A[2KProcessed: 23732 (0.96), R/S: 63.10, RL: 2438, Time: 17.00 3.00 75.00, Align: 1.00, 347, 0.96
[A[2KProcessed: 23868 (0.96), R/S: 63.13, RL: 2437, Time: 17.00 3.00 76.00, Align: 1.00, 347, 0.96
[A[2KProcessed: 24008 (0.96), R/S: 63.16, RL: 2437, Time: 17.00 3.00 76.00, Align: 1.00, 347, 0.96
[A[2KProcessed: 24135 (0.96), R/S: 63.16, RL: 2438, Time: 17.00 3.00 76.00, Align: 1.00, 347, 0.96
[A[2KProcessed: 24254 (0.96), R/S: 63.14, RL: 2439, Time: 17.00 3.00 75.75, Align: 1.00, 347, 0.96
[A[2KProcessed: 24351 (0.96), R/S: 63.07, RL: 2439, Time: 17.00 3.00 76.00, Align: 1.00, 347, 0.96
[A[2KProcessed: 24464 (0.96), R/S: 63.04, RL: 2438, Time: 17.00 3.00 76.00, Align: 1.00, 347, 0.96
[A[2KProcessed: 24609 (0.96), R/S: 63.08, RL: 2437, Time: 17.00 3.00 76.00, Align: 1.00, 347, 0.96
[A[2KProcessed: 24758 (0.96), R/S: 63.14, RL: 2436, Time: 17.00 3.00 76.00, Align: 1.00, 347, 0.96
[A[2KProcessed: 24880 (0.96), R/S: 63.13, RL: 2436, Time: 17.00 3.00 76.00, Align: 1.00, 347, 0.96
[A[2KProcessed: 25020 (0.96), R/S: 63.17, RL: 2435, Time: 17.00 3.00 76.00, Align: 1.00, 347, 0.96
[A[2KProcessed: 25160 (0.96), R/S: 63.20, RL: 2435, Time: 17.00 3.00 76.00, Align: 1.00, 347, 0.96
[A[2KProcessed: 25284 (0.96), R/S: 63.19, RL: 2434, Time: 17.00 3.00 76.00, Align: 1.00, 347, 0.96
[A[2KProcessed: 25425 (0.96), R/S: 63.23, RL: 2434, Time: 17.00 3.00 76.00, Align: 1.00, 347, 0.96
[A[2KProcessed: 25561 (0.96), R/S: 63.25, RL: 2434, Time: 17.00 3.00 76.00, Align: 1.00, 347, 0.96
[A[2KProcessed: 25688 (0.96), R/S: 63.25, RL: 2434, Time: 17.00 3.00 76.00, Align: 1.00, 347, 0.96
[A[2KProcessed: 25821 (0.96), R/S: 63.27, RL: 2434, Time: 17.00 3.00 76.00, Align: 1.00, 347, 0.96
[A[2KProcessed: 25951 (0.96), R/S: 63.28, RL: 2435, Time: 17.00 3.00 76.00, Align: 1.00, 347, 0.96
[A[2KProcessed: 26044 (0.96), R/S: 63.20, RL: 2434, Time: 17.00 3.00 76.00, Align: 1.00, 347, 0.96
[A[2KProcessed: 26170 (0.96), R/S: 63.20, RL: 2436, Time: 17.00 3.00 76.00, Align: 1.00, 347, 0.96
[A[2KProcessed: 26306 (0.96), R/S: 63.22, RL: 2434, Time: 17.00 3.00 76.00, Align: 1.00, 347, 0.96
[A[2KProcessed: 26400 (0.96), R/S: 63.14, RL: 2436, Time: 17.00 3.00 76.00, Align: 1.00, 347, 0.96
[A[2KProcessed: 26549 (0.96), R/S: 63.20, RL: 2433, Time: 17.00 3.00 76.00, Align: 1.00, 347, 0.96
[A[2KProcessed: 26661 (0.96), R/S: 63.16, RL: 2434, Time: 17.00 3.00 76.00, Align: 1.00, 347, 0.96
[A[2KProcessed: 26781 (0.96), R/S: 63.15, RL: 2435, Time: 17.00 3.00 76.00, Align: 1.00, 347, 0.96
[A[2KProcessed: 26890 (0.96), R/S: 63.11, RL: 2436, Time: 17.00 3.00 76.00, Align: 1.00, 347, 0.96
[A[2KProcessed: 27017 (0.96), R/S: 63.11, RL: 2435, Time: 17.00 3.00 76.00, Align: 1.00, 347, 0.96
[A[2KProcessed: 27126 (0.96), R/S: 63.07, RL: 2436, Time: 17.00 3.00 76.00, Align: 1.00, 347, 0.96
[A[2KProcessed: 27262 (0.96), R/S: 63.09, RL: 2436, Time: 17.00 3.00 76.00, Align: 1.00, 347, 0.96
[A[2KProcessed: 27385 (0.96), R/S: 63.08, RL: 2436, Time: 17.00 3.00 76.00, Align: 1.00, 347, 0.96
[A[2KProcessed: 27526 (0.96), R/S: 63.12, RL: 2435, Time: 17.00 3.00 76.00, Align: 1.00, 347, 0.96
[A[2KProcessed: 27638 (0.96), R/S: 63.09, RL: 2435, Time: 17.00 3.00 76.00, Align: 1.00, 347, 0.96
[A[2KProcessed: 27764 (0.96), R/S: 63.08, RL: 2436, Time: 17.00 3.00 76.00, Align: 1.00, 347, 0.96
[A[2KProcessed: 27877 (0.96), R/S: 63.06, RL: 2435, Time: 17.00 3.00 76.00, Align: 1.00, 347, 0.96
[A[2KProcessed: 28013 (0.96), R/S: 63.08, RL: 2435, Time: 17.00 3.00 76.00, Align: 1.00, 347, 0.96
[A[2KProcessed: 28147 (0.96), R/S: 63.09, RL: 2434, Time: 17.00 3.00 76.00, Align: 1.00, 347, 0.96
[A[2KProcessed: 28267 (0.96), R/S: 63.08, RL: 2435, Time: 17.00 3.00 76.00, Align: 1.00, 347, 0.96
[A[2KProcessed: 28397 (0.96), R/S: 63.09, RL: 2434, Time: 17.00 3.00 76.00, Align: 1.00, 347, 0.96
[A[2KProcessed: 28527 (0.96), R/S: 63.10, RL: 2434, Time: 17.00 3.00 76.00, Align: 1.00, 347, 0.96
[A[2KProcessed: 28678 (0.96), R/S: 63.15, RL: 2433, Time: 17.00 3.00 76.00, Align: 1.00, 347, 0.96
[A[2KProcessed: 28791 (0.96), R/S: 63.12, RL: 2434, Time: 17.00 3.00 76.00, Align: 1.00, 347, 0.96
[A[2KProcessed: 28920 (0.96), R/S: 63.13, RL: 2434, Time: 17.00 3.00 76.00, Align: 1.00, 347, 0.96
[A[2KProcessed: 29060 (0.96), R/S: 63.16, RL: 2434, Time: 17.00 3.00 76.00, Align: 1.00, 347, 0.96
[A[2KProcessed: 29187 (0.96), R/S: 63.16, RL: 2433, Time: 17.00 3.00 76.00, Align: 1.00, 346, 0.96
[A[2KProcessed: 29291 (0.96), R/S: 63.11, RL: 2435, Time: 17.00 3.00 76.00, Align: 1.00, 346, 0.96
[A[2KProcessed: 29418 (0.96), R/S: 63.11, RL: 2434, Time: 17.00 3.00 76.00, Align: 1.00, 346, 0.96
[A[2KProcessed: 29497 (0.96), R/S: 63.01, RL: 2436, Time: 17.00 3.00 76.00, Align: 1.00, 347, 0.96
[A[2KProcessed: 29589 (0.96), R/S: 62.94, RL: 2435, Time: 17.00 3.00 76.00, Align: 1.00, 346, 0.96
[A[2KProcessed: 29728 (0.96), R/S: 62.97, RL: 2434, Time: 17.00 3.00 76.00, Align: 1.00, 346, 0.96
[A[2KProcessed: 29860 (0.96), R/S: 62.98, RL: 2434, Time: 17.00 3.00 76.00, Align: 1.00, 346, 0.96
[A[2KProcessed: 29961 (0.96), R/S: 62.93, RL: 2436, Time: 17.00 3.00 76.00, Align: 1.00, 347, 0.96
[A[2KProcessed: 30093 (0.96), R/S: 62.94, RL: 2435, Time: 17.00 3.00 76.00, Align: 1.00, 346, 0.96
[A[2KProcessed: 30235 (0.96), R/S: 62.98, RL: 2433, Time: 17.00 3.00 76.00, Align: 1.00, 347, 0.96
[A[2KProcessed: 30324 (0.96), R/S: 62.90, RL: 2435, Time: 17.00 3.00 76.00, Align: 1.00, 347, 0.96
[A[2KProcessed: 30451 (0.96), R/S: 62.90, RL: 2435, Time: 17.00 3.00 76.00, Align: 1.00, 347, 0.96
[A[2KProcessed: 30568 (0.96), R/S: 62.88, RL: 2435, Time: 17.00 3.00 76.00, Align: 1.00, 347, 0.96
[A[2KProcessed: 30696 (0.96), R/S: 62.89, RL: 2436, Time: 17.00 3.00 76.00, Align: 1.00, 347, 0.96
[A[2KProcessed: 30803 (0.96), R/S: 62.85, RL: 2438, Time: 17.00 3.00 76.00, Align: 1.00, 347, 0.96
[A[2KProcessed: 30932 (0.96), R/S: 62.86, RL: 2438, Time: 17.00 3.00 76.00, Align: 1.00, 347, 0.96
[A[2KProcessed: 31060 (0.96), R/S: 62.86, RL: 2439, Time: 17.00 3.00 76.00, Align: 1.00, 347, 0.96
[A[2KProcessed: 31183 (0.96), R/S: 62.85, RL: 2438, Time: 17.00 3.00 76.00, Align: 1.00, 347, 0.96
[A[2KProcessed: 31342 (0.96), R/S: 62.92, RL: 2436, Time: 17.00 3.00 76.00, Align: 1.00, 347, 0.96
[A[2KProcessed: 31490 (0.96), R/S: 62.97, RL: 2435, Time: 17.00 3.00 76.00, Align: 1.00, 347, 0.96
[A[2KProcessed: 31656 (0.96), R/S: 63.05, RL: 2433, Time: 17.00 3.00 76.00, Align: 1.00, 347, 0.96
[A[2KProcessed: 31766 (0.96), R/S: 63.01, RL: 2434, Time: 17.00 3.00 76.00, Align: 1.00, 347, 0.96
[A[2KProcessed: 31890 (0.96), R/S: 63.01, RL: 2434, Time: 17.00 3.00 76.00, Align: 1.00, 347, 0.96
[A[2KProcessed: 32022 (0.96), R/S: 63.02, RL: 2434, Time: 17.00 3.00 76.00, Align: 1.00, 347, 0.96
[A[2KProcessed: 32159 (0.96), R/S: 63.04, RL: 2434, Time: 17.00 3.00 76.00, Align: 1.00, 347, 0.96
[A[2KProcessed: 32266 (0.96), R/S: 63.01, RL: 2435, Time: 17.00 3.00 76.00, Align: 1.00, 347, 0.96
[A[2KProcessed: 32415 (0.96), R/S: 63.05, RL: 2434, Time: 17.00 3.00 76.00, Align: 1.00, 347, 0.96
[A[2KProcessed: 32549 (0.96), R/S: 63.07, RL: 2434, Time: 17.00 3.00 76.00, Align: 1.00, 347, 0.96
[A[2KProcessed: 32681 (0.96), R/S: 63.08, RL: 2434, Time: 17.00 3.00 76.00, Align: 1.00, 347, 0.96
[A[2KProcessed: 32804 (0.96), R/S: 63.07, RL: 2435, Time: 17.00 3.00 76.00, Align: 1.00, 347, 0.96
[A[2KProcessed: 32928 (0.96), R/S: 63.07, RL: 2434, Time: 17.00 3.00 76.00, Align: 1.00, 347, 0.96
[A[2KProcessed: 33045 (0.96), R/S: 63.05, RL: 2435, Time: 17.00 3.00 76.00, Align: 1.00, 347, 0.96
[A[2KProcessed: 33205 (0.96), R/S: 63.11, RL: 2433, Time: 17.00 3.00 76.00, Align: 1.00, 347, 0.96
[A[2KProcessed: 33328 (0.96), R/S: 63.11, RL: 2433, Time: 17.00 3.00 76.00, Align: 1.00, 347, 0.96
[A[2KProcessed: 33434 (0.96), R/S: 63.07, RL: 2434, Time: 17.00 3.00 76.00, Align: 1.00, 347, 0.96
[A[2KProcessed: 33543 (0.96), R/S: 63.04, RL: 2436, Time: 17.00 3.00 76.00, Align: 1.00, 347, 0.96
[A[2KProcessed: 33655 (0.96), R/S: 63.01, RL: 2436, Time: 17.00 3.00 76.00, Align: 1.00, 347, 0.96
[A[2KProcessed: 33786 (0.96), R/S: 63.02, RL: 2436, Time: 17.00 3.00 76.00, Align: 1.00, 347, 0.96
[A[2KProcessed: 33918 (0.96), R/S: 63.03, RL: 2435, Time: 17.00 3.00 76.00, Align: 1.00, 347, 0.96
[A[2KProcessed: 34040 (0.96), R/S: 63.02, RL: 2437, Time: 17.00 3.00 76.00, Align: 1.00, 347, 0.96
[A[2KProcessed: 34174 (0.96), R/S: 63.04, RL: 2436, Time: 17.00 3.00 76.00, Align: 1.00, 347, 0.96
[A[2KProcessed: 34316 (0.96), R/S: 63.07, RL: 2435, Time: 17.00 3.00 76.00, Align: 1.00, 347, 0.96
[A[2KProcessed: 34430 (0.96), R/S: 63.05, RL: 2437, Time: 17.00 3.00 76.00, Align: 1.00, 346, 0.96
[A[2KProcessed: 34560 (0.96), R/S: 63.05, RL: 2437, Time: 17.00 3.00 76.00, Align: 1.00, 346, 0.96
[A[2KProcessed: 34657 (0.96), R/S: 63.00, RL: 2437, Time: 17.00 3.00 76.00, Align: 1.00, 346, 0.96
[A[2KProcessed: 34792 (0.96), R/S: 63.02, RL: 2438, Time: 17.00 3.00 76.00, Align: 1.00, 346, 0.96
[A[2KProcessed: 34918 (0.96), R/S: 63.02, RL: 2437, Time: 17.00 3.00 76.00, Align: 1.00, 346, 0.96
[A[2KProcessed: 35042 (0.96), R/S: 63.01, RL: 2437, Time: 17.00 3.00 76.00, Align: 1.00, 346, 0.96
[A[2KProcessed: 35157 (0.96), R/S: 62.99, RL: 2437, Time: 17.00 3.00 76.00, Align: 1.00, 346, 0.96
[A[2KProcessed: 35265 (0.96), R/S: 62.96, RL: 2437, Time: 17.00 3.00 76.00, Align: 1.00, 346, 0.96
[A[2KProcessed: 35399 (0.96), R/S: 62.97, RL: 2437, Time: 17.00 3.00 76.00, Align: 1.00, 346, 0.96
[A[2KProcessed: 35513 (0.96), R/S: 62.95, RL: 2438, Time: 17.00 3.00 76.00, Align: 1.00, 346, 0.96
[A[2KProcessed: 35629 (0.96), R/S: 62.94, RL: 2438, Time: 17.00 3.00 76.00, Align: 1.00, 346, 0.96
[A[2KProcessed: 35762 (0.96), R/S: 62.95, RL: 2439, Time: 17.00 3.00 76.00, Align: 1.00, 346, 0.96
[A[2KProcessed: 35889 (0.96), R/S: 62.95, RL: 2438, Time: 17.00 3.00 76.00, Align: 1.00, 346, 0.96
[A[2KProcessed: 35984 (0.96), R/S: 62.90, RL: 2439, Time: 17.00 3.00 76.00, Align: 1.00, 346, 0.96
[A[2KProcessed: 36067 (0.96), R/S: 62.82, RL: 2439, Time: 17.00 3.00 76.00, Align: 1.00, 346, 0.96
[A[2KProcessed: 36200 (0.96), R/S: 62.83, RL: 2439, Time: 17.00 3.00 76.00, Align: 1.00, 347, 0.96
[A[2KProcessed: 36333 (0.96), R/S: 62.85, RL: 2439, Time: 17.00 3.00 76.00, Align: 1.00, 347, 0.96
[A[2KProcessed: 36456 (0.96), R/S: 62.84, RL: 2439, Time: 17.00 3.00 76.00, Align: 1.00, 347, 0.96
[A[2KProcessed: 36563 (0.96), R/S: 62.81, RL: 2439, Time: 17.00 3.00 75.50, Align: 1.00, 347, 0.96
[A[2KProcessed: 36672 (0.96), R/S: 62.78, RL: 2440, Time: 17.00 3.00 75.00, Align: 1.00, 347, 0.96
[A[2KProcessed: 36800 (0.96), R/S: 62.79, RL: 2440, Time: 17.00 3.00 75.00, Align: 1.00, 347, 0.96
[A[2KProcessed: 36942 (0.96), R/S: 62.81, RL: 2439, Time: 17.00 3.00 75.00, Align: 1.00, 347, 0.96
[A[2KProcessed: 37087 (0.96), R/S: 62.85, RL: 2438, Time: 17.00 3.00 75.00, Align: 1.00, 347, 0.96
[A[2KProcessed: 37185 (0.96), R/S: 62.80, RL: 2439, Time: 17.00 3.00 75.00, Align: 1.00, 347, 0.96
[A[2KProcessed: 37264 (0.96), R/S: 62.72, RL: 2441, Time: 17.00 3.00 75.80, Align: 1.00, 347, 0.96
[A[2KProcessed: 37418 (0.96), R/S: 62.77, RL: 2439, Time: 17.00 3.00 75.00, Align: 1.00, 347, 0.96
[A[2KProcessed: 37535 (0.96), R/S: 62.76, RL: 2440, Time: 17.00 3.00 75.00, Align: 1.00, 347, 0.96
[A[2KProcessed: 37651 (0.96), R/S: 62.74, RL: 2441, Time: 17.00 3.00 75.00, Align: 1.00, 347, 0.96
[A[2KProcessed: 37760 (0.96), R/S: 62.71, RL: 2442, Time: 17.00 3.00 75.00, Align: 1.00, 347, 0.96
[A[2KProcessed: 37870 (0.96), R/S: 62.69, RL: 2443, Time: 17.00 3.00 75.50, Align: 1.00, 347, 0.96
[A[2KProcessed: 37985 (0.96), R/S: 62.67, RL: 2443, Time: 17.00 3.00 75.00, Align: 1.00, 347, 0.96
[A[2KProcessed: 38142 (0.96), R/S: 62.72, RL: 2441, Time: 17.00 3.00 75.00, Align: 1.00, 347, 0.96
[A[2KProcessed: 38244 (0.96), R/S: 62.68, RL: 2443, Time: 17.00 3.00 75.00, Align: 1.00, 347, 0.96
[A[2KProcessed: 38381 (0.96), R/S: 62.70, RL: 2443, Time: 17.00 3.00 75.00, Align: 1.00, 347, 0.96
[A[2KProcessed: 38505 (0.96), R/S: 62.70, RL: 2443, Time: 17.00 3.00 75.00, Align: 1.00, 347, 0.96
[A[2KProcessed: 38658 (0.96), R/S: 62.74, RL: 2442, Time: 17.00 3.00 75.00, Align: 1.00, 347, 0.96
[A[2KProcessed: 38761 (0.96), R/S: 62.71, RL: 2443, Time: 17.00 3.00 75.00, Align: 1.00, 347, 0.96
[A[2KProcessed: 38875 (0.96), R/S: 62.69, RL: 2444, Time: 17.00 3.00 75.00, Align: 1.00, 347, 0.96
[A[2KProcessed: 39017 (0.96), R/S: 62.72, RL: 2443, Time: 17.00 3.00 75.00, Align: 1.00, 347, 0.96
[A[2KProcessed: 39167 (0.96), R/S: 62.76, RL: 2442, Time: 17.00 3.00 75.00, Align: 1.00, 347, 0.96
[A[2KProcessed: 39289 (0.96), R/S: 62.75, RL: 2443, Time: 17.00 3.00 75.00, Align: 1.00, 347, 0.96
[A[2KProcessed: 39423 (0.96), R/S: 62.76, RL: 2443, Time: 17.00 3.00 75.00, Align: 1.00, 347, 0.96
[A[2KProcessed: 39542 (0.96), R/S: 62.75, RL: 2443, Time: 17.00 3.00 75.00, Align: 1.00, 347, 0.96
[A[2KProcessed: 39677 (0.96), R/S: 62.77, RL: 2443, Time: 17.00 3.00 75.00, Align: 1.00, 347, 0.96
[A[2KProcessed: 39809 (0.96), R/S: 62.78, RL: 2443, Time: 17.00 3.00 75.00, Align: 1.00, 347, 0.96
[A[2KProcessed: 39935 (0.96), R/S: 62.78, RL: 2443, Time: 17.00 3.00 75.00, Align: 1.00, 347, 0.96
[A[2KProcessed: 40081 (0.96), R/S: 62.81, RL: 2442, Time: 17.00 3.00 75.00, Align: 1.00, 347, 0.96
[A[2KProcessed: 40215 (0.96), R/S: 62.82, RL: 2442, Time: 17.00 3.00 75.00, Align: 1.00, 347, 0.96
[A[2KProcessed: 40343 (0.96), R/S: 62.83, RL: 2442, Time: 17.00 3.00 75.00, Align: 1.00, 347, 0.96
[A[2KProcessed: 40477 (0.96), R/S: 62.84, RL: 2442, Time: 17.00 3.00 75.00, Align: 1.00, 347, 0.96
[A[2KProcessed: 40620 (0.96), R/S: 62.87, RL: 2442, Time: 17.00 3.00 75.88, Align: 1.00, 347, 0.96
[A[2KProcessed: 40760 (0.96), R/S: 62.89, RL: 2441, Time: 17.00 3.00 76.00, Align: 1.00, 347, 0.96
[A[2KProcessed: 40870 (0.96), R/S: 62.87, RL: 2442, Time: 17.00 3.00 76.00, Align: 1.00, 346, 0.96
[A[2KProcessed: 41000 (0.96), R/S: 62.87, RL: 2442, Time: 17.00 3.00 76.00, Align: 1.00, 346, 0.96
[A[2KProcessed: 41151 (0.96), R/S: 62.91, RL: 2440, Time: 17.00 3.00 76.00, Align: 1.00, 347, 0.96
[A[2KProcessed: 41262 (0.96), R/S: 62.89, RL: 2442, Time: 17.00 3.00 76.00, Align: 1.00, 347, 0.96
[A[2KProcessed: 41400 (0.96), R/S: 62.91, RL: 2441, Time: 17.00 3.00 76.00, Align: 1.00, 347, 0.96
[A[2KProcessed: 41520 (0.96), R/S: 62.90, RL: 2441, Time: 17.00 3.00 76.00, Align: 1.00, 347, 0.96
[A[2KProcessed: 41655 (0.96), R/S: 62.91, RL: 2440, Time: 17.00 3.00 76.00, Align: 1.00, 347, 0.96
[A[2KProcessed: 41772 (0.96), R/S: 62.90, RL: 2440, Time: 17.00 3.00 76.00, Align: 1.00, 347, 0.96
[A[2KProcessed: 41886 (0.96), R/S: 62.88, RL: 2440, Time: 17.00 3.00 75.00, Align: 1.00, 347, 0.96
[A[2KProcessed: 42001 (0.96), R/S: 62.86, RL: 2440, Time: 17.00 3.00 75.00, Align: 1.00, 347, 0.96
[A[2KProcessed: 42116 (0.96), R/S: 62.85, RL: 2441, Time: 17.00 3.00 75.00, Align: 1.00, 347, 0.96
[A[2KProcessed: 42230 (0.96), R/S: 62.83, RL: 2442, Time: 17.00 3.00 75.00, Align: 1.00, 347, 0.96
[A[2KProcessed: 42330 (0.96), R/S: 62.79, RL: 2443, Time: 17.00 3.00 75.00, Align: 1.00, 347, 0.96
[A[2KProcessed: 42461 (0.96), R/S: 62.80, RL: 2443, Time: 17.00 3.00 75.16, Align: 1.00, 347, 0.96
[A[2KProcessed: 42595 (0.96), R/S: 62.81, RL: 2442, Time: 17.00 3.00 75.00, Align: 1.00, 347, 0.96
[A[2KProcessed: 42738 (0.96), R/S: 62.84, RL: 2441, Time: 17.00 3.00 75.99, Align: 1.00, 347, 0.96
[A[2KProcessed: 42850 (0.96), R/S: 62.82, RL: 2443, Time: 17.00 3.00 76.00, Align: 1.00, 347, 0.96
[A[2KProcessed: 43000 (0.96), R/S: 62.85, RL: 2442, Time: 17.00 3.00 76.00, Align: 1.00, 347, 0.96
[A[2KProcessed: 43158 (0.96), R/S: 62.90, RL: 2440, Time: 17.00 3.00 76.00, Align: 1.00, 347, 0.96
[A[2KProcessed: 43264 (0.96), R/S: 62.87, RL: 2441, Time: 17.00 3.00 76.00, Align: 1.00, 347, 0.96
[A[2KProcessed: 43397 (0.96), R/S: 62.88, RL: 2441, Time: 17.00 3.00 76.00, Align: 1.00, 347, 0.96
[A[2KProcessed: 43538 (0.96), R/S: 62.90, RL: 2440, Time: 17.00 3.00 76.00, Align: 1.00, 347, 0.96
[A[2KProcessed: 43671 (0.96), R/S: 62.92, RL: 2440, Time: 17.00 3.00 76.00, Align: 1.00, 347, 0.96
[A[2KProcessed: 43810 (0.96), R/S: 62.93, RL: 2439, Time: 17.00 3.00 76.00, Align: 1.00, 347, 0.96
[A[2KProcessed: 43940 (0.96), R/S: 62.94, RL: 2439, Time: 17.00 3.00 76.00, Align: 1.00, 347, 0.96
[A[2KProcessed: 44070 (0.96), R/S: 62.95, RL: 2440, Time: 17.00 3.00 76.00, Align: 1.00, 347, 0.96
[A[2KProcessed: 44176 (0.96), R/S: 62.92, RL: 2440, Time: 17.00 3.00 76.00, Align: 1.00, 347, 0.96
[A[2KProcessed: 44288 (0.96), R/S: 62.90, RL: 2441, Time: 17.00 3.00 76.00, Align: 1.00, 347, 0.96
[A[2KProcessed: 44408 (0.96), R/S: 62.89, RL: 2441, Time: 17.00 3.00 76.00, Align: 1.00, 347, 0.96
[A[2KProcessed: 44531 (0.96), R/S: 62.89, RL: 2441, Time: 17.00 3.00 76.00, Align: 1.00, 347, 0.96
[A[2KProcessed: 44660 (0.96), R/S: 62.89, RL: 2441, Time: 17.00 3.00 76.00, Align: 1.00, 347, 0.96
[A[2KProcessed: 44797 (0.96), R/S: 62.91, RL: 2441, Time: 17.00 3.00 76.00, Align: 1.00, 347, 0.96
[A[2KProcessed: 44933 (0.96), R/S: 62.92, RL: 2440, Time: 17.00 3.00 76.00, Align: 1.00, 347, 0.96
[A[2KProcessed: 45067 (0.96), R/S: 62.93, RL: 2440, Time: 17.00 3.00 76.00, Align: 1.00, 347, 0.96
[A[2KProcessed: 45218 (0.96), R/S: 62.97, RL: 2439, Time: 17.00 3.00 76.00, Align: 1.00, 347, 0.96
[A[2KProcessed: 45348 (0.96), R/S: 62.97, RL: 2439, Time: 17.00 3.00 76.00, Align: 1.00, 347, 0.96
[A[2KProcessed: 45480 (0.96), R/S: 62.98, RL: 2439, Time: 17.00 3.00 76.00, Align: 1.00, 347, 0.96
[A[2KProcessed: 45598 (0.96), R/S: 62.97, RL: 2439, Time: 17.00 3.00 76.00, Align: 1.00, 347, 0.96
[A[2KProcessed: 45728 (0.96), R/S: 62.98, RL: 2439, Time: 17.00 3.00 76.00, Align: 1.00, 346, 0.96
[A[2KProcessed: 45850 (0.96), R/S: 62.97, RL: 2440, Time: 17.00 3.00 76.00, Align: 1.00, 346, 0.96
[A[2KProcessed: 45974 (0.96), R/S: 62.97, RL: 2441, Time: 17.00 3.00 76.00, Align: 1.00, 346, 0.96
[A[2KProcessed: 46102 (0.96), R/S: 62.97, RL: 2440, Time: 17.00 3.00 76.00, Align: 1.00, 346, 0.96
[A[2KProcessed: 46208 (0.96), R/S: 62.94, RL: 2440, Time: 17.00 3.00 76.00, Align: 1.00, 346, 0.96
[A[2KProcessed: 46327 (0.96), R/S: 62.93, RL: 2441, Time: 17.00 3.00 76.00, Align: 1.00, 346, 0.96
[A[2KProcessed: 46462 (0.96), R/S: 62.95, RL: 2440, Time: 17.00 3.00 76.00, Align: 1.00, 346, 0.96
[A[2KProcessed: 46593 (0.96), R/S: 62.95, RL: 2440, Time: 17.00 3.00 76.00, Align: 1.00, 346, 0.96
[A[2KProcessed: 46716 (0.96), R/S: 62.95, RL: 2439, Time: 17.00 3.00 76.00, Align: 1.00, 346, 0.96
[A[2KProcessed: 46831 (0.96), R/S: 62.93, RL: 2440, Time: 17.00 3.00 76.00, Align: 1.00, 346, 0.96
[A[2KProcessed: 46965 (0.96), R/S: 62.94, RL: 2439, Time: 17.00 3.00 76.00, Align: 1.00, 346, 0.96
[A[2KProcessed: 47090 (0.96), R/S: 62.94, RL: 2440, Time: 17.00 3.00 76.00, Align: 1.00, 346, 0.96
[A[2KProcessed: 47235 (0.96), R/S: 62.97, RL: 2440, Time: 17.00 3.00 76.00, Align: 1.00, 346, 0.96
[A[2KProcessed: 47370 (0.96), R/S: 62.98, RL: 2440, Time: 17.00 3.00 76.00, Align: 1.00, 346, 0.96
[A[2KProcessed: 47488 (0.96), R/S: 62.97, RL: 2439, Time: 17.00 3.00 76.00, Align: 1.00, 346, 0.96
[A[2KProcessed: 47614 (0.96), R/S: 62.97, RL: 2440, Time: 17.00 3.00 76.00, Align: 1.00, 346, 0.96
[A[2KProcessed: 47730 (0.96), R/S: 62.96, RL: 2441, Time: 17.00 3.00 76.00, Align: 1.00, 346, 0.96
[A[2KProcessed: 47864 (0.96), R/S: 62.97, RL: 2441, Time: 17.00 3.00 76.00, Align: 1.00, 346, 0.96
[A[2KProcessed: 48000 (0.96), R/S: 62.98, RL: 2440, Time: 17.00 3.00 76.00, Align: 1.00, 346, 0.96
[A[2KProcessed: 48104 (0.96), R/S: 62.95, RL: 2440, Time: 17.00 3.00 76.00, Align: 1.00, 346, 0.96
[A[2KProcessed: 48217 (0.96), R/S: 62.94, RL: 2440, Time: 17.00 3.00 76.00, Align: 1.00, 346, 0.96
[A[2KProcessed: 48350 (0.96), R/S: 62.94, RL: 2441, Time: 17.00 3.00 76.00, Align: 1.00, 346, 0.96
[A[2KProcessed: 48480 (0.96), R/S: 62.95, RL: 2440, Time: 17.00 3.00 76.00, Align: 1.00, 346, 0.96
[A[2KProcessed: 48611 (0.96), R/S: 62.96, RL: 2440, Time: 17.00 3.00 76.00, Align: 1.00, 346, 0.96
[A[2KProcessed: 48728 (0.96), R/S: 62.95, RL: 2440, Time: 17.00 3.00 76.00, Align: 1.00, 346, 0.96
[A[2KProcessed: 48856 (0.96), R/S: 62.95, RL: 2440, Time: 17.00 3.00 76.00, Align: 1.00, 346, 0.96
[A[2KProcessed: 49003 (0.96), R/S: 62.98, RL: 2439, Time: 17.00 3.00 76.00, Align: 1.00, 346, 0.96
[A[2KProcessed: 49145 (0.96), R/S: 63.00, RL: 2439, Time: 17.00 3.00 76.00, Align: 1.00, 346, 0.96
[A[2KProcessed: 49267 (0.96), R/S: 62.99, RL: 2439, Time: 17.00 3.00 76.00, Align: 1.00, 346, 0.96
[A[2KProcessed: 49392 (0.96), R/S: 62.99, RL: 2439, Time: 17.00 3.00 76.00, Align: 1.00, 346, 0.96
[A[2KProcessed: 49526 (0.96), R/S: 63.00, RL: 2438, Time: 17.00 3.00 76.00, Align: 1.00, 346, 0.96
[A[2KProcessed: 49650 (0.96), R/S: 63.00, RL: 2438, Time: 17.00 3.00 76.00, Align: 1.00, 346, 0.96
[A[2KProcessed: 49773 (0.96), R/S: 62.99, RL: 2439, Time: 17.00 3.00 76.00, Align: 1.00, 346, 0.96
[A[2KProcessed: 49890 (0.96), R/S: 62.98, RL: 2439, Time: 17.00 3.00 76.00, Align: 1.00, 346, 0.96
[A[2KProcessed: 50032 (0.96), R/S: 63.00, RL: 2439, Time: 17.00 3.00 76.00, Align: 1.00, 346, 0.96
[A[2KProcessed: 50158 (0.96), R/S: 63.00, RL: 2439, Time: 17.00 3.00 76.00, Align: 1.00, 346, 0.96
[A[2KProcessed: 50297 (0.96), R/S: 63.02, RL: 2438, Time: 17.00 3.00 76.00, Align: 1.00, 346, 0.96
[A[2KProcessed: 50427 (0.96), R/S: 63.02, RL: 2439, Time: 17.00 3.00 76.00, Align: 1.00, 346, 0.96
[A[2KProcessed: 50559 (0.96), R/S: 63.03, RL: 2439, Time: 17.00 3.00 76.00, Align: 1.00, 346, 0.96
[A[2KProcessed: 50681 (0.96), R/S: 63.03, RL: 2440, Time: 17.00 3.00 76.00, Align: 1.00, 346, 0.96
[A[2KProcessed: 50811 (0.96), R/S: 63.03, RL: 2440, Time: 17.00 3.00 76.00, Align: 1.00, 346, 0.96
[A[2KProcessed: 50891 (0.96), R/S: 62.97, RL: 2440, Time: 17.00 3.00 76.00, Align: 1.00, 346, 0.96
[A[2KProcessed: 51018 (0.96), R/S: 62.97, RL: 2440, Time: 17.00 3.00 76.00, Align: 1.00, 346, 0.96
[A[2KProcessed: 51109 (0.96), R/S: 62.93, RL: 2440, Time: 17.00 3.00 76.00, Align: 1.00, 346, 0.96
[A[2KProcessed: 51210 (0.96), R/S: 62.90, RL: 2442, Time: 17.00 3.00 76.00, Align: 1.00, 346, 0.96
[A[2KProcessed: 51304 (0.96), R/S: 62.86, RL: 2443, Time: 17.00 3.00 76.00, Align: 1.00, 346, 0.96
[A[2KProcessed: 51421 (0.96), R/S: 62.85, RL: 2444, Time: 17.00 3.00 76.00, Align: 1.00, 346, 0.96
[A[2KProcessed: 51539 (0.96), R/S: 62.84, RL: 2444, Time: 17.00 3.00 76.00, Align: 1.00, 346, 0.96
[A[2KProcessed: 51704 (0.96), R/S: 62.89, RL: 2442, Time: 17.00 3.00 76.00, Align: 1.00, 346, 0.96
[A[2KProcessed: 51820 (0.96), R/S: 62.88, RL: 2443, Time: 17.00 3.00 76.00, Align: 1.00, 346, 0.96
[A[2KProcessed: 51948 (0.96), R/S: 62.88, RL: 2442, Time: 17.00 3.00 76.00, Align: 1.00, 347, 0.96
[A[2KProcessed: 52092 (0.96), R/S: 62.90, RL: 2442, Time: 17.00 3.00 76.00, Align: 1.00, 346, 0.96
[A[2KProcessed: 52220 (0.96), R/S: 62.91, RL: 2442, Time: 17.00 3.00 76.00, Align: 1.00, 346, 0.96
[A[2KProcessed: 52340 (0.96), R/S: 62.90, RL: 2442, Time: 17.00 3.00 76.00, Align: 1.00, 346, 0.96
[A[2KProcessed: 52494 (0.96), R/S: 62.93, RL: 2441, Time: 17.00 3.00 76.00, Align: 1.00, 346, 0.96
[A[2KProcessed: 52620 (0.96), R/S: 62.93, RL: 2441, Time: 17.00 3.00 76.00, Align: 1.00, 346, 0.96
[A[2KProcessed: 52767 (0.96), R/S: 62.96, RL: 2440, Time: 17.00 3.00 76.00, Align: 1.00, 346, 0.96
[A[2KProcessed: 52901 (0.96), R/S: 62.97, RL: 2440, Time: 17.00 3.00 76.00, Align: 1.00, 346, 0.96
[A[2KProcessed: 53019 (0.96), R/S: 62.96, RL: 2441, Time: 17.00 3.00 76.00, Align: 1.00, 346, 0.96
[A[2KProcessed: 53158 (0.96), R/S: 62.97, RL: 2440, Time: 17.00 3.00 76.00, Align: 1.00, 346, 0.96
[A[2KProcessed: 53287 (0.96), R/S: 62.98, RL: 2440, Time: 17.00 3.00 76.00, Align: 1.00, 346, 0.96
[A[2KProcessed: 53420 (0.96), R/S: 62.99, RL: 2440, Time: 17.00 3.00 76.00, Align: 1.00, 346, 0.96
[A[2KProcessed: 53560 (0.96), R/S: 63.00, RL: 2440, Time: 17.00 3.00 76.00, Align: 1.00, 346, 0.96
[A[2KProcessed: 53699 (0.96), R/S: 63.02, RL: 2440, Time: 17.00 3.00 76.00, Align: 1.00, 346, 0.96
[A[2KProcessed: 53820 (0.96), R/S: 63.01, RL: 2440, Time: 17.00 3.00 76.00, Align: 1.00, 346, 0.96
[A[2KProcessed: 53970 (0.96), R/S: 63.04, RL: 2440, Time: 17.00 3.00 76.00, Align: 1.00, 346, 0.96
[A[2KProcessed: 54110 (0.96), R/S: 63.06, RL: 2439, Time: 17.00 3.00 76.00, Align: 1.00, 346, 0.96
[A[2KProcessed: 54246 (0.96), R/S: 63.07, RL: 2439, Time: 17.00 3.00 76.00, Align: 1.00, 346, 0.96
[A[2KProcessed: 54385 (0.96), R/S: 63.08, RL: 2439, Time: 17.00 3.00 76.00, Align: 1.00, 346, 0.96
[A[2KProcessed: 54500 (0.96), R/S: 63.07, RL: 2440, Time: 17.00 3.00 76.00, Align: 1.00, 346, 0.96
[A[2KProcessed: 54630 (0.96), R/S: 63.07, RL: 2440, Time: 17.00 3.00 76.00, Align: 1.00, 346, 0.96
[A[2KProcessed: 54768 (0.96), R/S: 63.09, RL: 2439, Time: 17.00 3.00 76.00, Align: 1.00, 346, 0.96
[A[2KProcessed: 54880 (0.96), R/S: 63.07, RL: 2440, Time: 17.00 3.00 76.00, Align: 1.00, 346, 0.96
[A[2KProcessed: 55050 (0.96), R/S: 63.12, RL: 2438, Time: 17.00 3.00 76.00, Align: 1.00, 346, 0.96
[A[2KProcessed: 55184 (0.96), R/S: 63.13, RL: 2438, Time: 17.00 3.00 76.00, Align: 1.00, 346, 0.96
[A[2KProcessed: 55329 (0.96), R/S: 63.15, RL: 2437, Time: 17.00 3.00 76.00, Align: 1.00, 346, 0.96
[A[2KProcessed: 55447 (0.96), R/S: 63.14, RL: 2438, Time: 17.00 3.00 76.00, Align: 1.00, 346, 0.96
[A[2KProcessed: 55589 (0.96), R/S: 63.16, RL: 2437, Time: 17.00 3.00 76.00, Align: 1.00, 346, 0.96
[A[2KProcessed: 55728 (0.96), R/S: 63.17, RL: 2437, Time: 17.00 3.00 76.00, Align: 1.00, 346, 0.96
[A[2KProcessed: 55857 (0.96), R/S: 63.18, RL: 2437, Time: 17.00 3.00 76.00, Align: 1.00, 346, 0.96
[A[2KProcessed: 55956 (0.96), R/S: 63.15, RL: 2438, Time: 17.00 3.00 76.00, Align: 1.00, 346, 0.96
[A[2KProcessed: 56100 (0.96), R/S: 63.17, RL: 2437, Time: 17.00 3.00 76.00, Align: 1.00, 346, 0.96
[A[2KProcessed: 56260 (0.96), R/S: 63.20, RL: 2436, Time: 17.00 3.00 76.00, Align: 1.00, 346, 0.96
[A[2KProcessed: 56404 (0.96), R/S: 63.22, RL: 2435, Time: 17.00 3.00 76.00, Align: 1.00, 346, 0.96
[A[2KProcessed: 56545 (0.96), R/S: 63.24, RL: 2435, Time: 17.00 3.00 76.00, Align: 1.00, 346, 0.96
[A[2KProcessed: 56681 (0.96), R/S: 63.25, RL: 2434, Time: 17.00 3.00 76.00, Align: 1.00, 346, 0.96
[A[2KProcessed: 56797 (0.96), R/S: 63.24, RL: 2435, Time: 17.00 3.00 76.00, Align: 1.00, 346, 0.96
[A[2KProcessed: 56913 (0.96), R/S: 63.23, RL: 2435, Time: 17.00 3.00 76.00, Align: 1.00, 346, 0.96
[A[2KProcessed: 57006 (0.96), R/S: 63.19, RL: 2436, Time: 17.00 3.00 76.00, Align: 1.00, 346, 0.96
[A[2KProcessed: 57120 (0.96), R/S: 63.18, RL: 2436, Time: 17.00 3.00 76.00, Align: 1.00, 346, 0.96
[A[2KProcessed: 57220 (0.96), R/S: 63.15, RL: 2436, Time: 17.00 3.00 76.00, Align: 1.00, 346, 0.96
[A[2KProcessed: 57326 (0.96), R/S: 63.12, RL: 2436, Time: 17.00 3.00 76.00, Align: 1.00, 346, 0.96
[A[2KProcessed: 57450 (0.96), R/S: 63.12, RL: 2436, Time: 17.00 3.00 76.00, Align: 1.00, 346, 0.96
[A[2KProcessed: 57572 (0.96), R/S: 63.12, RL: 2435, Time: 17.00 3.00 76.00, Align: 1.00, 346, 0.96
[A[2KProcessed: 57679 (0.96), R/S: 63.10, RL: 2435, Time: 17.00 3.00 76.00, Align: 1.00, 346, 0.96
[A[2KProcessed: 57801 (0.96), R/S: 63.09, RL: 2436, Time: 17.00 3.00 76.00, Align: 1.00, 346, 0.96
[A[2KProcessed: 57912 (0.96), R/S: 63.08, RL: 2436, Time: 17.00 3.00 76.00, Align: 1.00, 347, 0.96
[A[2KProcessed: 58030 (0.96), R/S: 63.07, RL: 2437, Time: 17.00 3.00 76.00, Align: 1.00, 347, 0.96
[A[2KProcessed: 58160 (0.96), R/S: 63.07, RL: 2437, Time: 17.00 3.00 76.00, Align: 1.00, 347, 0.96
[A[2KProcessed: 58261 (0.96), R/S: 63.04, RL: 2438, Time: 17.00 3.00 76.00, Align: 1.00, 347, 0.96
[A[2KProcessed: 58378 (0.96), R/S: 63.03, RL: 2438, Time: 17.00 3.00 76.00, Align: 1.00, 347, 0.96
[A[2KProcessed: 58521 (0.96), R/S: 63.05, RL: 2437, Time: 17.00 3.00 76.00, Align: 1.00, 347, 0.96
[A[2KProcessed: 58649 (0.96), R/S: 63.05, RL: 2437, Time: 17.00 3.00 76.00, Align: 1.00, 347, 0.96
[A[2KProcessed: 58769 (0.96), R/S: 63.05, RL: 2437, Time: 17.00 3.00 76.00, Align: 1.00, 347, 0.96
[A[2KProcessed: 58907 (0.96), R/S: 63.06, RL: 2437, Time: 17.00 3.00 76.00, Align: 1.00, 346, 0.96
[A[2KProcessed: 59073 (0.96), R/S: 63.10, RL: 2436, Time: 17.00 3.00 76.00, Align: 1.00, 346, 0.96
[A[2KProcessed: 59180 (0.96), R/S: 63.08, RL: 2437, Time: 17.00 3.00 76.00, Align: 1.00, 346, 0.96
[A[2KProcessed: 59323 (0.96), R/S: 63.10, RL: 2436, Time: 17.00 3.00 76.00, Align: 1.00, 346, 0.96
[A[2KProcessed: 59441 (0.96), R/S: 63.09, RL: 2436, Time: 17.00 3.00 76.00, Align: 1.00, 346, 0.96
[A[2KProcessed: 59567 (0.96), R/S: 63.09, RL: 2436, Time: 17.00 3.00 76.00, Align: 1.00, 346, 0.96
[A[2KProcessed: 59717 (0.96), R/S: 63.12, RL: 2436, Time: 17.00 3.00 76.00, Align: 1.00, 346, 0.96
[A[2KProcessed: 59835 (0.96), R/S: 63.11, RL: 2437, Time: 17.00 3.00 76.00, Align: 1.00, 346, 0.96
[A[2KProcessed: 59947 (0.96), R/S: 63.09, RL: 2437, Time: 17.00 3.00 76.00, Align: 1.00, 346, 0.96
[A[2KProcessed: 60093 (0.96), R/S: 63.11, RL: 2436, Time: 17.00 3.00 76.00, Align: 1.00, 346, 0.96
[A[2KProcessed: 60240 (0.96), R/S: 63.14, RL: 2435, Time: 17.00 3.00 76.00, Align: 1.00, 346, 0.96
[A[2KProcessed: 60380 (0.96), R/S: 63.15, RL: 2435, Time: 17.00 3.00 76.00, Align: 1.00, 346, 0.96
[A[2KProcessed: 60495 (0.96), R/S: 63.14, RL: 2435, Time: 17.00 3.00 76.00, Align: 1.00, 346, 0.96
[A[2KProcessed: 60628 (0.96), R/S: 63.14, RL: 2434, Time: 17.00 3.00 76.00, Align: 1.00, 346, 0.96
[A[2KProcessed: 60772 (0.96), R/S: 63.16, RL: 2434, Time: 17.00 3.00 76.00, Align: 1.00, 346, 0.96
[A[2KProcessed: 60909 (0.96), R/S: 63.17, RL: 2433, Time: 17.00 3.00 76.00, Align: 1.00, 346, 0.96
[A[2KProcessed: 61046 (0.96), R/S: 63.19, RL: 2433, Time: 17.00 3.00 76.00, Align: 1.00, 346, 0.96
[A[2KProcessed: 61175 (0.96), R/S: 63.19, RL: 2433, Time: 17.00 3.00 76.00, Align: 1.00, 346, 0.96
[A[2KProcessed: 61325 (0.96), R/S: 63.21, RL: 2432, Time: 17.00 3.00 76.00, Align: 1.00, 346, 0.96
[A[2KProcessed: 61457 (0.96), R/S: 63.22, RL: 2431, Time: 17.00 3.00 76.00, Align: 1.00, 346, 0.96
[A[2KProcessed: 61550 (0.96), R/S: 63.18, RL: 2432, Time: 17.00 3.00 76.00, Align: 1.00, 346, 0.96
[A[2KProcessed: 61683 (0.96), R/S: 63.19, RL: 2432, Time: 17.00 3.00 76.00, Align: 1.00, 346, 0.96
[A[2KProcessed: 61816 (0.96), R/S: 63.20, RL: 2431, Time: 17.00 3.00 76.00, Align: 1.00, 346, 0.96
[A[2KProcessed: 61957 (0.96), R/S: 63.21, RL: 2431, Time: 17.00 3.00 76.00, Align: 1.00, 346, 0.96
[A[2KProcessed: 62070 (0.96), R/S: 63.20, RL: 2432, Time: 17.00 3.00 76.00, Align: 1.00, 346, 0.96
[A[2KProcessed: 62182 (0.96), R/S: 63.18, RL: 2432, Time: 17.00 3.00 76.00, Align: 1.00, 346, 0.96
[A[2KProcessed: 62306 (0.96), R/S: 63.18, RL: 2432, Time: 17.00 3.00 76.00, Align: 1.00, 346, 0.96
[A[2KProcessed: 62416 (0.96), R/S: 63.16, RL: 2432, Time: 17.00 3.00 76.00, Align: 1.00, 346, 0.96
[A[2KProcessed: 62536 (0.96), R/S: 63.16, RL: 2432, Time: 17.00 3.00 76.00, Align: 1.00, 346, 0.96
[A[2KProcessed: 62661 (0.96), R/S: 63.16, RL: 2432, Time: 17.00 3.00 76.00, Align: 1.00, 346, 0.96
[A[2KProcessed: 62782 (0.96), R/S: 63.15, RL: 2432, Time: 17.00 3.00 76.00, Align: 1.00, 346, 0.96
[A[2KProcessed: 62928 (0.96), R/S: 63.17, RL: 2432, Time: 17.00 3.00 76.00, Align: 1.00, 346, 0.96
[A[2KProcessed: 63079 (0.96), R/S: 63.20, RL: 2431, Time: 17.00 3.00 76.00, Align: 1.00, 346, 0.96
[A[2KProcessed: 63202 (0.96), R/S: 63.19, RL: 2432, Time: 17.00 3.00 76.00, Align: 1.00, 346, 0.96
[A[2KProcessed: 63348 (0.96), R/S: 63.21, RL: 2431, Time: 17.00 3.00 76.00, Align: 1.00, 346, 0.96
[A[2KProcessed: 63468 (0.96), R/S: 63.21, RL: 2431, Time: 17.00 3.00 76.00, Align: 1.00, 346, 0.96
[A[2KProcessed: 63611 (0.96), R/S: 63.22, RL: 2431, Time: 17.00 3.00 76.00, Align: 1.00, 346, 0.96
[A[2KProcessed: 63731 (0.96), R/S: 63.22, RL: 2431, Time: 17.00 3.00 76.00, Align: 1.00, 346, 0.96
[A[2KProcessed: 63867 (0.96), R/S: 63.23, RL: 2431, Time: 17.00 3.00 76.00, Align: 1.00, 346, 0.96
[A[2KProcessed: 63990 (0.96), R/S: 63.22, RL: 2431, Time: 17.00 3.00 76.00, Align: 1.00, 346, 0.96
[A[2KProcessed: 64137 (0.96), R/S: 63.24, RL: 2430, Time: 17.00 3.00 76.00, Align: 1.00, 346, 0.96
[A[2KProcessed: 64270 (0.96), R/S: 63.25, RL: 2430, Time: 17.00 3.00 76.00, Align: 1.00, 346, 0.96
[A[2KProcessed: 64402 (0.96), R/S: 63.25, RL: 2430, Time: 17.00 3.00 76.00, Align: 1.00, 346, 0.96
[A[2KProcessed: 64548 (0.96), R/S: 63.27, RL: 2429, Time: 17.00 3.00 76.00, Align: 1.00, 346, 0.96
[A[2KProcessed: 64680 (0.96), R/S: 63.28, RL: 2429, Time: 17.00 3.00 76.00, Align: 1.00, 346, 0.96
[A[2KProcessed: 64808 (0.96), R/S: 63.28, RL: 2429, Time: 17.00 3.00 76.00, Align: 1.00, 346, 0.96
[A[2KProcessed: 64946 (0.96), R/S: 63.29, RL: 2429, Time: 17.00 3.00 76.00, Align: 1.00, 346, 0.96
[A[2KProcessed: 65079 (0.96), R/S: 63.30, RL: 2429, Time: 17.00 3.00 76.00, Align: 1.00, 346, 0.96
[A[2KProcessed: 65190 (0.96), R/S: 63.28, RL: 2429, Time: 17.00 3.00 76.00, Align: 1.00, 346, 0.96
[A[2KProcessed: 65319 (0.96), R/S: 63.28, RL: 2429, Time: 17.00 3.00 76.00, Align: 1.00, 346, 0.96
[A[2KProcessed: 65450 (0.96), R/S: 63.29, RL: 2430, Time: 17.00 3.00 76.00, Align: 1.00, 346, 0.96
[A[2KProcessed: 65564 (0.96), R/S: 63.28, RL: 2430, Time: 17.00 3.00 76.00, Align: 1.00, 346, 0.96
[A[2KProcessed: 65666 (0.96), R/S: 63.25, RL: 2430, Time: 17.00 3.00 76.00, Align: 1.00, 346, 0.96
[A[2KProcessed: 65780 (0.96), R/S: 63.24, RL: 2431, Time: 17.00 3.00 76.00, Align: 1.00, 346, 0.96
[A[2KProcessed: 65910 (0.96), R/S: 63.24, RL: 2431, Time: 17.00 3.00 76.00, Align: 1.00, 346, 0.96
[A[2KProcessed: 66034 (0.96), R/S: 63.24, RL: 2431, Time: 17.00 3.00 76.00, Align: 1.00, 346, 0.96
[A[2KProcessed: 66180 (0.96), R/S: 63.26, RL: 2430, Time: 17.00 3.00 76.00, Align: 1.00, 346, 0.96
[A[2KProcessed: 66330 (0.96), R/S: 63.28, RL: 2430, Time: 17.00 3.00 76.00, Align: 1.00, 346, 0.96
[A[2KProcessed: 66489 (0.96), R/S: 63.31, RL: 2429, Time: 17.00 3.00 76.00, Align: 1.00, 346, 0.96
[A[2KProcessed: 66606 (0.96), R/S: 63.30, RL: 2429, Time: 17.00 3.00 76.00, Align: 1.00, 346, 0.96
[A[2KProcessed: 66743 (0.96), R/S: 63.31, RL: 2428, Time: 17.00 3.00 76.00, Align: 1.00, 346, 0.96
[A[2KProcessed: 66852 (0.96), R/S: 63.30, RL: 2428, Time: 17.00 3.00 76.00, Align: 1.00, 346, 0.96
[A[2KProcessed: 66977 (0.96), R/S: 63.30, RL: 2428, Time: 17.00 3.00 76.00, Align: 1.00, 346, 0.96
[A[2KProcessed: 67096 (0.96), R/S: 63.29, RL: 2429, Time: 17.00 3.00 76.00, Align: 1.00, 346, 0.96
[A[2KProcessed: 67237 (0.96), R/S: 63.30, RL: 2428, Time: 17.00 3.00 76.00, Align: 1.00, 346, 0.96
[A[2KProcessed: 67363 (0.96), R/S: 63.30, RL: 2429, Time: 17.00 3.00 76.00, Align: 1.00, 346, 0.96
[A[2KProcessed: 67513 (0.96), R/S: 63.32, RL: 2428, Time: 17.00 3.00 76.00, Align: 1.00, 346, 0.96
[A[2KProcessed: 67640 (0.96), R/S: 63.32, RL: 2428, Time: 17.00 3.00 76.00, Align: 1.00, 346, 0.96
[A[2KProcessed: 67768 (0.96), R/S: 63.33, RL: 2428, Time: 17.00 3.00 76.00, Align: 1.00, 347, 0.96
[A[2KProcessed: 67898 (0.96), R/S: 63.33, RL: 2428, Time: 17.00 3.00 76.00, Align: 1.00, 347, 0.96
[A[2KProcessed: 68022 (0.96), R/S: 63.33, RL: 2428, Time: 17.00 3.00 76.00, Align: 1.00, 347, 0.96
[A[2KProcessed: 68126 (0.96), R/S: 63.31, RL: 2428, Time: 17.00 3.00 76.00, Align: 1.00, 347, 0.96
[A[2KProcessed: 68258 (0.96), R/S: 63.31, RL: 2429, Time: 17.00 3.00 76.00, Align: 1.00, 347, 0.96
[A[2KProcessed: 68388 (0.96), R/S: 63.31, RL: 2429, Time: 17.00 3.00 76.00, Align: 1.00, 347, 0.96
[A[2KProcessed: 68501 (0.96), R/S: 63.30, RL: 2429, Time: 17.00 3.00 76.00, Align: 1.00, 347, 0.96
[A[2KProcessed: 68584 (0.96), R/S: 63.26, RL: 2429, Time: 17.00 3.00 76.00, Align: 1.00, 347, 0.96
[A[2KProcessed: 68584 (0.96), R/S: 63.26, RL: 2429, Time: 17.00 3.00 76.00, Align: 1.00, 347, 0.96
Done (65521 reads mapped (95.53%), 3063 reads not mapped, 76925 lines written)(elapsed: 22m, 47 r/s)
[Wed Jun 26 02:35:59 2019]
Finished job 0.
1 of 1 steps (100%) done
