Wildcard constraints in inputs are ignored.
Building DAG of jobs...
Using shell: /usr/bin/bash
Provided cores: 32
Rules claiming more threads will be scaled down.
Job counts:
	count	jobs
	1	sniffles
	1

[Wed Jun 26 01:39:40 2019]
rule sniffles:
    input: /fast/projects/NB_CircleSeq/work/Henssen_eccDNA_Nanopore_April2019/Alignment/circ-seqval-round3-alignment/circ-seqval-round3.HEK_gRNA1.ngmlr_hg19.sorted.bam
    output: /fast/projects/NB_CircleSeq/work/Henssen_eccDNA_Nanopore_April2019/SV/circ-seqval-round3-sv/circ-seqval-round3.HEK_gRNA1.ngmlr_hg19.sorted.sniffles.vcf
    jobid: 0
    wildcards: run=circ-seqval-round3, alignment=circ-seqval-round3.HEK_gRNA1.ngmlr_hg19

sniffles -m /fast/projects/NB_CircleSeq/work/Henssen_eccDNA_Nanopore_April2019/Alignment/circ-seqval-round3-alignment/circ-seqval-round3.HEK_gRNA1.ngmlr_hg19.sorted.bam -v /fast/projects/NB_CircleSeq/work/Henssen_eccDNA_Nanopore_April2019/SV/circ-seqval-round3-sv/circ-seqval-round3.HEK_gRNA1.ngmlr_hg19.sorted.sniffles.vcf
Estimating parameter...
	Max dist between aln events: 8
	Max diff in window: 50
	Min score ratio: 2
	Avg DEL ratio: 0.0364688
	Avg INS ratio: 0.0245015
Start parsing... chr1
	Switch Chr chr10
	Switch Chr chr11
	Switch Chr chr12
	Switch Chr chr13
	Switch Chr chr14
	Switch Chr chr15
	Switch Chr chr16
	Switch Chr chr17
	Switch Chr chr18
	Switch Chr chr19
	Switch Chr chr2
	Switch Chr chr20
	Switch Chr chr21
	Switch Chr chr22
	Switch Chr chr3
	Switch Chr chr4
	Switch Chr chr5
	Switch Chr chr6
	Switch Chr chr7
	Switch Chr chr8
	Switch Chr chr9
	Switch Chr chrM
	Switch Chr chrUn_gl000219
	Switch Chr chrUn_gl000220
	Switch Chr chrUn_gl000238
	Switch Chr chrUn_gl000241
	Switch Chr chrX
	Switch Chr chrY
Finalizing  ..
[Wed Jun 26 01:39:47 2019]
Finished job 0.
1 of 1 steps (100%) done
