Wildcard constraints in inputs are ignored.
Building DAG of jobs...
Using shell: /usr/bin/bash
Provided cores: 32
Rules claiming more threads will be scaled down.
Job counts:
	count	jobs
	1	copynumber
	1

[Wed Jun 26 02:28:43 2019]
rule copynumber:
    input: /fast/projects/NB_CircleSeq/work/Henssen_eccDNA_Nanopore_April2019/Alignment/circ-seqval-round3-alignment/circ-seqval-round3.pTRE_superPB_L2+R2.minimap_hg19.sorted.bam
    output: /fast/projects/NB_CircleSeq/work/Henssen_eccDNA_Nanopore_April2019/CopyNumber/circ-seqval-round3-copynumber/circ-seqval-round3.pTRE_superPB_L2+R2.minimap_hg19.sorted.copynumber.pdf, /fast/projects/NB_CircleSeq/work/Henssen_eccDNA_Nanopore_April2019/CopyNumber/circ-seqval-round3-copynumber/circ-seqval-round3.pTRE_superPB_L2+R2.minimap_hg19.sorted.copynumber.Rdata
    jobid: 0
    wildcards: run=circ-seqval-round3, alignment=circ-seqval-round3.pTRE_superPB_L2+R2.minimap_hg19

Rscript cnprofile.R /fast/projects/NB_CircleSeq/work/Henssen_eccDNA_Nanopore_April2019/Alignment/circ-seqval-round3-alignment/circ-seqval-round3.pTRE_superPB_L2+R2.minimap_hg19.sorted.bam /fast/projects/NB_CircleSeq/work/Henssen_eccDNA_Nanopore_April2019/CopyNumber/circ-seqval-round3-copynumber/circ-seqval-round3.pTRE_superPB_L2+R2.minimap_hg19.sorted.copynumber.pdf /fast/projects/NB_CircleSeq/work/Henssen_eccDNA_Nanopore_April2019/CopyNumber/circ-seqval-round3-copynumber/circ-seqval-round3.pTRE_superPB_L2+R2.minimap_hg19.sorted.copynumber.Rdata
Activating conda environment: /fast/work/users/helmsauk_c/nano-wgs/.snakemake/conda/4a95a64c
Annotation package QDNAseq.hg19 not found.
Downloading bin annotations for genome hg19, bin size 100kbp, and experiment type SR50 from URL http://qdnaseq-ireland.s3.amazonaws.com ...
    circ-seqval-round3.pTRE_superPB_L2+R2.minimap_hg19.sorted (1 of 1): extracting reads ... binning ...
Note: Residual filter missing for chromosomes: X
30,970	total bins
30,376	of which in selected chromosomes
28,529	of which with reference sequence
27,098	final bins
Calculating correction for GC content and mappability
    Calculating fit for sample circ-seqval-round3.pTRE_superPB_L2+R2.minimap_hg19.sorted (1 of 1) ...
Done.
Applying median normalization ...
Performing segmentation:
NA
EM algorithm started ... 

[1] "Total number of segments present in the data: 23"
[1] "Number of segments used for fitting the model: 23"
33911566746014181.251.5494665212255594264.293.6431325312255173230.493.5
Calling iteration1:

optim results
time: 1
minimum: 13580.2496728919
113573.3697523388-2.22661675594774-0.2229776679086750.04992793548759360.164238470285530.2807675194274030.5841410508846666.7138156873972-0.07881138975020250.03421794192670450.04353066403353160.363349237334421.84960212885501
33926676749552181.251.5642755512255594343.393.6494665212255173264.293.5
Calling iteration2:

optim results
time: 0
minimum: 13581.8685683782
113571.3405567309-2.08116616572924-0.1796851052535520.04999984602218010.1438510092927760.2459149246583040.5494539719457916.76471450655976-0.08318129107508210.03649534176811390.04133761605676740.113947084017641.8980084214027
33926676749552181.251.5642755512255594343.393.6642755512255173343.393.5
Calling iteration3:

optim results
time: 0
minimum: 13581.9299138248
113569.8525442792-2.10823421548248-0.1707532876346790.04999944868457890.1316237876087160.2250123511275450.5284327020058516.66866105534657-0.07972585881251080.03493077595270380.040801132615720.08948729707347611.99898123396489
EM algorithm done ...

Computing posterior probabilities for all segments ...

Total time:0minutes

Adjusting segmented data for cellularity ... 

Cellularity sample1: 1

Adjusting normalized data for cellularity ... 

Cellularity sample1: 1

1
33953356888920181.452.6642755512255594343.393.6642755512255173343.393.5
33953547024418181.453.6642755514786712343.3112.9642755512255173343.393.5
33953527024416181.453.6642755514786712343.3112.9642755512255173343.393.5
33953787241202181.455.3642755514786712343.3112.9642755512255173343.393.5
33958087242156181.455.3642755514786712343.3112.9642755512255173343.393.5
33958147242159181.455.3642755514786712343.3112.9642755512255173343.393.5
33958207242162181.455.3642755514786712343.3112.9642755512255173343.393.5
33958267242165181.455.3642755514786712343.3112.9642755512255173343.393.5
33958327242168181.455.3642755514786712343.3112.9642755512255173343.393.5
33958357242170181.455.3642755514786712343.3112.9642755512255173343.393.5
33958537323499181.455.9642755514786712343.3112.9642755512255173343.393.5
33962807323844181.455.9642755514786712343.3112.9642755512255173343.393.5
FINISHED!

Total time:0minutes

There were 50 or more warnings (use warnings() to see the first 50)
Plotting sample circ-seqval-round3.pTRE_superPB_L2+R2.minimap_hg19.sorted (239,749 reads) (1 of 1) ...
null device 
          1 
[Wed Jun 26 02:29:12 2019]
Finished job 0.
1 of 1 steps (100%) done
