Wildcard constraints in inputs are ignored.
Building DAG of jobs...
Using shell: /usr/bin/bash
Provided cores: 32
Rules claiming more threads will be scaled down.
Job counts:
	count	jobs
	1	sniffles
	1

[Wed Jun 26 02:38:05 2019]
rule sniffles:
    input: /fast/projects/NB_CircleSeq/work/Henssen_eccDNA_Nanopore_April2019/Alignment/circ-seqval-round1-alignment/circ-seqval-round1.NoBarcode.ngmlr_hg19.sorted.bam
    output: /fast/projects/NB_CircleSeq/work/Henssen_eccDNA_Nanopore_April2019/SV/circ-seqval-round1-sv/circ-seqval-round1.NoBarcode.ngmlr_hg19.sorted.sniffles.vcf
    jobid: 0
    wildcards: run=circ-seqval-round1, alignment=circ-seqval-round1.NoBarcode.ngmlr_hg19

sniffles -m /fast/projects/NB_CircleSeq/work/Henssen_eccDNA_Nanopore_April2019/Alignment/circ-seqval-round1-alignment/circ-seqval-round1.NoBarcode.ngmlr_hg19.sorted.bam -v /fast/projects/NB_CircleSeq/work/Henssen_eccDNA_Nanopore_April2019/SV/circ-seqval-round1-sv/circ-seqval-round1.NoBarcode.ngmlr_hg19.sorted.sniffles.vcf
Estimating parameter...
	Max dist between aln events: 8
	Max diff in window: 50
	Min score ratio: 2
	Avg DEL ratio: 0.0452949
	Avg INS ratio: 0.0200279
Start parsing... chr1
	Switch Chr chr10
	Switch Chr chr11
	Switch Chr chr12
	Switch Chr chr13
	Switch Chr chr14
	Switch Chr chr15
	Switch Chr chr16
	Switch Chr chr17
	Switch Chr chr17_gl000205_random
	Switch Chr chr18
	Switch Chr chr18_gl000207_random
	Switch Chr chr19
	Switch Chr chr1_gl000192_random
	Switch Chr chr2
	Switch Chr chr20
	Switch Chr chr21
	Switch Chr chr22
	Switch Chr chr3
	Switch Chr chr4
		# Processed reads: 10000
	Switch Chr chr4_gl000193_random
	Switch Chr chr5
	Switch Chr chr6
	Switch Chr chr7
	Switch Chr chr7_gl000195_random
	Switch Chr chr8
	Switch Chr chr8_gl000196_random
	Switch Chr chr9
	Switch Chr chr9_gl000198_random
	Switch Chr chrM
	Switch Chr chrUn_gl000219
	Switch Chr chrUn_gl000220
	Switch Chr chrUn_gl000224
	Switch Chr chrUn_gl000225
	Switch Chr chrUn_gl000232
	Switch Chr chrUn_gl000233
	Switch Chr chrUn_gl000234
	Switch Chr chrUn_gl000235
	Switch Chr chrX
Finalizing  ..
[Wed Jun 26 02:38:08 2019]
Finished job 0.
1 of 1 steps (100%) done
