Wildcard constraints in inputs are ignored.
Building DAG of jobs...
Using shell: /usr/bin/bash
Provided cores: 32
Rules claiming more threads will be scaled down.
Job counts:
	count	jobs
	1	getsortedbam
	1

[Tue Jun 25 23:24:55 2019]
rule getsortedbam:
    input: /fast/projects/NB_CircleSeq/work/Henssen_eccDNA_Nanopore_April2019/Alignment/circ-seqval-round1-alignment/circ-seqval-round1.pTRE_L2.minimap_hg19.sam
    output: /fast/projects/NB_CircleSeq/work/Henssen_eccDNA_Nanopore_April2019/Alignment/circ-seqval-round1-alignment/circ-seqval-round1.pTRE_L2.minimap_hg19.sorted.bam
    jobid: 0
    wildcards: run=circ-seqval-round1, alignment=circ-seqval-round1.pTRE_L2.minimap_hg19


        samtools view -h /fast/projects/NB_CircleSeq/work/Henssen_eccDNA_Nanopore_April2019/Alignment/circ-seqval-round1-alignment/circ-seqval-round1.pTRE_L2.minimap_hg19.sam | samtools sort > /fast/projects/NB_CircleSeq/work/Henssen_eccDNA_Nanopore_April2019/Alignment/circ-seqval-round1-alignment/circ-seqval-round1.pTRE_L2.minimap_hg19.sorted.bam
        samtools index /fast/projects/NB_CircleSeq/work/Henssen_eccDNA_Nanopore_April2019/Alignment/circ-seqval-round1-alignment/circ-seqval-round1.pTRE_L2.minimap_hg19.sorted.bam
        
[Tue Jun 25 23:25:06 2019]
Finished job 0.
1 of 1 steps (100%) done
