Wildcard constraints in inputs are ignored.
Building DAG of jobs...
Using shell: /usr/bin/bash
Provided cores: 32
Rules claiming more threads will be scaled down.
Job counts:
	count	jobs
	1	samanalysis_genomic_alignment
	1

[Tue Jun 25 23:27:04 2019]
rule samanalysis_genomic_alignment:
    input: /fast/projects/NB_CircleSeq/work/Henssen_eccDNA_Nanopore_April2019/Alignment/circ-seqval-round1-alignment/circ-seqval-round1.pTRE_L2.minimap_hg19.sam, /fast/projects/NB_CircleSeq/work/Henssen_eccDNA_Nanopore_April2019/Alignment/circ-seqval-round1-alignment/circ-seqval-round1.pTRE_L2.minimap_hg19.paf
    output: /fast/projects/NB_CircleSeq/work/Henssen_eccDNA_Nanopore_April2019/Alignment/circ-seqval-round1-alignment/circ-seqval-round1.pTRE_L2.minimap_hg19.sam-samanalysis/stats.txt
    jobid: 0
    wildcards: run=circ-seqval-round1, alignment=circ-seqval-round1.pTRE_L2.minimap_hg19

python samanalysis-genomicalignment.py /fast/projects/NB_CircleSeq/work/Henssen_eccDNA_Nanopore_April2019/Alignment/circ-seqval-round1-alignment/circ-seqval-round1.pTRE_L2.minimap_hg19.sam /fast/projects/NB_CircleSeq/work/Henssen_eccDNA_Nanopore_April2019/Alignment/circ-seqval-round1-alignment/circ-seqval-round1.pTRE_L2.minimap_hg19.paf
mkdir: cannot create directory ‘/fast/projects/NB_CircleSeq/work/Henssen_eccDNA_Nanopore_April2019/Alignment/circ-seqval-round1-alignment/circ-seqval-round1.pTRE_L2.minimap_hg19.sam-samanalysis/’: File exists
[Tue Jun 25 23:27:14 2019]
Finished job 0.
1 of 1 steps (100%) done
