Wildcard constraints in inputs are ignored.
Building DAG of jobs...
Using shell: /usr/bin/bash
Provided cores: 32
Rules claiming more threads will be scaled down.
Job counts:
	count	jobs
	1	stats
	1

[Wed Jun 26 02:32:58 2019]
rule stats:
    input: /fast/projects/NB_CircleSeq/work/Henssen_eccDNA_Nanopore_April2019/Alignment/circ-seqval-round2-alignment/circ-seqval-round2.HEK_gRNA1+2.minimap_hg19.sorted.bam
    output: /fast/projects/NB_CircleSeq/work/Henssen_eccDNA_Nanopore_April2019/Alignment/circ-seqval-round2-alignment/circ-seqval-round2.HEK_gRNA1+2.minimap_hg19.sorted.stats.txt
    jobid: 0
    wildcards: run=circ-seqval-round2, alignment=circ-seqval-round2.HEK_gRNA1+2.minimap_hg19, filtered=


        samtools stats /fast/projects/NB_CircleSeq/work/Henssen_eccDNA_Nanopore_April2019/Alignment/circ-seqval-round2-alignment/circ-seqval-round2.HEK_gRNA1+2.minimap_hg19.sorted.bam > /fast/projects/NB_CircleSeq/work/Henssen_eccDNA_Nanopore_April2019/Alignment/circ-seqval-round2-alignment/circ-seqval-round2.HEK_gRNA1+2.minimap_hg19.sorted.stats.txt
        
[Wed Jun 26 02:33:11 2019]
Finished job 0.
1 of 1 steps (100%) done
