/fast/users/helmsauk_c/work/miniconda/lib/python3.6/site-packages/snakemake/workflow.py:46: FutureWarning: read_table is deprecated, use read_csv instead, passing sep='\t'.
  overwrite_workdir=None,
Wildcard constraints in inputs are ignored.
Building DAG of jobs...
Using shell: /usr/bin/bash
Provided cores: 32
Rules claiming more threads will be scaled down.
Job counts:
	count	jobs
	1	basecalling
	1

[Thu Apr 25 19:08:12 2019]
rule basecalling:
    input: /fast/users/helmsauk_c/work/NanoporeTestingDir/RawData/ecDNA-round1/20190328_1022_MN29618_FAK54894_e6719a5b/fast5/FAK54894_9baeaa29229e0488874c8cbea87a9028717d6ca2_0.fast5
    output: /fast/users/helmsauk_c/work/NanoporeTestingDir/Basecalled/ecDNA-round1-basecalled/sequencing_summary.txt, /fast/users/helmsauk_c/work/NanoporeTestingDir/Basecalled/ecDNA-round1-basecalled/ecDNA-round1-QC/ecDNA-round1-NanoPlot-report.html
    jobid: 0
    wildcards: dataset=ecDNA-round1

/fast/users/helmsauk_c/work/ont-guppy-cpu/bin//guppy_basecaller --qscore_filtering --min_qscore 10 --input_path /fast/users/helmsauk_c/work/NanoporeTestingDir/RawData/ecDNA-round1/ --save_path /fast/users/helmsauk_c/work/NanoporeTestingDir/Basecalled/ecDNA-round1-basecalled/ --flowcell FLO-MIN106 --kit SQK-RBK004 --recursive --
ONT Guppy basecalling software version 2.3.7+e041753
config file:        /fast/work/users/helmsauk_c/ont-guppy-cpu/data/dna_r9.4.1_450bps.cfg
model file:         /fast/work/users/helmsauk_c/ont-guppy-cpu/data/template_r9.4.1_450bps_fast_flipflop.jsn
input path:         /fast/users/helmsauk_c/work/NanoporeTestingDir/RawData/ecDNA-round1/
save path:          /fast/users/helmsauk_c/work/NanoporeTestingDir/Basecalled/ecDNA-round1-basecalled/
chunk size:         1000
chunks per runner:  20
minimum qscore:     10
records per file:   4000
num basecallers:    4
cpu mode:           ON
threads per caller: 1

Found 1 fast5 files to process.
Init time: 438 ms

0%   10   20   30   40   50   60   70   80   90   100%
|----|----|----|----|----|----|----|----|----|----|
***************************************************
Caller time: 236863 ms, Samples called: 49457260, samples/s: 208801
Finishing up any open output files.
Basecalling completed successfully.
NanoPlot --summary /fast/users/helmsauk_c/work/NanoporeTestingDir/Basecalled/ecDNA-round1-basecalled/sequencing_summary.txt --loglength --outdir /fast/users/helmsauk_c/work/NanoporeTestingDir/Basecalled/ecDNA-round1-basecalled/ecDNA-round1-QC --format pdf --N50 --title ecDNA-round1 --prefix ecDNA-round1-
[Thu Apr 25 19:12:20 2019]
Finished job 0.
1 of 1 steps (100%) done
