Wildcard constraints in inputs are ignored.
Building DAG of jobs...
Using shell: /usr/bin/bash
Provided cores: 32
Rules claiming more threads will be scaled down.
Job counts:
	count	jobs
	1	copynumber
	1

[Mon May 13 07:58:52 2019]
rule copynumber:
    input: /fast/users/helmsauk_c/scratch/Henssen_eccDNA_Nanopore_April2019/Alignment/ecDNA-round4-alignment/ecDNA-round4.20420.minimap_hg19.sorted.bam
    output: /fast/users/helmsauk_c/scratch/Henssen_eccDNA_Nanopore_April2019/CopyNumber/ecDNA-round4-copynumber/ecDNA-round4.20420.minimap_hg19.sorted.copynumber.pdf, /fast/users/helmsauk_c/scratch/Henssen_eccDNA_Nanopore_April2019/CopyNumber/ecDNA-round4-copynumber/ecDNA-round4.20420.minimap_hg19.sorted.copynumber.Rdata
    jobid: 0
    wildcards: run=ecDNA-round4, alignment=ecDNA-round4.20420.minimap_hg19

Rscript cnprofile.R /fast/users/helmsauk_c/scratch/Henssen_eccDNA_Nanopore_April2019/Alignment/ecDNA-round4-alignment/ecDNA-round4.20420.minimap_hg19.sorted.bam /fast/users/helmsauk_c/scratch/Henssen_eccDNA_Nanopore_April2019/CopyNumber/ecDNA-round4-copynumber/ecDNA-round4.20420.minimap_hg19.sorted.copynumber.pdf /fast/users/helmsauk_c/scratch/Henssen_eccDNA_Nanopore_April2019/CopyNumber/ecDNA-round4-copynumber/ecDNA-round4.20420.minimap_hg19.sorted.copynumber.Rdata
Activating conda environment: /fast/work/users/helmsauk_c/nano-wgs/.snakemake/conda/4a95a64c
Annotation package QDNAseq.hg19 not found.
Downloading bin annotations for genome hg19, bin size 100kbp, and experiment type SR50 from URL http://qdnaseq-ireland.s3.amazonaws.com ...
    ecDNA-round4.20420.minimap_hg19.sorted (1 of 1): extracting reads ... binning ...
Note: Residual filter missing for chromosomes: X
30,970	total bins
30,376	of which in selected chromosomes
28,529	of which with reference sequence
27,098	final bins
Calculating correction for GC content and mappability
    Calculating fit for sample ecDNA-round4.20420.minimap_hg19.sorted (1 of 1) ...
Done.
Applying median normalization ...
Performing segmentation:
NA
EM algorithm started ... 

[1] "Total number of segments present in the data: 28"
[1] "Number of segments used for fitting the model: 25"
33911586746169181.251.5494665212285309264.293.8431598212284647230.593.8
Calling iteration1:

optim results
time: 0
minimum: 13348.5784150282
113334.2588506557-1.02165771819077-0.5334970541186120.04999189858957960.2141055586076430.3660158699808770.9029578156848950.2036197314529090.003091482919619160.0397567705648443-0.001597236829584720.013721444999610.636192854141294
33926696749719181.251.5642756112285309343.393.8494665212284647264.293.8
Calling iteration2:

optim results
time: 0
minimum: 13348.2364474723
113334.0251529133-1.00291062044995-0.5307646224176590.0499999769172980.2020985006774210.3454896688732510.8743639950726760.3424508561260656.93070096440268e-050.011200025596736-0.0009285922755180760.01005296998231120.609690268947446
EM algorithm done ...

Computing posterior probabilities for all segments ...

Total time:0minutes

Adjusting segmented data for cellularity ... 

Cellularity sample1: 1

Adjusting normalized data for cellularity ... 

Cellularity sample1: 1

1
33953356888966181.452.6642756112285309343.393.8559148612284647298.793.8
33953547024464181.453.6642756114822370343.3113.1559148612284647298.793.8
33953527024462181.453.6642756114822370343.3113.1559148612284647298.793.8
33953787241248181.455.3642756114822370343.3113.1559148612284647298.793.8
33958087242202181.455.3642756114822370343.3113.1559148612284647298.793.8
33958147242205181.455.3642756114822370343.3113.1559148612284647298.793.8
33958207242208181.455.3642756114822370343.3113.1559148612284647298.793.8
33958267242211181.455.3642756114822370343.3113.1559148612284647298.793.8
33958327242214181.455.3642756114822370343.3113.1559148612284647298.793.8
33958357242216181.455.3642756114822370343.3113.1559148612284647298.793.8
33958537323545181.455.9642756114822370343.3113.1559148612284647298.793.8
33962807323890181.455.9642756114822370343.3113.1559148612284647298.793.8
FINISHED!

Total time:0minutes

There were 50 or more warnings (use warnings() to see the first 50)
Plotting sample ecDNA-round4.20420.minimap_hg19.sorted (428,438 reads) (1 of 1) ...
null device 
          1 
[Mon May 13 07:59:18 2019]
Finished job 0.
1 of 1 steps (100%) done
