Wildcard constraints in inputs are ignored.
Building DAG of jobs...
Using shell: /usr/bin/bash
Provided cores: 32
Rules claiming more threads will be scaled down.
Job counts:
	count	jobs
	1	minimap2genome_sam
	1

[Mon May 13 05:28:06 2019]
rule minimap2genome_sam:
    input: /fast/users/helmsauk_c/scratch/Henssen_eccDNA_Nanopore_April2019/Basecalled/ecDNA-round4-basecalled/demultiplexed/ecDNA-round4.20494.fastq, /fast/users/helmsauk_c/work/resources/hg19.mmi
    output: /fast/users/helmsauk_c/scratch/Henssen_eccDNA_Nanopore_April2019/Alignment/ecDNA-round4-alignment/ecDNA-round4.20494.minimap_hg19.sam
    jobid: 0
    wildcards: run=ecDNA-round4, runsample=ecDNA-round4.20494

minimap2 -ax map-ont /fast/users/helmsauk_c/work/resources/hg19.mmi /fast/users/helmsauk_c/scratch/Henssen_eccDNA_Nanopore_April2019/Basecalled/ecDNA-round4-basecalled/demultiplexed/ecDNA-round4.20494.fastq > /fast/users/helmsauk_c/scratch/Henssen_eccDNA_Nanopore_April2019/Alignment/ecDNA-round4-alignment/ecDNA-round4.20494.minimap_hg19.sam
[M::main::9.583*0.86] loaded/built the index for 84 target sequence(s)
[M::mm_mapopt_update::11.995*0.89] mid_occ = 603
[M::mm_idx_stat] kmer size: 15; skip: 10; is_hpc: 0; #seq: 84
[M::mm_idx_stat::12.820*0.90] distinct minimizers: 100013811 (38.83% are singletons); average occurrences: 5.403; average spacing: 5.741
[M::worker_pipeline::294.717*2.91] mapped 133950 sequences
[M::worker_pipeline::333.949*2.91] mapped 21413 sequences
[M::main] Version: 2.16-r922
[M::main] CMD: minimap2 -ax map-ont /fast/users/helmsauk_c/work/resources/hg19.mmi /fast/users/helmsauk_c/scratch/Henssen_eccDNA_Nanopore_April2019/Basecalled/ecDNA-round4-basecalled/demultiplexed/ecDNA-round4.20494.fastq
[M::main] Real time: 334.619 sec; CPU: 973.151 sec; Peak RSS: 11.138 GB
[Mon May 13 05:33:42 2019]
Finished job 0.
1 of 1 steps (100%) done
