Wildcard constraints in inputs are ignored.
Building DAG of jobs...
Using shell: /usr/bin/bash
Provided cores: 32
Rules claiming more threads will be scaled down.
Job counts:
	count	jobs
	1	copynumber
	1

[Mon May 13 08:01:31 2019]
rule copynumber:
    input: /fast/users/helmsauk_c/scratch/Henssen_eccDNA_Nanopore_April2019/Alignment/ecDNA-round3-alignment/ecDNA-round3.26891.minimap_hg19.sorted.bam
    output: /fast/users/helmsauk_c/scratch/Henssen_eccDNA_Nanopore_April2019/CopyNumber/ecDNA-round3-copynumber/ecDNA-round3.26891.minimap_hg19.sorted.copynumber.pdf, /fast/users/helmsauk_c/scratch/Henssen_eccDNA_Nanopore_April2019/CopyNumber/ecDNA-round3-copynumber/ecDNA-round3.26891.minimap_hg19.sorted.copynumber.Rdata
    jobid: 0
    wildcards: run=ecDNA-round3, alignment=ecDNA-round3.26891.minimap_hg19

Rscript cnprofile.R /fast/users/helmsauk_c/scratch/Henssen_eccDNA_Nanopore_April2019/Alignment/ecDNA-round3-alignment/ecDNA-round3.26891.minimap_hg19.sorted.bam /fast/users/helmsauk_c/scratch/Henssen_eccDNA_Nanopore_April2019/CopyNumber/ecDNA-round3-copynumber/ecDNA-round3.26891.minimap_hg19.sorted.copynumber.pdf /fast/users/helmsauk_c/scratch/Henssen_eccDNA_Nanopore_April2019/CopyNumber/ecDNA-round3-copynumber/ecDNA-round3.26891.minimap_hg19.sorted.copynumber.Rdata
Activating conda environment: /fast/work/users/helmsauk_c/nano-wgs/.snakemake/conda/4a95a64c
Annotation package QDNAseq.hg19 not found.
Downloading bin annotations for genome hg19, bin size 100kbp, and experiment type SR50 from URL http://qdnaseq-ireland.s3.amazonaws.com ...
    ecDNA-round3.26891.minimap_hg19.sorted (1 of 1): extracting reads ... binning ...
Note: Residual filter missing for chromosomes: X
30,970	total bins
30,376	of which in selected chromosomes
28,529	of which with reference sequence
27,098	final bins
Calculating correction for GC content and mappability
    Calculating fit for sample ecDNA-round3.26891.minimap_hg19.sorted (1 of 1) ...
Done.
Applying median normalization ...
Performing segmentation:
NA
EM algorithm started ... 

[1] "Total number of segments present in the data: 23"
[1] "Number of segments used for fitting the model: 21"
33911586745922181.251.5494665212255594264.293.6431325312255164230.493.5
Calling iteration1:

optim results
time: 1
minimum: 12943.049351216
112930.3541681937-1.13131571066591-0.5797158049405020.04998844813598130.2396463613157230.4096781606005190.7563582306784080.250447511094206-0.004201530713417590.0131067467690189-0.01106198015073180.09109977087056650.0931320737725803
33926696749448181.251.5642756112255594343.393.6494665212255164264.293.5
Calling iteration2:

optim results
time: 1
minimum: 12941.9159351554
112930.0650319089-2.00739710019967-0.5659770697914730.04999459181510630.2198573828026850.3758486783881690.6900383905374520.532705797432453-0.0002267572438552630.0112078751617366-0.002083692135221920.05359799872193080.0547827576058553
33926696749448181.251.5642756112255594343.393.6642756112255164343.393.5
Calling iteration3:

optim results
time: 0
minimum: 12942.7711226198
112929.8228542638-1.97979997327829-0.5642181028006740.04999968676018760.2001924631005970.3422312761139310.6533021140177690.548137501226501-0.0003561044807373650.0112262178040714-0.0002056311498366670.01000315712520410.0101869791548824
33926696749448181.251.5642756112255594343.393.6642756112255164343.393.5
Calling iteration4:

optim results
time: 0
minimum: 12943.50003811
112929.6419141928-1.8479754811871-0.5648587154461740.04999526467414860.1850866827649730.3164077740655060.6254113595656330.6641567719090530.001043386745412220.0113119653481109-0.0001351981082977090.01079915302759170.0109447256679271
33926696749448181.251.5642756112255594343.393.6642756112255164343.393.5
Calling iteration5:

optim results
time: 0
minimum: 12944.2051892315
112929.492063717-1.70093870931376-0.5627876128028650.04999996622831240.1753814891478290.2998166359922470.6233453174572720.246152578794541-0.000639053876321660.0112064896993371-0.0004737268020831830.01004366113338460.0100436926491196
EM algorithm done ...

Computing posterior probabilities for all segments ...

Total time:0minutes

Adjusting segmented data for cellularity ... 

Cellularity sample1: 1

Adjusting normalized data for cellularity ... 

Cellularity sample1: 1

1
33953356888911181.452.6642756112255594343.393.6642756112255164343.393.5
33953547024409181.453.6642756114786712343.3112.9642756112255164343.393.5
33953527024407181.453.6642756114786712343.3112.9642756112255164343.393.5
33953787242306181.455.3642756114786712343.3112.9642756112255164343.393.5
33958087243260181.455.3642756114786712343.3112.9642756112255164343.393.5
33958147243263181.455.3642756114786712343.3112.9642756112255164343.393.5
33958207243266181.455.3642756114786712343.3112.9642756112255164343.393.5
33958267243269181.455.3642756114786712343.3112.9642756112255164343.393.5
33958327243272181.455.3642756114786712343.3112.9642756112255164343.393.5
33958357243274181.455.3642756114786712343.3112.9642756112255164343.393.5
33958537324603181.455.9642756114786712343.3112.9642756112255164343.393.5
33962807324948181.455.9642756114786712343.3112.9642756112255164343.393.5
FINISHED!

Total time:0minutes

There were 50 or more warnings (use warnings() to see the first 50)
Plotting sample ecDNA-round3.26891.minimap_hg19.sorted (289,241 reads) (1 of 1) ...
null device 
          1 
[Mon May 13 08:01:55 2019]
Finished job 0.
1 of 1 steps (100%) done
