Wildcard constraints in inputs are ignored.
Building DAG of jobs...
Using shell: /usr/bin/bash
Provided cores: 32
Rules claiming more threads will be scaled down.
Job counts:
	count	jobs
	1	getsortedbam
	1

[Mon May 13 07:41:23 2019]
rule getsortedbam:
    input: /fast/users/helmsauk_c/scratch/Henssen_eccDNA_Nanopore_April2019/Alignment/ecDNA-round3-alignment/ecDNA-round3.26891.ngmlr_hg19.sam
    output: /fast/users/helmsauk_c/scratch/Henssen_eccDNA_Nanopore_April2019/Alignment/ecDNA-round3-alignment/ecDNA-round3.26891.ngmlr_hg19.sorted.bam
    jobid: 0
    wildcards: run=ecDNA-round3, alignment=ecDNA-round3.26891.ngmlr_hg19


        samtools view -h /fast/users/helmsauk_c/scratch/Henssen_eccDNA_Nanopore_April2019/Alignment/ecDNA-round3-alignment/ecDNA-round3.26891.ngmlr_hg19.sam | samtools sort > /fast/users/helmsauk_c/scratch/Henssen_eccDNA_Nanopore_April2019/Alignment/ecDNA-round3-alignment/ecDNA-round3.26891.ngmlr_hg19.sorted.bam
        samtools index /fast/users/helmsauk_c/scratch/Henssen_eccDNA_Nanopore_April2019/Alignment/ecDNA-round3-alignment/ecDNA-round3.26891.ngmlr_hg19.sorted.bam
        
[bam_sort_core] merging from 1 files and 1 in-memory blocks...
[Mon May 13 07:42:13 2019]
Finished job 0.
1 of 1 steps (100%) done
