Wildcard constraints in inputs are ignored.
Building DAG of jobs...
Using shell: /usr/bin/bash
Provided cores: 32
Rules claiming more threads will be scaled down.
Job counts:
	count	jobs
	1	copynumber
	1

[Mon May 13 08:03:39 2019]
rule copynumber:
    input: /fast/users/helmsauk_c/scratch/Henssen_eccDNA_Nanopore_April2019/Alignment/ecDNA-round1-alignment/ecDNA-round1.18149.minimap_hg19.sorted.bam
    output: /fast/users/helmsauk_c/scratch/Henssen_eccDNA_Nanopore_April2019/CopyNumber/ecDNA-round1-copynumber/ecDNA-round1.18149.minimap_hg19.sorted.copynumber.pdf, /fast/users/helmsauk_c/scratch/Henssen_eccDNA_Nanopore_April2019/CopyNumber/ecDNA-round1-copynumber/ecDNA-round1.18149.minimap_hg19.sorted.copynumber.Rdata
    jobid: 0
    wildcards: run=ecDNA-round1, alignment=ecDNA-round1.18149.minimap_hg19

Rscript cnprofile.R /fast/users/helmsauk_c/scratch/Henssen_eccDNA_Nanopore_April2019/Alignment/ecDNA-round1-alignment/ecDNA-round1.18149.minimap_hg19.sorted.bam /fast/users/helmsauk_c/scratch/Henssen_eccDNA_Nanopore_April2019/CopyNumber/ecDNA-round1-copynumber/ecDNA-round1.18149.minimap_hg19.sorted.copynumber.pdf /fast/users/helmsauk_c/scratch/Henssen_eccDNA_Nanopore_April2019/CopyNumber/ecDNA-round1-copynumber/ecDNA-round1.18149.minimap_hg19.sorted.copynumber.Rdata
Activating conda environment: /fast/work/users/helmsauk_c/nano-wgs/.snakemake/conda/4a95a64c
Annotation package QDNAseq.hg19 not found.
Downloading bin annotations for genome hg19, bin size 100kbp, and experiment type SR50 from URL http://qdnaseq-ireland.s3.amazonaws.com ...
    ecDNA-round1.18149.minimap_hg19.sorted (1 of 1): extracting reads ... binning ...
Note: Residual filter missing for chromosomes: X
30,970	total bins
30,376	of which in selected chromosomes
28,529	of which with reference sequence
27,098	final bins
Calculating correction for GC content and mappability
    Calculating fit for sample ecDNA-round1.18149.minimap_hg19.sorted (1 of 1) ...
Done.
Applying median normalization ...
Performing segmentation:
NA
EM algorithm started ... 

[1] "Total number of segments present in the data: 33"
[1] "Number of segments used for fitting the model: 28"
33911586746368181.251.5494665212255594264.293.6432131112255594230.893.6
Calling iteration1:

optim results
time: 1
minimum: 13537.9671037423
113524.2630834392-0.780132245347906-0.4058656609605010.02002713398289380.2002657005458740.342356476353580.9706603662675750.1523961516828460.1520628048725770.0549771715053412-0.003520742339006280.01299618032107440.0190430913971206
33926696749936181.251.5642756112255594343.393.6494665212255594264.293.6
Calling iteration2:

optim results
time: 1
minimum: 13535.0929814165
113523.5399751672-0.810893162180471-0.4625761694590250.03130255601278990.1471743148737440.251596153073580.9441292353774720.06858886818634460.06504759142838780.02680449594162050.01671899052883150.02455973633797080.0272169629948454
33926696749936181.251.5642756112255594343.393.6642756112255594343.393.6
Calling iteration3:

optim results
time: 1
minimum: 13533.230218051
113523.2605305081-0.804532958915418-0.4958729186365290.03353788068992550.1363209112667290.2330421370577940.9290912249006630.02042698468347260.01625481409702330.01276131441061440.00417596877490670.03444234134844580.0442794676009485
33926696749936181.251.5642756112255594343.393.6642756112255594343.393.6
Calling iteration4:

optim results
time: 1
minimum: 13532.3975714558
113523.1281121548-0.825779640413312-0.5255913252251520.03351115010045970.1050091720136020.1795143652527190.9352150901610360.010647283729312-0.0007931923940205670.01121728564247090.001244162883640810.0125257939098880.0164093264054572
33926696749936181.251.5642756112255594343.393.6642756112255594343.393.6
Calling iteration5:

optim results
time: 0
minimum: 13532.1031867164
113523.1031976927-0.838860941967553-0.5387219638007240.03341661611014780.1021492047509790.174625218924370.9322658313586760.01116156984065550.0001441182075901290.01122385365953520.00134862327898450.0113923705982980.0120150213307678
EM algorithm done ...

Computing posterior probabilities for all segments ...

Total time:0minutes

Adjusting segmented data for cellularity ... 

Cellularity sample1: 1

Adjusting normalized data for cellularity ... 

Cellularity sample1: 1

1
33953356889021181.452.6642756112255594343.393.6642756112255594343.393.6
33953547024519181.453.6642756114786712343.3112.9642756112255594343.393.6
33953527024517181.453.6642756114786712343.3112.9642756112255594343.393.6
33953787241845181.455.3642756114786712343.3112.9642756112255594343.393.6
33958087242799181.455.3642756114786712343.3112.9642756112255594343.393.6
33958147242802181.455.3642756114786712343.3112.9642756112255594343.393.6
33958207242805181.455.3642756114786712343.3112.9642756112255594343.393.6
33958267242808181.455.3642756114786712343.3112.9642756112255594343.393.6
33958327242811181.455.3642756114786712343.3112.9642756112255594343.393.6
33958357242813181.455.3642756114786712343.3112.9642756112255594343.393.6
33958537324142181.455.9642756114786712343.3112.9642756112255594343.393.6
33962807324487181.455.9642756114786712343.3112.9642756112255594343.393.6
FINISHED!

Total time:0minutes

There were 50 or more warnings (use warnings() to see the first 50)
Plotting sample ecDNA-round1.18149.minimap_hg19.sorted (172,549 reads) (1 of 1) ...
null device 
          1 
[Mon May 13 08:04:06 2019]
Finished job 0.
1 of 1 steps (100%) done
