Wildcard constraints in inputs are ignored.
Building DAG of jobs...
Using shell: /usr/bin/bash
Provided cores: 32
Rules claiming more threads will be scaled down.
Job counts:
	count	jobs
	1	sniffles
	1

[Mon May 13 07:53:50 2019]
rule sniffles:
    input: /fast/users/helmsauk_c/scratch/Henssen_eccDNA_Nanopore_April2019/Alignment/ecDNA-round3-alignment/ecDNA-round3.20477.ngmlr_hg19.sorted.bam
    output: /fast/users/helmsauk_c/scratch/Henssen_eccDNA_Nanopore_April2019/SV/ecDNA-round3-sv/ecDNA-round3.20477.ngmlr_hg19.sorted.sniffles.vcf
    jobid: 0
    wildcards: run=ecDNA-round3, alignment=ecDNA-round3.20477.ngmlr_hg19

sniffles -m /fast/users/helmsauk_c/scratch/Henssen_eccDNA_Nanopore_April2019/Alignment/ecDNA-round3-alignment/ecDNA-round3.20477.ngmlr_hg19.sorted.bam -v /fast/users/helmsauk_c/scratch/Henssen_eccDNA_Nanopore_April2019/SV/ecDNA-round3-sv/ecDNA-round3.20477.ngmlr_hg19.sorted.sniffles.vcf
Estimating parameter...
	Max dist between aln events: 9
	Max diff in window: 50
	Min score ratio: 2
	Avg DEL ratio: inf
	Avg INS ratio: -nan
Start parsing... chr1
		# Processed reads: 10000
	Switch Chr chr10
		# Processed reads: 20000
	Switch Chr chr11
	Switch Chr chr12
		# Processed reads: 30000
	Switch Chr chr13
		# Processed reads: 40000
	Switch Chr chr14
		# Processed reads: 50000
	Switch Chr chr15
	Switch Chr chr16
		# Processed reads: 60000
	Switch Chr chr17
	Switch Chr chr17_gl000204_random
	Switch Chr chr17_gl000205_random
	Switch Chr chr18
		# Processed reads: 70000
	Switch Chr chr19
	Switch Chr chr19_gl000208_random
	Switch Chr chr19_gl000209_random
	Switch Chr chr1_gl000192_random
	Switch Chr chr2
		# Processed reads: 80000
		# Processed reads: 90000
	Switch Chr chr20
	Switch Chr chr21
	Switch Chr chr22
		# Processed reads: 100000
	Switch Chr chr3
	Switch Chr chr4
		# Processed reads: 110000
	Switch Chr chr4_gl000193_random
	Switch Chr chr5
		# Processed reads: 120000
	Switch Chr chr6
		# Processed reads: 130000
	Switch Chr chr7
		# Processed reads: 140000
	Switch Chr chr7_gl000195_random
	Switch Chr chr8
		# Processed reads: 150000
	Switch Chr chr8_gl000196_random
	Switch Chr chr9
		# Processed reads: 160000
	Switch Chr chr9_gl000198_random
	Switch Chr chr9_gl000199_random
	Switch Chr chrM
	Switch Chr chrUn_gl000211
	Switch Chr chrUn_gl000212
	Switch Chr chrUn_gl000213
	Switch Chr chrUn_gl000214
	Switch Chr chrUn_gl000215
	Switch Chr chrUn_gl000216
	Switch Chr chrUn_gl000219
	Switch Chr chrUn_gl000220
	Switch Chr chrUn_gl000221
	Switch Chr chrUn_gl000224
	Switch Chr chrUn_gl000225
	Switch Chr chrUn_gl000227
	Switch Chr chrUn_gl000228
	Switch Chr chrUn_gl000231
	Switch Chr chrUn_gl000232
	Switch Chr chrUn_gl000234
	Switch Chr chrUn_gl000237
	Switch Chr chrUn_gl000240
	Switch Chr chrUn_gl000241
	Switch Chr chrX
		# Processed reads: 170000
	Switch Chr chrY
Finalizing  ..
[Mon May 13 07:54:20 2019]
Finished job 0.
1 of 1 steps (100%) done
