Wildcard constraints in inputs are ignored.
Building DAG of jobs...
Using shell: /usr/bin/bash
Provided cores: 32
Rules claiming more threads will be scaled down.
Job counts:
	count	jobs
	1	sniffles
	1

[Mon May 13 08:01:31 2019]
rule sniffles:
    input: /fast/users/helmsauk_c/scratch/Henssen_eccDNA_Nanopore_April2019/Alignment/ecDNA-round2-alignment/ecDNA-round2.NoBarcode.ngmlr_hg19.sorted.bam
    output: /fast/users/helmsauk_c/scratch/Henssen_eccDNA_Nanopore_April2019/SV/ecDNA-round2-sv/ecDNA-round2.NoBarcode.ngmlr_hg19.sorted.sniffles.vcf
    jobid: 0
    wildcards: run=ecDNA-round2, alignment=ecDNA-round2.NoBarcode.ngmlr_hg19

sniffles -m /fast/users/helmsauk_c/scratch/Henssen_eccDNA_Nanopore_April2019/Alignment/ecDNA-round2-alignment/ecDNA-round2.NoBarcode.ngmlr_hg19.sorted.bam -v /fast/users/helmsauk_c/scratch/Henssen_eccDNA_Nanopore_April2019/SV/ecDNA-round2-sv/ecDNA-round2.NoBarcode.ngmlr_hg19.sorted.sniffles.vcf
Estimating parameter...
	Max dist between aln events: 9
	Max diff in window: 50
	Min score ratio: 2
	Avg DEL ratio: 0.037774
	Avg INS ratio: 0.0204443
Start parsing... chr1
	Switch Chr chr10
	Switch Chr chr11
	Switch Chr chr12
	Switch Chr chr13
	Switch Chr chr14
	Switch Chr chr15
		# Processed reads: 10000
	Switch Chr chr16
	Switch Chr chr17
	Switch Chr chr17_gl000203_random
	Switch Chr chr17_gl000204_random
	Switch Chr chr17_gl000205_random
	Switch Chr chr18
	Switch Chr chr19
	Switch Chr chr19_gl000208_random
	Switch Chr chr1_gl000192_random
	Switch Chr chr2
	Switch Chr chr20
		# Processed reads: 20000
	Switch Chr chr21
	Switch Chr chr22
	Switch Chr chr3
	Switch Chr chr4
	Switch Chr chr4_gl000193_random
	Switch Chr chr5
	Switch Chr chr6
		# Processed reads: 30000
	Switch Chr chr7
	Switch Chr chr7_gl000195_random
	Switch Chr chr8
	Switch Chr chr9
	Switch Chr chrM
	Switch Chr chrUn_gl000214
	Switch Chr chrUn_gl000216
	Switch Chr chrUn_gl000218
	Switch Chr chrUn_gl000219
	Switch Chr chrUn_gl000220
	Switch Chr chrUn_gl000222
	Switch Chr chrUn_gl000225
	Switch Chr chrUn_gl000231
	Switch Chr chrUn_gl000232
	Switch Chr chrUn_gl000234
	Switch Chr chrUn_gl000241
	Switch Chr chrUn_gl000243
	Switch Chr chrX
	Switch Chr chrY
Finalizing  ..
[Mon May 13 08:01:37 2019]
Finished job 0.
1 of 1 steps (100%) done
