Wildcard constraints in inputs are ignored.
Building DAG of jobs...
Using shell: /usr/bin/bash
Provided cores: 32
Rules claiming more threads will be scaled down.
Job counts:
	count	jobs
	1	sniffles
	1

[Mon May 13 07:54:39 2019]
rule sniffles:
    input: /fast/users/helmsauk_c/scratch/Henssen_eccDNA_Nanopore_April2019/Alignment/ecDNA-round1-alignment/ecDNA-round1.SJ1.ngmlr_hg19.sorted.bam
    output: /fast/users/helmsauk_c/scratch/Henssen_eccDNA_Nanopore_April2019/SV/ecDNA-round1-sv/ecDNA-round1.SJ1.ngmlr_hg19.sorted.sniffles.vcf
    jobid: 0
    wildcards: run=ecDNA-round1, alignment=ecDNA-round1.SJ1.ngmlr_hg19

sniffles -m /fast/users/helmsauk_c/scratch/Henssen_eccDNA_Nanopore_April2019/Alignment/ecDNA-round1-alignment/ecDNA-round1.SJ1.ngmlr_hg19.sorted.bam -v /fast/users/helmsauk_c/scratch/Henssen_eccDNA_Nanopore_April2019/SV/ecDNA-round1-sv/ecDNA-round1.SJ1.ngmlr_hg19.sorted.sniffles.vcf
Estimating parameter...
	Max dist between aln events: 9
	Max diff in window: 50
	Min score ratio: 2
	Avg DEL ratio: 0.0384808
	Avg INS ratio: 0.0213943
Start parsing... chr1
	Switch Chr chr10
		# Processed reads: 10000
	Switch Chr chr11
	Switch Chr chr12
		# Processed reads: 20000
	Switch Chr chr13
	Switch Chr chr14
		# Processed reads: 30000
	Switch Chr chr15
	Switch Chr chr16
	Switch Chr chr17
		# Processed reads: 40000
	Switch Chr chr17_gl000204_random
	Switch Chr chr17_gl000205_random
	Switch Chr chr18
	Switch Chr chr19
	Switch Chr chr1_gl000192_random
	Switch Chr chr2
		# Processed reads: 50000
		# Processed reads: 60000
		# Processed reads: 70000
	Switch Chr chr20
	Switch Chr chr21
	Switch Chr chr22
		# Processed reads: 80000
	Switch Chr chr3
	Switch Chr chr4
		# Processed reads: 90000
	Switch Chr chr4_gl000193_random
	Switch Chr chr5
	Switch Chr chr6
		# Processed reads: 100000
	Switch Chr chr7
	Switch Chr chr7_gl000195_random
	Switch Chr chr8
		# Processed reads: 110000
	Switch Chr chr9
	Switch Chr chrM
	Switch Chr chrUn_gl000211
	Switch Chr chrUn_gl000214
	Switch Chr chrUn_gl000220
	Switch Chr chrUn_gl000223
	Switch Chr chrUn_gl000224
	Switch Chr chrUn_gl000225
	Switch Chr chrUn_gl000227
	Switch Chr chrUn_gl000234
	Switch Chr chrUn_gl000235
	Switch Chr chrUn_gl000237
	Switch Chr chrX
		# Processed reads: 120000
	Switch Chr chrY
Finalizing  ..
[Mon May 13 07:55:00 2019]
Finished job 0.
1 of 1 steps (100%) done
