Wildcard constraints in inputs are ignored.
Building DAG of jobs...
Using shell: /usr/bin/bash
Provided cores: 32
Rules claiming more threads will be scaled down.
Job counts:
	count	jobs
	1	stats
	1

[Mon May 13 08:03:25 2019]
rule stats:
    input: /fast/users/helmsauk_c/scratch/Henssen_eccDNA_Nanopore_April2019/Alignment/ecDNA-round3-alignment/ecDNA-round3.NoBarcode.ngmlr_hg19.sorted.bam
    output: /fast/users/helmsauk_c/scratch/Henssen_eccDNA_Nanopore_April2019/Alignment/ecDNA-round3-alignment/ecDNA-round3.NoBarcode.ngmlr_hg19.sorted.stats.txt
    jobid: 0
    wildcards: run=ecDNA-round3, alignment=ecDNA-round3.NoBarcode.ngmlr_hg19, filtered=


        samtools stats /fast/users/helmsauk_c/scratch/Henssen_eccDNA_Nanopore_April2019/Alignment/ecDNA-round3-alignment/ecDNA-round3.NoBarcode.ngmlr_hg19.sorted.bam > /fast/users/helmsauk_c/scratch/Henssen_eccDNA_Nanopore_April2019/Alignment/ecDNA-round3-alignment/ecDNA-round3.NoBarcode.ngmlr_hg19.sorted.stats.txt
        
[Mon May 13 08:03:32 2019]
Finished job 0.
1 of 1 steps (100%) done
