Wildcard constraints in inputs are ignored.
Building DAG of jobs...
Using shell: /usr/bin/bash
Provided cores: 32
Rules claiming more threads will be scaled down.
Job counts:
	count	jobs
	1	copynumber
	1

[Mon May 13 08:02:42 2019]
rule copynumber:
    input: /fast/users/helmsauk_c/scratch/Henssen_eccDNA_Nanopore_April2019/Alignment/ecDNA-round3-alignment/ecDNA-round3.21258.minimap_hg19.sorted.bam
    output: /fast/users/helmsauk_c/scratch/Henssen_eccDNA_Nanopore_April2019/CopyNumber/ecDNA-round3-copynumber/ecDNA-round3.21258.minimap_hg19.sorted.copynumber.pdf, /fast/users/helmsauk_c/scratch/Henssen_eccDNA_Nanopore_April2019/CopyNumber/ecDNA-round3-copynumber/ecDNA-round3.21258.minimap_hg19.sorted.copynumber.Rdata
    jobid: 0
    wildcards: run=ecDNA-round3, alignment=ecDNA-round3.21258.minimap_hg19

Rscript cnprofile.R /fast/users/helmsauk_c/scratch/Henssen_eccDNA_Nanopore_April2019/Alignment/ecDNA-round3-alignment/ecDNA-round3.21258.minimap_hg19.sorted.bam /fast/users/helmsauk_c/scratch/Henssen_eccDNA_Nanopore_April2019/CopyNumber/ecDNA-round3-copynumber/ecDNA-round3.21258.minimap_hg19.sorted.copynumber.pdf /fast/users/helmsauk_c/scratch/Henssen_eccDNA_Nanopore_April2019/CopyNumber/ecDNA-round3-copynumber/ecDNA-round3.21258.minimap_hg19.sorted.copynumber.Rdata
Activating conda environment: /fast/work/users/helmsauk_c/nano-wgs/.snakemake/conda/4a95a64c
Annotation package QDNAseq.hg19 not found.
Downloading bin annotations for genome hg19, bin size 100kbp, and experiment type SR50 from URL http://qdnaseq-ireland.s3.amazonaws.com ...
    ecDNA-round3.21258.minimap_hg19.sorted (1 of 1): extracting reads ... binning ...
Note: Residual filter missing for chromosomes: X
30,970	total bins
30,376	of which in selected chromosomes
28,529	of which with reference sequence
27,098	final bins
Calculating correction for GC content and mappability
    Calculating fit for sample ecDNA-round3.21258.minimap_hg19.sorted (1 of 1) ...
Done.
Applying median normalization ...
Performing segmentation:
NA
EM algorithm started ... 

[1] "Total number of segments present in the data: 27"
[1] "Number of segments used for fitting the model: 27"
33911576746236181.251.5494665212255594264.293.6431634812244558230.693.5
Calling iteration1:

optim results
time: 1
minimum: 13586.1754983288
113560.0893261593-1.70082455908963-0.61744155855517-0.04999415322185470.1233027376647970.2107874222925170.7781747785098950.973808328496304-0.07080143644973250.0649360861959414-0.1628124644900550.6822747832907891.48279717240114
33926686749798181.251.5642755812255594343.393.6494665212244558264.293.5
Calling iteration2:

optim results
time: 0
minimum: 13582.1646822722
113559.2874387441-1.90885239779927-0.654350569871117-0.04998740321166760.1175117355603550.2008876388067330.7350326656531341.031253638004420.004700349972976040.0250793717345855-0.06315191735936370.6335642343999621.38410734875969
33926686749798181.251.5642755812255594343.393.6642755812244558343.393.5
Calling iteration3:

optim results
time: 1
minimum: 13581.1999123497
113558.8089037406-1.96974933121741-0.654240434114334-0.050.1000020272519260.1709545947452030.4710280418566051.03975383845549-0.0003447851288826520.0114673755743950.007176257679764110.5601708721509531.2662729983554
33926686749798181.251.5642755812255594343.393.6642755812244558343.393.5
Calling iteration4:

optim results
time: 0
minimum: 13580.4710784186
113558.4061897397-2.02052575205169-0.642255488285909-0.050.1000005302171190.1709520355472970.4709897950059661.049252079658250.00096487553224520.0116158733558077-0.003975441718028020.5301061783700931.1754933838206
EM algorithm done ...

Computing posterior probabilities for all segments ...

Total time:0minutes

Adjusting segmented data for cellularity ... 

Cellularity sample1: 1

Adjusting normalized data for cellularity ... 

Cellularity sample1: 1

1
33953356888955181.452.6642755812255594343.393.6642755812244558343.393.5
33953547024453181.453.6642755814786712343.3112.9642755812244558343.393.5
33953527024451181.453.6642755814786712343.3112.9642755812244558343.393.5
33953787242708181.455.3642755814786712343.3112.9642755812244558343.393.5
33958087243662181.455.3642755814786712343.3112.9642755812244558343.393.5
33958147243665181.455.3642755814786712343.3112.9642755812244558343.393.5
33958207243668181.455.3642755814786712343.3112.9642755812244558343.393.5
33958267243671181.455.3642755814786712343.3112.9642755812244558343.393.5
33958327243674181.455.3642755814786712343.3112.9642755812244558343.393.5
33958357243676181.455.3642755814786712343.3112.9642755812244558343.393.5
33958537325005181.455.9642755814786712343.3112.9642755812244558343.393.5
33962807325350181.455.9642755814786712343.3112.9642755812244558343.393.5
FINISHED!

Total time:0minutes

There were 50 or more warnings (use warnings() to see the first 50)
Plotting sample ecDNA-round3.21258.minimap_hg19.sorted (173,786 reads) (1 of 1) ...
null device 
          1 
[Mon May 13 08:03:03 2019]
Finished job 0.
1 of 1 steps (100%) done
