Wildcard constraints in inputs are ignored.
Building DAG of jobs...
Using shell: /usr/bin/bash
Provided cores: 32
Rules claiming more threads will be scaled down.
Job counts:
	count	jobs
	1	nanocomp_after_demultiplexing
	1

[Mon May 13 08:04:52 2019]
rule nanocomp_after_demultiplexing:
    input: /fast/users/helmsauk_c/scratch/Henssen_eccDNA_Nanopore_April2019/Basecalled/ecDNA-round2-basecalled/demultiplexed/ecDNA-round2.NoBarcode.fastq
    output: /fast/users/helmsauk_c/scratch/Henssen_eccDNA_Nanopore_April2019/Basecalled/ecDNA-round2-basecalled/ecDNA-round2-QC/ecDNA-round2-NanoComp-report.html
    jobid: 0
    wildcards: dataset=ecDNA-round2

NanoComp --fastq /fast/users/helmsauk_c/scratch/Henssen_eccDNA_Nanopore_April2019/Basecalled/ecDNA-round2-basecalled/demultiplexed/ecDNA-round2*.fastq --outdir /fast/users/helmsauk_c/scratch/Henssen_eccDNA_Nanopore_April2019/Basecalled/ecDNA-round2-basecalled/ecDNA-round2-QC --format pdf --title ecDNA-round2 --prefix ecDNA-round2-
[Mon May 13 08:07:11 2019]
Finished job 0.
1 of 1 steps (100%) done
