Wildcard constraints in inputs are ignored.
Building DAG of jobs...
Using shell: /usr/bin/bash
Provided cores: 32
Rules claiming more threads will be scaled down.
Job counts:
	count	jobs
	1	copynumber
	1

[Mon May 13 08:00:48 2019]
rule copynumber:
    input: /fast/users/helmsauk_c/scratch/Henssen_eccDNA_Nanopore_April2019/Alignment/ecDNA-round2-alignment/ecDNA-round2.23570.minimap_hg19.sorted.bam
    output: /fast/users/helmsauk_c/scratch/Henssen_eccDNA_Nanopore_April2019/CopyNumber/ecDNA-round2-copynumber/ecDNA-round2.23570.minimap_hg19.sorted.copynumber.pdf, /fast/users/helmsauk_c/scratch/Henssen_eccDNA_Nanopore_April2019/CopyNumber/ecDNA-round2-copynumber/ecDNA-round2.23570.minimap_hg19.sorted.copynumber.Rdata
    jobid: 0
    wildcards: run=ecDNA-round2, alignment=ecDNA-round2.23570.minimap_hg19

Rscript cnprofile.R /fast/users/helmsauk_c/scratch/Henssen_eccDNA_Nanopore_April2019/Alignment/ecDNA-round2-alignment/ecDNA-round2.23570.minimap_hg19.sorted.bam /fast/users/helmsauk_c/scratch/Henssen_eccDNA_Nanopore_April2019/CopyNumber/ecDNA-round2-copynumber/ecDNA-round2.23570.minimap_hg19.sorted.copynumber.pdf /fast/users/helmsauk_c/scratch/Henssen_eccDNA_Nanopore_April2019/CopyNumber/ecDNA-round2-copynumber/ecDNA-round2.23570.minimap_hg19.sorted.copynumber.Rdata
Activating conda environment: /fast/work/users/helmsauk_c/nano-wgs/.snakemake/conda/4a95a64c
Annotation package QDNAseq.hg19 not found.
Downloading bin annotations for genome hg19, bin size 100kbp, and experiment type SR50 from URL http://qdnaseq-ireland.s3.amazonaws.com ...
    ecDNA-round2.23570.minimap_hg19.sorted (1 of 1): extracting reads ... binning ...
Note: Residual filter missing for chromosomes: X
30,970	total bins
30,376	of which in selected chromosomes
28,529	of which with reference sequence
27,098	final bins
Calculating correction for GC content and mappability
    Calculating fit for sample ecDNA-round2.23570.minimap_hg19.sorted (1 of 1) ...
Done.
Applying median normalization ...
Performing segmentation:
NA
EM algorithm started ... 

[1] "Total number of segments present in the data: 25"
[1] "Number of segments used for fitting the model: 24"
33911546746074181.251.5494665212255594264.293.6431325312255164230.493.5
Calling iteration1:

optim results
time: 1
minimum: 13551.4560015557
113542.4376335263-1.15439760994295-0.215510437451619-0.01226554813731140.1955347865348490.334268925433320.9114911005300720.352815904957019-0.01410354124760350.0139204234367922-0.01867368970988150.1599025182851150.205379587805665
33926656749618181.251.5642755012255594343.393.6494665212255164264.293.5
Calling iteration2:

optim results
time: 0
minimum: 13551.3943147448
113542.1173472884-1.15486819799934-0.12033475636237-0.01575563325071370.1047015441067690.1789884718724541.415974116723380.3532189669384490.0007558984062457520.01121664388432990.002369878139608010.01193093798686121.74718421241001
33926656749618181.251.5642755012255594343.393.6642755012255164343.393.5
Calling iteration3:

optim results
time: 0
minimum: 13551.7931089914
113542.0788336139-1.13574470321623-0.103597237436769-0.01634537343188060.1006792116461630.1721122491134790.7237428576825610.354891448762048-0.003561954269166780.0114253377846707-0.005470355200080940.05892097247397840.362791219212136
33926656749618181.251.5642755012255594343.393.6642755012255164343.393.5
Calling iteration4:

optim results
time: 0
minimum: 13551.5356075603
113542.0675458103-1.12233687557296-0.101866046944763-0.01717447263336790.1006120459206640.1719974285473460.7074193875729380.3524631437695890.001789434861481720.0112253503987169-0.002077308150544280.01030808121267180.472180218287957
EM algorithm done ...

Computing posterior probabilities for all segments ...

Total time:0minutes

Adjusting segmented data for cellularity ... 

Cellularity sample1: 1

Adjusting normalized data for cellularity ... 

Cellularity sample1: 1

1
33953356888933181.452.6642755012255594343.393.6642755012255164343.393.5
33953547024431181.453.6642755014786712343.3112.9642755012255164343.393.5
33953527024429181.453.6642755014786712343.3112.9642755012255164343.393.5
33953787242753181.455.3642755014786712343.3112.9642755012255164343.393.5
33958087243707181.455.3642755014786712343.3112.9642755012255164343.393.5
33958147243710181.455.3642755014786712343.3112.9642755012255164343.393.5
33958207243713181.455.3642755014786712343.3112.9642755012255164343.393.5
33958267243716181.455.3642755014786712343.3112.9642755012255164343.393.5
33958327243719181.455.3642755014786712343.3112.9642755012255164343.393.5
33958357243721181.455.3642755014786712343.3112.9642755012255164343.393.5
33958537325050181.455.9642755014786712343.3112.9642755012255164343.393.5
33962807325395181.455.9642755014786712343.3112.9642755012255164343.393.5
FINISHED!

Total time:0minutes

There were 50 or more warnings (use warnings() to see the first 50)
Plotting sample ecDNA-round2.23570.minimap_hg19.sorted (163,610 reads) (1 of 1) ...
null device 
          1 
[Mon May 13 08:01:08 2019]
Finished job 0.
1 of 1 steps (100%) done
