Wildcard constraints in inputs are ignored.
Building DAG of jobs...
Using shell: /usr/bin/bash
Provided cores: 32
Rules claiming more threads will be scaled down.
Job counts:
	count	jobs
	1	samanalysis_genomic_alignment
	1

[Mon May 13 05:47:07 2019]
rule samanalysis_genomic_alignment:
    input: /fast/users/helmsauk_c/scratch/Henssen_eccDNA_Nanopore_April2019/Alignment/ecDNA-round3-alignment/ecDNA-round3.NoBarcode.minimap_hg19.sam, /fast/users/helmsauk_c/scratch/Henssen_eccDNA_Nanopore_April2019/Alignment/ecDNA-round3-alignment/ecDNA-round3.NoBarcode.minimap_hg19.paf
    output: /fast/users/helmsauk_c/scratch/Henssen_eccDNA_Nanopore_April2019/Alignment/ecDNA-round3-alignment/ecDNA-round3.NoBarcode.minimap_hg19.sam-samanalysis/stats.txt
    jobid: 0
    wildcards: run=ecDNA-round3, alignment=ecDNA-round3.NoBarcode.minimap_hg19

python samanalysis-genomicalignment.py /fast/users/helmsauk_c/scratch/Henssen_eccDNA_Nanopore_April2019/Alignment/ecDNA-round3-alignment/ecDNA-round3.NoBarcode.minimap_hg19.sam /fast/users/helmsauk_c/scratch/Henssen_eccDNA_Nanopore_April2019/Alignment/ecDNA-round3-alignment/ecDNA-round3.NoBarcode.minimap_hg19.paf
mkdir: cannot create directory ‘/fast/users/helmsauk_c/scratch/Henssen_eccDNA_Nanopore_April2019/Alignment/ecDNA-round3-alignment/ecDNA-round3.NoBarcode.minimap_hg19.sam-samanalysis/’: File exists
[Mon May 13 05:47:16 2019]
Finished job 0.
1 of 1 steps (100%) done
