Wildcard constraints in inputs are ignored.
Building DAG of jobs...
Using shell: /usr/bin/bash
Provided cores: 32
Rules claiming more threads will be scaled down.
Job counts:
	count	jobs
	1	sniffles
	1

[Mon May 13 08:05:01 2019]
rule sniffles:
    input: /fast/users/helmsauk_c/scratch/Henssen_eccDNA_Nanopore_April2019/Alignment/ecDNA-round2-alignment/ecDNA-round2.23484.ngmlr_hg19.sorted.bam
    output: /fast/users/helmsauk_c/scratch/Henssen_eccDNA_Nanopore_April2019/SV/ecDNA-round2-sv/ecDNA-round2.23484.ngmlr_hg19.sorted.sniffles.vcf
    jobid: 0
    wildcards: run=ecDNA-round2, alignment=ecDNA-round2.23484.ngmlr_hg19

sniffles -m /fast/users/helmsauk_c/scratch/Henssen_eccDNA_Nanopore_April2019/Alignment/ecDNA-round2-alignment/ecDNA-round2.23484.ngmlr_hg19.sorted.bam -v /fast/users/helmsauk_c/scratch/Henssen_eccDNA_Nanopore_April2019/SV/ecDNA-round2-sv/ecDNA-round2.23484.ngmlr_hg19.sorted.sniffles.vcf
Estimating parameter...
	Max dist between aln events: 9
	Max diff in window: 50
	Min score ratio: 2
	Avg DEL ratio: 0.039619
	Avg INS ratio: 0.0215029
Start parsing... chr1
	Switch Chr chr10
	Switch Chr chr11
	Switch Chr chr12
		# Processed reads: 10000
	Switch Chr chr13
	Switch Chr chr14
	Switch Chr chr15
	Switch Chr chr16
	Switch Chr chr17
	Switch Chr chr17_gl000204_random
	Switch Chr chr17_gl000205_random
	Switch Chr chr18
	Switch Chr chr19
		# Processed reads: 20000
	Switch Chr chr19_gl000208_random
	Switch Chr chr19_gl000209_random
	Switch Chr chr2
	Switch Chr chr20
	Switch Chr chr21
	Switch Chr chr22
		# Processed reads: 30000
	Switch Chr chr3
	Switch Chr chr4
	Switch Chr chr4_gl000193_random
	Switch Chr chr4_gl000194_random
	Switch Chr chr5
	Switch Chr chr6
		# Processed reads: 40000
	Switch Chr chr7
	Switch Chr chr7_gl000195_random
	Switch Chr chr8
	Switch Chr chr9
	Switch Chr chr9_gl000198_random
	Switch Chr chrM
		# Processed reads: 50000
	Switch Chr chrUn_gl000211
	Switch Chr chrUn_gl000212
	Switch Chr chrUn_gl000214
	Switch Chr chrUn_gl000218
	Switch Chr chrUn_gl000219
	Switch Chr chrUn_gl000220
	Switch Chr chrUn_gl000223
	Switch Chr chrUn_gl000224
	Switch Chr chrUn_gl000225
	Switch Chr chrUn_gl000228
	Switch Chr chrUn_gl000230
	Switch Chr chrUn_gl000232
	Switch Chr chrUn_gl000234
	Switch Chr chrUn_gl000235
	Switch Chr chrUn_gl000237
	Switch Chr chrUn_gl000241
	Switch Chr chrUn_gl000246
	Switch Chr chrX
	Switch Chr chrY
Finalizing  ..
[Mon May 13 08:05:06 2019]
Finished job 0.
1 of 1 steps (100%) done
