Wildcard constraints in inputs are ignored.
Building DAG of jobs...
Using shell: /usr/bin/bash
Provided cores: 32
Rules claiming more threads will be scaled down.
Job counts:
	count	jobs
	1	ngmlr2genome
	1

[Mon May 13 07:17:02 2019]
rule ngmlr2genome:
    input: /fast/users/helmsauk_c/scratch/Henssen_eccDNA_Nanopore_April2019/Basecalled/ecDNA-round2-basecalled/demultiplexed/ecDNA-round2.23570.fastq, /fast/projects/cubit/current/static_data/reference/hg19/ucsc/hg19.fa
    output: /fast/users/helmsauk_c/scratch/Henssen_eccDNA_Nanopore_April2019/Alignment/ecDNA-round2-alignment/ecDNA-round2.23570.ngmlr_hg19.sam
    jobid: 0
    wildcards: run=ecDNA-round2, runsample=ecDNA-round2.23570

ngmlr -r /fast/projects/cubit/current/static_data/reference/hg19/ucsc/hg19.fa -q /fast/users/helmsauk_c/scratch/Henssen_eccDNA_Nanopore_April2019/Basecalled/ecDNA-round2-basecalled/demultiplexed/ecDNA-round2.23570.fastq -o /fast/users/helmsauk_c/scratch/Henssen_eccDNA_Nanopore_April2019/Alignment/ecDNA-round2-alignment/ecDNA-round2.23570.ngmlr_hg19.sam -x ont
ngmlr 0.2.7 (build: Mar  8 2019 09:29:16, start: 2019-05-13.07:17:02)
Contact: philipp.rescheneder@univie.ac.at
Opening for output (SAM): /fast/users/helmsauk_c/scratch/Henssen_eccDNA_Nanopore_April2019/Alignment/ecDNA-round2-alignment/ecDNA-round2.23570.ngmlr_hg19.sam
Encoding reference sequence.
Size of reference genome 3101 Mbp (max. 68719 Mbp)
0 reference sequences were skipped (length < 10).
Writing encoded reference to /fast/projects/cubit/current/static_data/reference/hg19/ucsc/hg19.fa-enc.2.ngm
WARNING: Could not write encoded reference file to disk: Unable to open output file /fast/projects/cubit/current/static_data/reference/hg19/ucsc/hg19.fa-enc.2.ngm. Please check file permissions.
Building reference index #0 (kmer length: 13, reference skip: 2)
57552 prefixes were ignored due to the frequency cutoff (1000)
Overall time for creating RefTable: 254.22s
Writing reference index to /fast/projects/cubit/current/static_data/reference/hg19/ucsc/hg19.fa-ht-13-2.2.ngm
WARNING: Could not write reference index to disk: Error while opening file /fast/projects/cubit/current/static_data/reference/hg19/ucsc/hg19.fa-ht-13-2.2.ngm for writing. Please check file permissions.
Opening query file /fast/users/helmsauk_c/scratch/Henssen_eccDNA_Nanopore_April2019/Basecalled/ecDNA-round2-basecalled/demultiplexed/ecDNA-round2.23570.fastq
Mapping reads...
Processed: 137 (0.87), R/S: 68.50, RL: 2120, Time: 25.29 2.75 68.41, Align: 1.00, 399, 0.79
[A[2KProcessed: 254 (0.87), R/S: 63.50, RL: 2333, Time: 20.16 2.00 74.57, Align: 1.00, 386, 0.85
[A[2KProcessed: 370 (0.89), R/S: 61.66, RL: 2482, Time: 19.00 2.00 74.90, Align: 1.00, 403, 0.85
[A[2KProcessed: 474 (0.88), R/S: 59.25, RL: 2534, Time: 18.00 2.00 76.00, Align: 1.00, 405, 0.85
[A[2KProcessed: 592 (0.89), R/S: 59.20, RL: 2545, Time: 18.00 2.00 76.06, Align: 1.00, 396, 0.85
[A[2KProcessed: 692 (0.88), R/S: 57.66, RL: 2643, Time: 18.00 2.00 76.86, Align: 1.00, 397, 0.85
[A[2KProcessed: 828 (0.87), R/S: 59.14, RL: 2603, Time: 18.00 2.00 76.05, Align: 1.00, 390, 0.86
[A[2KProcessed: 954 (0.86), R/S: 59.62, RL: 2628, Time: 18.00 2.00 76.00, Align: 1.00, 390, 0.85
[A[2KProcessed: 1037 (0.86), R/S: 57.61, RL: 2668, Time: 18.00 2.00 76.00, Align: 1.00, 390, 0.86
[A[2KProcessed: 1137 (0.86), R/S: 56.85, RL: 2721, Time: 17.01 2.00 77.00, Align: 1.00, 394, 0.87
[A[2KProcessed: 1244 (0.86), R/S: 56.54, RL: 2748, Time: 17.75 2.00 77.00, Align: 1.00, 388, 0.87
[A[2KProcessed: 1310 (0.86), R/S: 54.58, RL: 2823, Time: 17.06 2.00 77.00, Align: 1.00, 388, 0.88
[A[2KProcessed: 1356 (0.86), R/S: 52.15, RL: 2827, Time: 17.00 2.00 74.19, Align: 1.00, 386, 0.88
[A[2KProcessed: 1469 (0.86), R/S: 52.46, RL: 2810, Time: 17.00 2.00 74.12, Align: 1.00, 384, 0.88
[A[2KProcessed: 1609 (0.86), R/S: 53.63, RL: 2772, Time: 17.00 2.00 74.95, Align: 1.00, 381, 0.88
[A[2KProcessed: 1710 (0.86), R/S: 53.43, RL: 2807, Time: 17.00 2.00 75.00, Align: 1.00, 382, 0.88
[A[2KProcessed: 1826 (0.86), R/S: 53.70, RL: 2803, Time: 17.00 2.00 75.00, Align: 1.00, 381, 0.88
[A[2KProcessed: 1910 (0.86), R/S: 53.05, RL: 2851, Time: 17.00 2.00 75.00, Align: 1.00, 382, 0.88
[A[2KProcessed: 1999 (0.86), R/S: 52.60, RL: 2873, Time: 17.00 2.00 75.00, Align: 1.00, 383, 0.88
[A[2KProcessed: 2130 (0.86), R/S: 53.24, RL: 2882, Time: 17.00 2.00 75.00, Align: 1.00, 382, 0.88
[A[2KProcessed: 2225 (0.86), R/S: 52.97, RL: 2867, Time: 17.00 2.00 75.00, Align: 1.00, 382, 0.88
[A[2KProcessed: 2321 (0.86), R/S: 52.74, RL: 2877, Time: 17.00 2.00 75.00, Align: 1.00, 379, 0.88
[A[2KProcessed: 2472 (0.86), R/S: 53.73, RL: 2846, Time: 17.00 2.00 75.00, Align: 1.00, 380, 0.88
[A[2KProcessed: 2594 (0.86), R/S: 54.03, RL: 2832, Time: 17.00 2.00 76.00, Align: 1.00, 379, 0.88
[A[2KProcessed: 2706 (0.86), R/S: 54.11, RL: 2832, Time: 17.00 2.00 76.00, Align: 1.00, 380, 0.87
[A[2KProcessed: 2790 (0.86), R/S: 53.65, RL: 2864, Time: 17.00 2.00 76.00, Align: 1.00, 383, 0.88
[A[2KProcessed: 2910 (0.86), R/S: 53.88, RL: 2854, Time: 17.00 2.00 76.00, Align: 1.00, 383, 0.88
[A[2KProcessed: 3024 (0.86), R/S: 53.99, RL: 2847, Time: 17.00 2.00 76.00, Align: 1.00, 384, 0.88
[A[2KProcessed: 3116 (0.86), R/S: 53.72, RL: 2860, Time: 17.00 2.00 76.00, Align: 1.00, 384, 0.88
[A[2KProcessed: 3222 (0.86), R/S: 53.69, RL: 2864, Time: 17.00 2.00 76.00, Align: 1.00, 383, 0.88
[A[2KProcessed: 3312 (0.86), R/S: 53.41, RL: 2879, Time: 17.00 2.00 76.00, Align: 1.00, 383, 0.87
[A[2KProcessed: 3400 (0.86), R/S: 53.12, RL: 2885, Time: 17.00 2.00 76.00, Align: 1.00, 384, 0.87
[A[2KProcessed: 3513 (0.86), R/S: 53.22, RL: 2882, Time: 17.00 2.00 76.00, Align: 1.00, 384, 0.87
[A[2KProcessed: 3635 (0.86), R/S: 53.45, RL: 2871, Time: 17.00 2.00 75.00, Align: 1.00, 383, 0.87
[A[2KProcessed: 3771 (0.86), R/S: 53.87, RL: 2863, Time: 17.00 2.00 75.12, Align: 1.00, 382, 0.87
[A[2KProcessed: 3878 (0.86), R/S: 53.85, RL: 2855, Time: 17.00 2.00 76.00, Align: 1.00, 382, 0.87
[A[2KProcessed: 3966 (0.86), R/S: 53.59, RL: 2880, Time: 17.00 2.00 76.00, Align: 1.00, 381, 0.87
[A[2KProcessed: 4072 (0.87), R/S: 53.57, RL: 2883, Time: 17.00 2.00 76.00, Align: 1.00, 380, 0.87
[A[2KProcessed: 4186 (0.86), R/S: 53.66, RL: 2885, Time: 17.00 2.00 76.00, Align: 1.00, 381, 0.87
[A[2KProcessed: 4337 (0.86), R/S: 54.21, RL: 2859, Time: 17.00 2.00 76.00, Align: 1.00, 380, 0.87
[A[2KProcessed: 4481 (0.86), R/S: 54.64, RL: 2845, Time: 17.00 2.00 76.00, Align: 1.00, 380, 0.87
[A[2KProcessed: 4602 (0.86), R/S: 54.78, RL: 2843, Time: 17.00 2.00 76.00, Align: 1.00, 380, 0.87
[A[2KProcessed: 4685 (0.86), R/S: 54.47, RL: 2846, Time: 17.00 2.00 76.00, Align: 1.00, 379, 0.87
[A[2KProcessed: 4799 (0.86), R/S: 54.53, RL: 2841, Time: 17.00 2.00 76.00, Align: 1.00, 380, 0.87
[A[2KProcessed: 4943 (0.86), R/S: 54.92, RL: 2828, Time: 17.00 2.00 76.00, Align: 1.00, 380, 0.87
[A[2KProcessed: 5054 (0.86), R/S: 54.93, RL: 2814, Time: 17.00 2.00 76.00, Align: 1.00, 381, 0.87
[A[2KProcessed: 5185 (0.86), R/S: 55.15, RL: 2806, Time: 17.00 2.00 76.00, Align: 1.00, 381, 0.87
[A[2KProcessed: 5329 (0.86), R/S: 55.50, RL: 2791, Time: 17.00 2.00 76.00, Align: 1.00, 381, 0.87
[A[2KProcessed: 5420 (0.86), R/S: 55.30, RL: 2798, Time: 17.00 2.00 76.00, Align: 1.00, 381, 0.87
[A[2KProcessed: 5501 (0.86), R/S: 55.00, RL: 2813, Time: 17.00 2.00 76.00, Align: 1.00, 381, 0.87
[A[2KProcessed: 5639 (0.86), R/S: 55.28, RL: 2800, Time: 17.00 2.00 76.00, Align: 1.00, 380, 0.87
[A[2KProcessed: 5717 (0.86), R/S: 54.97, RL: 2814, Time: 17.00 2.00 76.00, Align: 1.00, 380, 0.87
[A[2KProcessed: 5831 (0.86), R/S: 55.00, RL: 2818, Time: 17.00 2.00 76.00, Align: 1.00, 381, 0.87
[A[2KProcessed: 5935 (0.86), R/S: 54.95, RL: 2811, Time: 17.00 2.00 76.00, Align: 1.00, 380, 0.87
[A[2KProcessed: 6072 (0.86), R/S: 55.19, RL: 2800, Time: 17.00 2.00 76.00, Align: 1.00, 379, 0.87
[A[2KProcessed: 6169 (0.86), R/S: 55.07, RL: 2806, Time: 17.00 2.00 76.00, Align: 1.00, 379, 0.88
[A[2KProcessed: 6265 (0.86), R/S: 54.95, RL: 2808, Time: 17.00 2.00 76.00, Align: 1.00, 379, 0.88
[A[2KProcessed: 6355 (0.86), R/S: 54.78, RL: 2813, Time: 17.00 2.00 76.00, Align: 1.00, 378, 0.88
[A[2KProcessed: 6495 (0.86), R/S: 55.04, RL: 2802, Time: 17.00 2.00 76.00, Align: 1.00, 378, 0.88
[A[2KProcessed: 6603 (0.86), R/S: 55.02, RL: 2803, Time: 17.00 2.00 76.00, Align: 1.00, 379, 0.88
[A[2KProcessed: 6711 (0.86), R/S: 55.00, RL: 2808, Time: 17.00 2.00 76.00, Align: 1.00, 379, 0.88
[A[2KProcessed: 6815 (0.86), R/S: 54.95, RL: 2809, Time: 17.00 2.00 76.00, Align: 1.00, 379, 0.88
[A[2KProcessed: 6950 (0.86), R/S: 55.15, RL: 2803, Time: 17.00 2.00 76.00, Align: 1.00, 379, 0.88
[A[2KProcessed: 7026 (0.86), R/S: 54.89, RL: 2808, Time: 17.00 2.00 76.00, Align: 1.00, 379, 0.88
[A[2KProcessed: 7116 (0.86), R/S: 54.73, RL: 2816, Time: 17.00 2.00 76.00, Align: 1.00, 379, 0.88
[A[2KProcessed: 7259 (0.86), R/S: 54.99, RL: 2808, Time: 17.00 2.00 76.00, Align: 1.00, 379, 0.88
[A[2KProcessed: 7383 (0.86), R/S: 55.09, RL: 2804, Time: 17.00 2.00 76.00, Align: 1.00, 379, 0.88
[A[2KProcessed: 7462 (0.86), R/S: 54.86, RL: 2814, Time: 17.00 2.00 76.00, Align: 1.00, 379, 0.88
[A[2KProcessed: 7576 (0.86), R/S: 54.89, RL: 2814, Time: 17.00 2.00 76.00, Align: 1.00, 379, 0.88
[A[2KProcessed: 7688 (0.86), R/S: 54.91, RL: 2808, Time: 17.00 2.00 76.00, Align: 1.00, 378, 0.88
[A[2KProcessed: 7792 (0.86), R/S: 54.87, RL: 2815, Time: 17.00 2.00 76.00, Align: 1.00, 378, 0.88
[A[2KProcessed: 7888 (0.86), R/S: 54.77, RL: 2815, Time: 17.00 2.00 76.00, Align: 1.00, 378, 0.88
[A[2KProcessed: 8004 (0.86), R/S: 54.82, RL: 2814, Time: 17.00 2.00 76.00, Align: 1.00, 378, 0.88
[A[2KProcessed: 8092 (0.86), R/S: 54.67, RL: 2824, Time: 17.00 2.00 76.00, Align: 1.00, 378, 0.88
[A[2KProcessed: 8243 (0.86), R/S: 54.95, RL: 2813, Time: 17.00 2.00 76.00, Align: 1.00, 378, 0.88
[A[2KProcessed: 8342 (0.86), R/S: 54.88, RL: 2816, Time: 17.00 2.00 76.00, Align: 1.00, 378, 0.88
[A[2KProcessed: 8464 (0.86), R/S: 54.96, RL: 2813, Time: 17.00 2.00 76.00, Align: 1.00, 378, 0.88
[A[2KProcessed: 8539 (0.86), R/S: 54.73, RL: 2811, Time: 17.00 2.00 76.00, Align: 1.00, 377, 0.88
[A[2KProcessed: 8641 (0.86), R/S: 54.68, RL: 2809, Time: 17.00 2.00 76.00, Align: 1.00, 377, 0.88
[A[2KProcessed: 8732 (0.86), R/S: 54.57, RL: 2814, Time: 17.00 2.00 76.00, Align: 1.00, 376, 0.88
[A[2KProcessed: 8867 (0.86), R/S: 54.73, RL: 2808, Time: 17.00 2.00 76.00, Align: 1.00, 376, 0.88
[A[2KProcessed: 8978 (0.86), R/S: 54.74, RL: 2806, Time: 17.00 2.00 76.00, Align: 1.00, 376, 0.88
[A[2KProcessed: 9098 (0.86), R/S: 54.80, RL: 2805, Time: 17.00 2.00 76.00, Align: 1.00, 377, 0.88
[A[2KProcessed: 9233 (0.86), R/S: 54.95, RL: 2803, Time: 17.00 2.00 76.00, Align: 1.00, 376, 0.88
[A[2KProcessed: 9334 (0.86), R/S: 54.90, RL: 2804, Time: 17.00 2.00 76.00, Align: 1.00, 376, 0.88
[A[2KProcessed: 9450 (0.86), R/S: 54.94, RL: 2805, Time: 17.00 2.00 76.00, Align: 1.00, 376, 0.88
[A[2KProcessed: 9530 (0.86), R/S: 54.76, RL: 2805, Time: 17.00 2.00 76.00, Align: 1.00, 376, 0.88
[A[2KProcessed: 9647 (0.86), R/S: 54.81, RL: 2803, Time: 17.00 2.00 76.00, Align: 1.00, 376, 0.88
[A[2KProcessed: 9715 (0.86), R/S: 54.57, RL: 2806, Time: 17.00 2.00 76.00, Align: 1.00, 376, 0.88
[A[2KProcessed: 9850 (0.86), R/S: 54.72, RL: 2805, Time: 17.00 2.00 76.00, Align: 1.00, 376, 0.88
[A[2KProcessed: 9981 (0.86), R/S: 54.84, RL: 2799, Time: 17.00 2.00 76.00, Align: 1.00, 376, 0.88
[A[2KProcessed: 10112 (0.86), R/S: 54.95, RL: 2793, Time: 17.00 2.00 76.00, Align: 1.00, 376, 0.88
[A[2KProcessed: 10243 (0.86), R/S: 55.06, RL: 2788, Time: 17.00 2.00 76.00, Align: 1.00, 377, 0.88
[A[2KProcessed: 10371 (0.86), R/S: 55.16, RL: 2786, Time: 17.00 2.00 76.00, Align: 1.00, 376, 0.88
[A[2KProcessed: 10502 (0.86), R/S: 55.27, RL: 2785, Time: 17.00 2.00 76.00, Align: 1.00, 376, 0.88
[A[2KProcessed: 10656 (0.86), R/S: 55.49, RL: 2774, Time: 17.00 2.00 76.00, Align: 1.00, 376, 0.88
[A[2KProcessed: 10760 (0.86), R/S: 55.46, RL: 2778, Time: 17.00 2.00 76.00, Align: 1.00, 376, 0.88
[A[2KProcessed: 10881 (0.86), R/S: 55.51, RL: 2778, Time: 17.00 2.00 76.00, Align: 1.00, 375, 0.88
[A[2KProcessed: 11027 (0.86), R/S: 55.69, RL: 2770, Time: 17.00 2.00 76.00, Align: 1.00, 375, 0.88
[A[2KProcessed: 11162 (0.86), R/S: 55.80, RL: 2768, Time: 17.00 2.00 76.00, Align: 1.00, 375, 0.88
[A[2KProcessed: 11270 (0.86), R/S: 55.79, RL: 2768, Time: 17.00 2.00 76.00, Align: 1.00, 376, 0.88
[A[2KProcessed: 11396 (0.86), R/S: 55.86, RL: 2763, Time: 17.00 2.00 76.00, Align: 1.00, 375, 0.88
[A[2KProcessed: 11523 (0.85), R/S: 55.93, RL: 2760, Time: 17.00 2.00 76.00, Align: 1.00, 376, 0.88
[A[2KProcessed: 11649 (0.85), R/S: 56.00, RL: 2757, Time: 17.00 2.00 76.00, Align: 1.00, 375, 0.88
[A[2KProcessed: 11759 (0.85), R/S: 55.99, RL: 2752, Time: 17.00 2.00 76.00, Align: 1.00, 376, 0.88
[A[2KProcessed: 11813 (0.85), R/S: 55.72, RL: 2757, Time: 17.00 2.00 76.00, Align: 1.00, 376, 0.88
[A[2KProcessed: 11913 (0.85), R/S: 55.66, RL: 2759, Time: 17.00 2.00 76.00, Align: 1.00, 376, 0.88
[A[2KProcessed: 12038 (0.85), R/S: 55.73, RL: 2757, Time: 17.00 2.00 76.00, Align: 1.00, 376, 0.88
[A[2KProcessed: 12134 (0.85), R/S: 55.66, RL: 2762, Time: 17.00 2.00 76.00, Align: 1.00, 376, 0.88
[A[2KProcessed: 12241 (0.85), R/S: 55.64, RL: 2766, Time: 17.00 2.00 76.00, Align: 1.00, 376, 0.88
[A[2KProcessed: 12339 (0.85), R/S: 55.58, RL: 2769, Time: 17.00 2.00 76.00, Align: 1.00, 376, 0.88
[A[2KProcessed: 12435 (0.85), R/S: 55.51, RL: 2770, Time: 17.00 2.00 76.00, Align: 1.00, 376, 0.88
[A[2KProcessed: 12534 (0.85), R/S: 55.45, RL: 2773, Time: 17.00 2.00 76.00, Align: 1.00, 376, 0.88
[A[2KProcessed: 12641 (0.85), R/S: 55.44, RL: 2771, Time: 17.00 2.00 76.00, Align: 1.00, 376, 0.88
[A[2KProcessed: 12750 (0.85), R/S: 55.43, RL: 2771, Time: 17.00 2.00 76.00, Align: 1.00, 376, 0.88
[A[2KProcessed: 12833 (0.85), R/S: 55.31, RL: 2774, Time: 17.00 2.00 76.00, Align: 1.00, 376, 0.88
[A[2KProcessed: 12941 (0.85), R/S: 55.30, RL: 2776, Time: 16.47 2.00 76.00, Align: 1.00, 376, 0.88
[A[2KProcessed: 13078 (0.85), R/S: 55.41, RL: 2771, Time: 17.00 2.00 76.88, Align: 1.00, 376, 0.88
[A[2KProcessed: 13203 (0.85), R/S: 55.47, RL: 2768, Time: 17.00 2.00 76.00, Align: 1.00, 377, 0.88
[A[2KProcessed: 13322 (0.85), R/S: 55.50, RL: 2766, Time: 17.00 2.00 76.00, Align: 1.00, 377, 0.88
[A[2KProcessed: 13415 (0.85), R/S: 55.43, RL: 2764, Time: 17.00 2.00 76.00, Align: 1.00, 377, 0.88
[A[2KProcessed: 13529 (0.85), R/S: 55.44, RL: 2761, Time: 17.00 2.00 76.00, Align: 1.00, 378, 0.88
[A[2KProcessed: 13634 (0.85), R/S: 55.42, RL: 2760, Time: 17.00 2.00 76.00, Align: 1.00, 378, 0.88
[A[2KProcessed: 13798 (0.85), R/S: 55.63, RL: 2750, Time: 16.98 2.00 76.00, Align: 1.00, 377, 0.88
[A[2KProcessed: 13915 (0.85), R/S: 55.65, RL: 2750, Time: 17.00 2.00 76.00, Align: 1.00, 377, 0.88
[A[2KProcessed: 14046 (0.85), R/S: 55.73, RL: 2748, Time: 17.00 2.00 76.00, Align: 1.00, 377, 0.88
[A[2KProcessed: 14169 (0.85), R/S: 55.78, RL: 2746, Time: 16.50 2.00 76.00, Align: 1.00, 377, 0.88
[A[2KProcessed: 14300 (0.85), R/S: 55.85, RL: 2745, Time: 17.00 2.00 76.00, Align: 1.00, 377, 0.88
[A[2KProcessed: 14425 (0.85), R/S: 55.91, RL: 2743, Time: 16.97 2.00 76.00, Align: 1.00, 377, 0.88
[A[2KProcessed: 14518 (0.85), R/S: 55.83, RL: 2745, Time: 16.03 2.00 76.00, Align: 1.00, 376, 0.88
[A[2KProcessed: 14648 (0.85), R/S: 55.90, RL: 2743, Time: 16.00 2.00 76.00, Align: 1.00, 376, 0.88
[A[2KProcessed: 14776 (0.85), R/S: 55.96, RL: 2739, Time: 16.00 2.00 76.00, Align: 1.00, 376, 0.88
[A[2KProcessed: 14903 (0.85), R/S: 56.02, RL: 2737, Time: 16.00 2.00 76.00, Align: 1.00, 376, 0.88
[A[2KProcessed: 15014 (0.85), R/S: 56.02, RL: 2737, Time: 16.00 2.00 76.00, Align: 1.00, 376, 0.88
[A[2KProcessed: 15099 (0.85), R/S: 55.92, RL: 2741, Time: 16.94 2.00 76.00, Align: 1.00, 376, 0.88
[A[2KProcessed: 15225 (0.85), R/S: 55.97, RL: 2739, Time: 16.88 2.00 76.00, Align: 1.00, 376, 0.88
[A[2KProcessed: 15332 (0.85), R/S: 55.95, RL: 2740, Time: 17.00 2.00 76.00, Align: 1.00, 376, 0.88
[A[2KProcessed: 15465 (0.85), R/S: 56.03, RL: 2737, Time: 17.00 2.00 76.00, Align: 1.00, 375, 0.88
[A[2KProcessed: 15568 (0.85), R/S: 55.99, RL: 2740, Time: 17.00 2.00 76.00, Align: 1.00, 375, 0.88
[A[2KProcessed: 15675 (0.85), R/S: 55.98, RL: 2743, Time: 17.00 2.00 76.00, Align: 1.00, 375, 0.88
[A[2KProcessed: 15785 (0.85), R/S: 55.97, RL: 2745, Time: 17.00 2.00 76.00, Align: 1.00, 376, 0.88
[A[2KProcessed: 15889 (0.85), R/S: 55.94, RL: 2744, Time: 16.06 2.00 76.00, Align: 1.00, 376, 0.88
[A[2KProcessed: 15967 (0.85), R/S: 55.82, RL: 2748, Time: 16.00 2.00 76.00, Align: 1.00, 377, 0.88
[A[2KProcessed: 16070 (0.85), R/S: 55.79, RL: 2749, Time: 16.00 2.00 76.00, Align: 1.00, 376, 0.88
[A[2KProcessed: 16207 (0.85), R/S: 55.88, RL: 2746, Time: 16.00 2.00 76.00, Align: 1.00, 376, 0.88
[A[2KProcessed: 16334 (0.85), R/S: 55.93, RL: 2747, Time: 16.00 2.00 76.00, Align: 1.00, 376, 0.88
[A[2KProcessed: 16429 (0.85), R/S: 55.88, RL: 2748, Time: 16.00 2.00 76.00, Align: 1.00, 377, 0.88
[A[2KProcessed: 16541 (0.85), R/S: 55.88, RL: 2749, Time: 16.00 2.00 76.00, Align: 1.00, 377, 0.88
[A[2KProcessed: 16641 (0.85), R/S: 55.84, RL: 2751, Time: 16.00 2.00 76.00, Align: 1.00, 377, 0.88
[A[2KProcessed: 16732 (0.85), R/S: 55.77, RL: 2751, Time: 16.00 2.00 76.00, Align: 1.00, 377, 0.88
[A[2KProcessed: 16826 (0.85), R/S: 55.71, RL: 2751, Time: 16.00 2.00 76.00, Align: 1.00, 377, 0.88
[A[2KProcessed: 16962 (0.85), R/S: 55.79, RL: 2752, Time: 16.00 2.00 76.00, Align: 1.00, 377, 0.88
[A[2KProcessed: 17057 (0.85), R/S: 55.74, RL: 2752, Time: 16.00 2.00 76.00, Align: 1.00, 377, 0.88
[A[2KProcessed: 17151 (0.85), R/S: 55.68, RL: 2753, Time: 16.00 2.00 76.00, Align: 1.00, 377, 0.88
[A[2KProcessed: 17246 (0.85), R/S: 55.63, RL: 2756, Time: 16.00 2.00 76.00, Align: 1.00, 377, 0.88
[A[2KProcessed: 17352 (0.85), R/S: 55.61, RL: 2755, Time: 16.00 2.00 76.00, Align: 1.00, 377, 0.88
[A[2KProcessed: 17456 (0.85), R/S: 55.59, RL: 2754, Time: 16.00 2.00 76.00, Align: 1.00, 377, 0.88
[A[2KProcessed: 17559 (0.85), R/S: 55.56, RL: 2755, Time: 16.00 2.00 77.00, Align: 1.00, 377, 0.88
[A[2KProcessed: 17667 (0.85), R/S: 55.55, RL: 2756, Time: 16.00 2.00 77.00, Align: 1.00, 377, 0.88
[A[2KProcessed: 17746 (0.85), R/S: 55.45, RL: 2758, Time: 16.00 2.00 76.00, Align: 1.00, 377, 0.88
[A[2KProcessed: 17865 (0.85), R/S: 55.48, RL: 2759, Time: 16.00 2.00 76.00, Align: 1.00, 377, 0.88
[A[2KProcessed: 17942 (0.85), R/S: 55.37, RL: 2764, Time: 16.00 2.00 76.00, Align: 1.00, 377, 0.88
[A[2KProcessed: 18097 (0.85), R/S: 55.51, RL: 2759, Time: 16.00 2.00 76.00, Align: 1.00, 377, 0.88
[A[2KProcessed: 18218 (0.85), R/S: 55.54, RL: 2759, Time: 16.00 2.00 76.00, Align: 1.00, 377, 0.88
[A[2KProcessed: 18317 (0.85), R/S: 55.50, RL: 2760, Time: 16.00 2.00 76.00, Align: 1.00, 376, 0.88
[A[2KProcessed: 18417 (0.85), R/S: 55.47, RL: 2757, Time: 16.00 2.00 76.00, Align: 1.00, 376, 0.88
[A[2KProcessed: 18501 (0.85), R/S: 55.39, RL: 2760, Time: 16.00 2.00 76.00, Align: 1.00, 376, 0.88
[A[2KProcessed: 18599 (0.85), R/S: 55.35, RL: 2757, Time: 16.00 2.00 76.00, Align: 1.00, 376, 0.88
[A[2KProcessed: 18736 (0.85), R/S: 55.43, RL: 2755, Time: 16.00 2.00 76.00, Align: 1.00, 376, 0.88
[A[2KProcessed: 18866 (0.85), R/S: 55.48, RL: 2754, Time: 16.00 2.00 76.00, Align: 1.00, 376, 0.88
[A[2KProcessed: 19004 (0.85), R/S: 55.56, RL: 2752, Time: 16.00 2.00 76.00, Align: 1.00, 375, 0.88
[A[2KProcessed: 19105 (0.85), R/S: 55.53, RL: 2754, Time: 16.00 2.00 76.00, Align: 1.00, 375, 0.88
[A[2KProcessed: 19210 (0.85), R/S: 55.51, RL: 2756, Time: 16.00 2.00 76.00, Align: 1.00, 375, 0.88
[A[2KProcessed: 19279 (0.85), R/S: 55.39, RL: 2757, Time: 16.00 2.00 76.00, Align: 1.00, 375, 0.88
[A[2KProcessed: 19378 (0.85), R/S: 55.36, RL: 2759, Time: 16.00 2.00 76.00, Align: 1.00, 375, 0.88
[A[2KProcessed: 19498 (0.85), R/S: 55.39, RL: 2760, Time: 16.00 2.00 76.00, Align: 1.00, 375, 0.88
[A[2KProcessed: 19617 (0.85), R/S: 55.41, RL: 2760, Time: 16.00 2.00 76.00, Align: 1.00, 375, 0.88
[A[2KProcessed: 19733 (0.85), R/S: 55.42, RL: 2761, Time: 16.00 2.00 76.00, Align: 1.00, 375, 0.88
[A[2KProcessed: 19844 (0.85), R/S: 55.42, RL: 2760, Time: 16.00 2.00 76.00, Align: 1.00, 375, 0.88
[A[2KProcessed: 19978 (0.85), R/S: 55.49, RL: 2758, Time: 16.00 2.00 76.00, Align: 1.00, 375, 0.88
[A[2KProcessed: 20096 (0.85), R/S: 55.51, RL: 2759, Time: 16.00 2.00 76.00, Align: 1.00, 375, 0.88
[A[2KProcessed: 20190 (0.85), R/S: 55.46, RL: 2763, Time: 16.00 2.00 76.00, Align: 1.00, 375, 0.88
[A[2KProcessed: 20290 (0.85), R/S: 55.43, RL: 2763, Time: 16.00 2.00 76.00, Align: 1.00, 375, 0.88
[A[2KProcessed: 20400 (0.85), R/S: 55.43, RL: 2764, Time: 16.00 2.00 76.00, Align: 1.00, 375, 0.88
[A[2KProcessed: 20482 (0.85), R/S: 55.35, RL: 2766, Time: 16.00 2.00 76.00, Align: 1.00, 375, 0.88
[A[2KProcessed: 20559 (0.85), R/S: 55.26, RL: 2769, Time: 16.00 2.00 76.00, Align: 1.00, 375, 0.88
[A[2KProcessed: 20678 (0.85), R/S: 55.28, RL: 2768, Time: 16.00 2.00 76.00, Align: 1.00, 375, 0.88
[A[2KProcessed: 20779 (0.85), R/S: 55.26, RL: 2771, Time: 16.00 2.00 76.00, Align: 1.00, 375, 0.88
[A[2KProcessed: 20848 (0.85), R/S: 55.15, RL: 2772, Time: 16.00 2.00 76.00, Align: 1.00, 375, 0.88
[A[2KProcessed: 20903 (0.85), R/S: 55.00, RL: 2773, Time: 16.00 2.00 76.00, Align: 1.00, 375, 0.88
[A[2KProcessed: 20993 (0.85), R/S: 54.95, RL: 2776, Time: 16.00 2.00 76.00, Align: 1.00, 375, 0.88
[A[2KProcessed: 21149 (0.85), R/S: 55.07, RL: 2771, Time: 16.00 2.00 76.00, Align: 1.00, 375, 0.88
[A[2KProcessed: 21258 (0.85), R/S: 55.07, RL: 2770, Time: 16.00 2.00 76.00, Align: 1.00, 376, 0.88
[A[2KProcessed: 21349 (0.85), R/S: 55.02, RL: 2771, Time: 16.00 2.00 76.00, Align: 1.00, 376, 0.88
[A[2KProcessed: 21460 (0.85), R/S: 55.02, RL: 2773, Time: 16.00 2.00 76.00, Align: 1.00, 376, 0.88
[A[2KProcessed: 21580 (0.85), R/S: 55.05, RL: 2773, Time: 16.00 2.00 76.00, Align: 1.00, 376, 0.88
[A[2KProcessed: 21724 (0.85), R/S: 55.13, RL: 2769, Time: 16.00 2.00 76.00, Align: 1.00, 375, 0.88
[A[2KProcessed: 21855 (0.85), R/S: 55.18, RL: 2767, Time: 16.00 2.00 76.00, Align: 1.00, 376, 0.88
[A[2KProcessed: 21990 (0.85), R/S: 55.25, RL: 2767, Time: 16.00 2.00 76.00, Align: 1.00, 375, 0.88
[A[2KProcessed: 22106 (0.85), R/S: 55.26, RL: 2766, Time: 16.00 2.00 76.00, Align: 1.00, 375, 0.88
[A[2KProcessed: 22205 (0.85), R/S: 55.23, RL: 2768, Time: 16.00 2.00 76.00, Align: 1.00, 375, 0.88
[A[2KProcessed: 22336 (0.85), R/S: 55.28, RL: 2766, Time: 16.00 2.00 76.00, Align: 1.00, 375, 0.88
[A[2KProcessed: 22444 (0.85), R/S: 55.28, RL: 2766, Time: 16.00 2.00 76.00, Align: 1.00, 375, 0.88
[A[2KProcessed: 22535 (0.85), R/S: 55.23, RL: 2764, Time: 16.00 2.00 76.00, Align: 1.00, 376, 0.88
[A[2KProcessed: 22620 (0.85), R/S: 55.17, RL: 2765, Time: 16.00 2.00 76.00, Align: 1.00, 376, 0.88
[A[2KProcessed: 22746 (0.85), R/S: 55.20, RL: 2765, Time: 16.00 2.00 76.00, Align: 1.00, 376, 0.88
[A[2KProcessed: 22842 (0.85), R/S: 55.17, RL: 2766, Time: 16.00 2.00 76.00, Align: 1.00, 376, 0.88
[A[2KProcessed: 22934 (0.85), R/S: 55.12, RL: 2765, Time: 16.00 2.00 76.00, Align: 1.00, 376, 0.88
[A[2KProcessed: 23026 (0.85), R/S: 55.08, RL: 2765, Time: 16.00 2.00 76.00, Align: 1.00, 376, 0.88
[A[2KProcessed: 23201 (0.85), R/S: 55.24, RL: 2760, Time: 16.00 2.00 76.00, Align: 1.00, 376, 0.88
[A[2KProcessed: 23339 (0.85), R/S: 55.30, RL: 2757, Time: 16.00 2.00 76.00, Align: 1.00, 375, 0.88
[A[2KProcessed: 23455 (0.85), R/S: 55.31, RL: 2758, Time: 16.00 2.00 76.00, Align: 1.00, 376, 0.88
[A[2KProcessed: 23591 (0.85), R/S: 55.37, RL: 2757, Time: 16.00 2.00 76.00, Align: 1.00, 376, 0.88
[A[2KProcessed: 23709 (0.85), R/S: 55.39, RL: 2756, Time: 16.00 2.00 76.00, Align: 1.00, 377, 0.88
[A[2KProcessed: 23796 (0.85), R/S: 55.33, RL: 2757, Time: 16.00 2.00 76.00, Align: 1.00, 376, 0.88
[A[2KProcessed: 23895 (0.85), R/S: 55.31, RL: 2758, Time: 16.00 2.00 76.00, Align: 1.00, 377, 0.88
[A[2KProcessed: 24022 (0.85), R/S: 55.34, RL: 2756, Time: 16.00 2.00 76.00, Align: 1.00, 377, 0.88
[A[2KProcessed: 24103 (0.85), R/S: 55.28, RL: 2760, Time: 16.00 2.00 76.00, Align: 1.00, 377, 0.88
[A[2KProcessed: 24223 (0.85), R/S: 55.30, RL: 2759, Time: 16.00 2.00 76.00, Align: 1.00, 377, 0.88
[A[2KProcessed: 24356 (0.85), R/S: 55.35, RL: 2758, Time: 16.00 2.00 76.00, Align: 1.00, 377, 0.88
[A[2KProcessed: 24434 (0.85), R/S: 55.28, RL: 2761, Time: 16.00 2.00 76.00, Align: 1.00, 377, 0.88
[A[2KProcessed: 24541 (0.85), R/S: 55.27, RL: 2762, Time: 16.00 2.00 76.00, Align: 1.00, 377, 0.88
[A[2KProcessed: 24678 (0.85), R/S: 55.33, RL: 2760, Time: 16.00 2.00 76.00, Align: 1.00, 377, 0.88
[A[2KProcessed: 24782 (0.85), R/S: 55.31, RL: 2761, Time: 16.00 2.00 76.00, Align: 1.00, 377, 0.88
[A[2KProcessed: 24890 (0.85), R/S: 55.31, RL: 2762, Time: 16.00 2.00 76.00, Align: 1.00, 377, 0.88
[A[2KProcessed: 24996 (0.85), R/S: 55.30, RL: 2761, Time: 16.00 2.00 76.00, Align: 1.00, 377, 0.88
[A[2KProcessed: 25090 (0.85), R/S: 55.26, RL: 2762, Time: 16.00 2.00 76.00, Align: 1.00, 377, 0.88
[A[2KProcessed: 25188 (0.85), R/S: 55.23, RL: 2762, Time: 16.00 2.00 76.00, Align: 1.00, 377, 0.88
[A[2KProcessed: 25268 (0.85), R/S: 55.16, RL: 2764, Time: 16.00 2.00 76.00, Align: 1.00, 377, 0.88
[A[2KProcessed: 25406 (0.85), R/S: 55.23, RL: 2761, Time: 16.00 2.00 76.00, Align: 1.00, 377, 0.88
[A[2KProcessed: 25532 (0.85), R/S: 55.26, RL: 2761, Time: 16.00 2.00 76.00, Align: 1.00, 377, 0.88
[A[2KProcessed: 25696 (0.85), R/S: 55.37, RL: 2756, Time: 16.00 2.00 76.00, Align: 1.00, 377, 0.88
[A[2KProcessed: 25817 (0.85), R/S: 55.40, RL: 2755, Time: 16.00 2.00 76.00, Align: 1.00, 377, 0.88
[A[2KProcessed: 25911 (0.85), R/S: 55.36, RL: 2758, Time: 16.00 2.00 76.00, Align: 1.00, 377, 0.88
[A[2KProcessed: 26012 (0.85), R/S: 55.34, RL: 2760, Time: 16.00 2.00 76.00, Align: 1.00, 376, 0.88
[A[2KProcessed: 26146 (0.85), R/S: 55.39, RL: 2759, Time: 16.00 2.00 76.00, Align: 1.00, 376, 0.88
[A[2KProcessed: 26269 (0.85), R/S: 55.41, RL: 2758, Time: 16.00 2.00 76.00, Align: 1.00, 376, 0.88
[A[2KProcessed: 26450 (0.85), R/S: 55.56, RL: 2752, Time: 16.00 2.00 76.00, Align: 1.00, 376, 0.88
[A[2KProcessed: 26547 (0.85), R/S: 55.53, RL: 2754, Time: 16.00 2.00 76.00, Align: 1.00, 376, 0.88
[A[2KProcessed: 26655 (0.85), R/S: 55.53, RL: 2753, Time: 16.00 2.00 76.00, Align: 1.00, 376, 0.88
[A[2KProcessed: 26771 (0.85), R/S: 55.54, RL: 2754, Time: 16.00 2.00 76.00, Align: 1.00, 376, 0.88
[A[2KProcessed: 26912 (0.85), R/S: 55.60, RL: 2751, Time: 16.00 2.00 76.00, Align: 1.00, 376, 0.88
[A[2KProcessed: 27027 (0.85), R/S: 55.61, RL: 2752, Time: 16.00 2.00 76.00, Align: 1.00, 376, 0.88
[A[2KProcessed: 27154 (0.85), R/S: 55.64, RL: 2750, Time: 16.00 2.00 76.00, Align: 1.00, 376, 0.88
[A[2KProcessed: 27283 (0.85), R/S: 55.67, RL: 2749, Time: 16.00 2.00 76.00, Align: 1.00, 376, 0.88
[A[2KProcessed: 27385 (0.85), R/S: 55.66, RL: 2751, Time: 16.00 2.00 76.00, Align: 1.00, 376, 0.88
[A[2KProcessed: 27403 (0.85), R/S: 55.47, RL: 2752, Time: 16.00 2.00 76.00, Align: 1.00, 376, 0.88
[A[2KProcessed: 27486 (0.85), R/S: 55.41, RL: 2752, Time: 16.00 2.00 76.00, Align: 1.00, 376, 0.88
[A[2KProcessed: 27594 (0.85), R/S: 55.40, RL: 2753, Time: 16.00 2.00 76.00, Align: 1.00, 376, 0.88
[A[2KProcessed: 27732 (0.85), R/S: 55.46, RL: 2752, Time: 16.00 2.00 76.00, Align: 1.00, 376, 0.88
[A[2KProcessed: 27890 (0.85), R/S: 55.55, RL: 2749, Time: 16.00 2.00 76.00, Align: 1.00, 376, 0.88
[A[2KProcessed: 27986 (0.85), R/S: 55.52, RL: 2749, Time: 16.00 2.00 76.00, Align: 1.00, 376, 0.88
[A[2KProcessed: 28088 (0.85), R/S: 55.50, RL: 2747, Time: 16.00 2.00 76.00, Align: 1.00, 376, 0.88
[A[2KProcessed: 28197 (0.85), R/S: 55.50, RL: 2748, Time: 16.00 2.00 76.00, Align: 1.00, 376, 0.88
[A[2KProcessed: 28301 (0.85), R/S: 55.49, RL: 2749, Time: 16.00 2.00 76.00, Align: 1.00, 376, 0.88
[A[2KProcessed: 28430 (0.85), R/S: 55.52, RL: 2748, Time: 16.00 2.00 76.00, Align: 1.00, 376, 0.88
[A[2KProcessed: 28535 (0.85), R/S: 55.51, RL: 2749, Time: 16.00 2.00 76.00, Align: 1.00, 376, 0.88
[A[2KProcessed: 28666 (0.85), R/S: 55.55, RL: 2749, Time: 16.00 2.00 76.00, Align: 1.00, 376, 0.88
[A[2KProcessed: 28761 (0.85), R/S: 55.52, RL: 2750, Time: 16.00 2.00 76.00, Align: 1.00, 376, 0.88
[A[2KProcessed: 28880 (0.85), R/S: 55.53, RL: 2750, Time: 16.00 2.00 76.00, Align: 1.00, 375, 0.88
[A[2KProcessed: 28993 (0.85), R/S: 55.54, RL: 2748, Time: 16.00 2.00 76.00, Align: 1.00, 376, 0.88
[A[2KProcessed: 29122 (0.85), R/S: 55.57, RL: 2748, Time: 16.00 2.00 76.00, Align: 1.00, 375, 0.88
[A[2KProcessed: 29246 (0.85), R/S: 55.60, RL: 2745, Time: 16.00 2.00 76.00, Align: 1.00, 375, 0.88
[A[2KProcessed: 29347 (0.85), R/S: 55.58, RL: 2747, Time: 16.00 2.00 76.00, Align: 1.00, 375, 0.88
[A[2KProcessed: 29493 (0.85), R/S: 55.64, RL: 2743, Time: 16.00 2.00 76.00, Align: 1.00, 375, 0.88
[A[2KProcessed: 29627 (0.85), R/S: 55.68, RL: 2743, Time: 16.00 2.00 76.00, Align: 1.00, 375, 0.88
[A[2KProcessed: 29744 (0.85), R/S: 55.70, RL: 2742, Time: 16.00 2.00 76.00, Align: 1.00, 375, 0.88
[A[2KProcessed: 29837 (0.85), R/S: 55.66, RL: 2742, Time: 16.00 2.00 76.00, Align: 1.00, 375, 0.88
[A[2KProcessed: 29924 (0.85), R/S: 55.62, RL: 2742, Time: 16.00 2.00 76.00, Align: 1.00, 375, 0.88
[A[2KProcessed: 30099 (0.85), R/S: 55.73, RL: 2737, Time: 16.00 2.00 76.00, Align: 1.00, 375, 0.88
[A[2KProcessed: 30200 (0.85), R/S: 55.71, RL: 2739, Time: 16.00 2.00 76.00, Align: 1.00, 375, 0.88
[A[2KProcessed: 30343 (0.85), R/S: 55.77, RL: 2737, Time: 16.00 2.00 76.00, Align: 1.00, 375, 0.88
[A[2KProcessed: 30400 (0.85), R/S: 55.67, RL: 2740, Time: 16.00 2.00 76.00, Align: 1.00, 375, 0.88
[A[2KProcessed: 30483 (0.85), R/S: 55.62, RL: 2741, Time: 16.00 2.00 76.00, Align: 1.00, 375, 0.88
[A[2KProcessed: 30604 (0.85), R/S: 55.64, RL: 2740, Time: 16.00 2.00 76.00, Align: 1.00, 375, 0.88
[A[2KProcessed: 30719 (0.85), R/S: 55.65, RL: 2740, Time: 16.00 2.00 76.00, Align: 1.00, 375, 0.88
[A[2KProcessed: 30840 (0.85), R/S: 55.66, RL: 2741, Time: 16.00 2.00 76.00, Align: 1.00, 375, 0.88
[A[2KProcessed: 30988 (0.85), R/S: 55.73, RL: 2737, Time: 16.00 2.00 76.00, Align: 1.00, 375, 0.88
[A[2KProcessed: 31121 (0.85), R/S: 55.77, RL: 2736, Time: 16.00 2.00 76.00, Align: 1.00, 375, 0.88
[A[2KProcessed: 31239 (0.85), R/S: 55.78, RL: 2735, Time: 16.00 2.00 76.00, Align: 1.00, 375, 0.88
[A[2KProcessed: 31360 (0.85), R/S: 55.80, RL: 2735, Time: 16.00 2.00 76.00, Align: 1.00, 375, 0.88
[A[2KProcessed: 31461 (0.85), R/S: 55.78, RL: 2734, Time: 16.00 2.00 76.00, Align: 1.00, 375, 0.88
[A[2KProcessed: 31543 (0.85), R/S: 55.72, RL: 2735, Time: 16.00 2.00 76.00, Align: 1.00, 375, 0.88
[A[2KProcessed: 31659 (0.85), R/S: 55.73, RL: 2734, Time: 16.00 2.00 76.00, Align: 1.00, 375, 0.88
[A[2KProcessed: 31770 (0.85), R/S: 55.73, RL: 2734, Time: 16.00 2.00 76.00, Align: 1.00, 376, 0.88
[A[2KProcessed: 31893 (0.85), R/S: 55.75, RL: 2733, Time: 16.00 2.00 76.00, Align: 1.00, 375, 0.88
[A[2KProcessed: 32004 (0.85), R/S: 55.75, RL: 2733, Time: 16.00 2.00 76.00, Align: 1.00, 375, 0.88
[A[2KProcessed: 32108 (0.85), R/S: 55.74, RL: 2734, Time: 16.00 2.00 76.00, Align: 1.00, 375, 0.88
[A[2KProcessed: 32213 (0.85), R/S: 55.73, RL: 2736, Time: 16.00 2.00 76.00, Align: 1.00, 375, 0.88
[A[2KProcessed: 32274 (0.85), R/S: 55.64, RL: 2735, Time: 16.00 2.00 76.00, Align: 1.00, 375, 0.88
[A[2KProcessed: 32400 (0.85), R/S: 55.66, RL: 2735, Time: 16.00 2.00 76.00, Align: 1.00, 375, 0.88
[A[2KProcessed: 32549 (0.85), R/S: 55.73, RL: 2732, Time: 16.00 2.00 76.00, Align: 1.00, 375, 0.88
[A[2KProcessed: 32641 (0.85), R/S: 55.70, RL: 2735, Time: 16.00 2.00 76.00, Align: 1.00, 375, 0.88
[A[2KProcessed: 32779 (0.85), R/S: 55.74, RL: 2733, Time: 16.00 2.00 76.00, Align: 1.00, 375, 0.88
[A[2KProcessed: 32920 (0.85), R/S: 55.79, RL: 2732, Time: 16.00 2.00 76.00, Align: 1.00, 375, 0.88
[A[2KProcessed: 33034 (0.85), R/S: 55.80, RL: 2731, Time: 16.00 2.00 76.00, Align: 1.00, 375, 0.88
[A[2KProcessed: 33167 (0.85), R/S: 55.83, RL: 2730, Time: 16.00 2.00 76.00, Align: 1.00, 375, 0.88
[A[2KProcessed: 33294 (0.85), R/S: 55.86, RL: 2729, Time: 16.00 2.00 76.00, Align: 1.00, 375, 0.88
[A[2KProcessed: 33412 (0.85), R/S: 55.87, RL: 2730, Time: 16.00 2.00 76.00, Align: 1.00, 375, 0.88
[A[2KProcessed: 33511 (0.85), R/S: 55.85, RL: 2731, Time: 16.00 2.00 76.00, Align: 1.00, 375, 0.88
[A[2KProcessed: 33645 (0.85), R/S: 55.88, RL: 2730, Time: 16.00 2.00 76.00, Align: 1.00, 375, 0.88
[A[2KProcessed: 33766 (0.85), R/S: 55.90, RL: 2729, Time: 16.00 2.00 76.00, Align: 1.00, 375, 0.88
[A[2KProcessed: 33842 (0.85), R/S: 55.84, RL: 2730, Time: 16.00 2.00 76.00, Align: 1.00, 375, 0.88
[A[2KProcessed: 33963 (0.85), R/S: 55.85, RL: 2731, Time: 16.00 2.00 76.00, Align: 1.00, 375, 0.88
[A[2KProcessed: 34080 (0.85), R/S: 55.86, RL: 2731, Time: 16.00 2.00 76.00, Align: 1.00, 375, 0.88
[A[2KProcessed: 34188 (0.85), R/S: 55.86, RL: 2731, Time: 16.00 2.00 76.00, Align: 1.00, 375, 0.88
[A[2KProcessed: 34277 (0.85), R/S: 55.82, RL: 2732, Time: 16.00 2.00 76.00, Align: 1.00, 375, 0.88
[A[2KProcessed: 34375 (0.85), R/S: 55.80, RL: 2733, Time: 16.00 2.00 76.00, Align: 1.00, 375, 0.88
[A[2KProcessed: 34462 (0.85), R/S: 55.76, RL: 2733, Time: 16.00 2.00 76.00, Align: 1.00, 375, 0.88
[A[2KProcessed: 34584 (0.85), R/S: 55.78, RL: 2733, Time: 16.00 2.00 76.00, Align: 1.00, 375, 0.88
[A[2KProcessed: 34709 (0.85), R/S: 55.80, RL: 2731, Time: 16.00 2.00 76.00, Align: 1.00, 375, 0.88
[A[2KProcessed: 34852 (0.85), R/S: 55.85, RL: 2730, Time: 16.00 2.00 76.00, Align: 1.00, 375, 0.88
[A[2KProcessed: 34983 (0.85), R/S: 55.88, RL: 2729, Time: 16.00 2.00 76.00, Align: 1.00, 375, 0.88
[A[2KProcessed: 35067 (0.85), R/S: 55.83, RL: 2730, Time: 16.00 2.00 76.00, Align: 1.00, 375, 0.88
[A[2KProcessed: 35174 (0.85), R/S: 55.83, RL: 2731, Time: 16.00 2.00 76.00, Align: 1.00, 375, 0.88
[A[2KProcessed: 35286 (0.85), R/S: 55.83, RL: 2731, Time: 16.00 2.00 76.00, Align: 1.00, 375, 0.88
[A[2KProcessed: 35397 (0.85), R/S: 55.83, RL: 2731, Time: 16.00 2.00 76.00, Align: 1.00, 375, 0.88
[A[2KProcessed: 35527 (0.85), R/S: 55.85, RL: 2731, Time: 16.00 2.00 76.00, Align: 1.00, 375, 0.88
[A[2KProcessed: 35636 (0.85), R/S: 55.85, RL: 2731, Time: 16.00 2.00 76.00, Align: 1.00, 375, 0.88
[A[2KProcessed: 35734 (0.85), R/S: 55.83, RL: 2733, Time: 16.00 2.00 76.00, Align: 1.00, 375, 0.88
[A[2KProcessed: 35845 (0.85), R/S: 55.83, RL: 2733, Time: 16.00 2.00 76.00, Align: 1.00, 375, 0.88
[A[2KProcessed: 35944 (0.85), R/S: 55.81, RL: 2734, Time: 16.00 2.00 76.00, Align: 1.00, 375, 0.88
[A[2KProcessed: 36056 (0.85), R/S: 55.81, RL: 2735, Time: 16.00 2.00 76.00, Align: 1.00, 375, 0.88
[A[2KProcessed: 36195 (0.85), R/S: 55.85, RL: 2734, Time: 16.00 2.00 76.00, Align: 1.00, 375, 0.88
[A[2KProcessed: 36228 (0.85), R/S: 55.73, RL: 2734, Time: 16.00 2.00 76.00, Align: 1.00, 375, 0.88
[A[2KProcessed: 36359 (0.85), R/S: 55.76, RL: 2733, Time: 16.00 2.00 76.00, Align: 1.00, 375, 0.88
[A[2KProcessed: 36463 (0.85), R/S: 55.75, RL: 2733, Time: 16.00 2.00 76.00, Align: 1.00, 375, 0.88
[A[2KProcessed: 36552 (0.85), R/S: 55.71, RL: 2735, Time: 16.00 2.00 76.00, Align: 1.00, 375, 0.88
[A[2KProcessed: 36657 (0.85), R/S: 55.70, RL: 2735, Time: 16.00 2.00 76.00, Align: 1.00, 375, 0.88
[A[2KProcessed: 36780 (0.85), R/S: 55.72, RL: 2737, Time: 16.00 2.00 76.00, Align: 1.00, 375, 0.88
[A[2KProcessed: 36862 (0.85), R/S: 55.68, RL: 2737, Time: 16.00 2.00 76.00, Align: 1.00, 375, 0.88
[A[2KProcessed: 36987 (0.85), R/S: 55.70, RL: 2737, Time: 16.00 2.00 76.00, Align: 1.00, 375, 0.88
[A[2KProcessed: 37102 (0.85), R/S: 55.70, RL: 2737, Time: 16.00 2.00 76.00, Align: 1.00, 375, 0.88
[A[2KProcessed: 37206 (0.85), R/S: 55.69, RL: 2738, Time: 16.00 2.00 76.00, Align: 1.00, 375, 0.88
[A[2KProcessed: 37317 (0.85), R/S: 55.69, RL: 2738, Time: 16.00 2.00 76.00, Align: 1.00, 375, 0.88
[A[2KProcessed: 37404 (0.85), R/S: 55.66, RL: 2740, Time: 16.00 2.00 76.00, Align: 1.00, 375, 0.88
[A[2KProcessed: 37533 (0.85), R/S: 55.68, RL: 2740, Time: 16.00 2.00 76.00, Align: 1.00, 375, 0.88
[A[2KProcessed: 37648 (0.85), R/S: 55.69, RL: 2739, Time: 16.00 2.00 76.00, Align: 1.00, 375, 0.88
[A[2KProcessed: 37747 (0.85), R/S: 55.67, RL: 2740, Time: 16.00 2.00 76.00, Align: 1.00, 375, 0.88
[A[2KProcessed: 37852 (0.85), R/S: 55.66, RL: 2742, Time: 16.00 2.00 76.00, Align: 1.00, 375, 0.88
[A[2KProcessed: 37961 (0.85), R/S: 55.66, RL: 2742, Time: 16.00 2.00 76.00, Align: 1.00, 375, 0.88
[A[2KProcessed: 38094 (0.85), R/S: 55.69, RL: 2741, Time: 16.00 2.00 76.00, Align: 1.00, 375, 0.88
[A[2KProcessed: 38222 (0.85), R/S: 55.71, RL: 2741, Time: 16.00 2.00 76.00, Align: 1.00, 375, 0.88
[A[2KProcessed: 38334 (0.85), R/S: 55.71, RL: 2741, Time: 16.00 2.00 76.00, Align: 1.00, 375, 0.88
[A[2KProcessed: 38465 (0.85), R/S: 55.74, RL: 2741, Time: 16.00 2.00 76.00, Align: 1.00, 375, 0.88
[A[2KProcessed: 38554 (0.85), R/S: 55.71, RL: 2741, Time: 16.00 2.00 76.00, Align: 1.00, 375, 0.88
[A[2KProcessed: 38663 (0.85), R/S: 55.71, RL: 2741, Time: 16.00 2.00 76.00, Align: 1.00, 375, 0.88
[A[2KProcessed: 38795 (0.85), R/S: 55.73, RL: 2739, Time: 16.00 2.00 76.00, Align: 1.00, 375, 0.88
[A[2KProcessed: 38889 (0.85), R/S: 55.71, RL: 2740, Time: 16.00 2.00 76.00, Align: 1.00, 375, 0.88
[A[2KProcessed: 39020 (0.85), R/S: 55.74, RL: 2739, Time: 16.00 2.00 76.00, Align: 1.00, 375, 0.88
[A[2KProcessed: 39148 (0.85), R/S: 55.76, RL: 2738, Time: 16.00 2.00 76.00, Align: 1.00, 375, 0.88
[A[2KProcessed: 39286 (0.85), R/S: 55.80, RL: 2737, Time: 16.00 2.00 76.00, Align: 1.00, 375, 0.88
[A[2KProcessed: 39417 (0.85), R/S: 55.83, RL: 2735, Time: 16.00 2.00 76.00, Align: 1.00, 375, 0.88
[A[2KProcessed: 39527 (0.85), R/S: 55.82, RL: 2736, Time: 16.00 2.00 76.00, Align: 1.00, 375, 0.88
[A[2KProcessed: 39610 (0.85), R/S: 55.78, RL: 2737, Time: 16.00 2.00 76.00, Align: 1.00, 375, 0.88
[A[2KProcessed: 39702 (0.85), R/S: 55.76, RL: 2739, Time: 16.00 2.00 76.00, Align: 1.00, 375, 0.88
[A[2KProcessed: 39826 (0.85), R/S: 55.77, RL: 2738, Time: 16.00 2.00 76.00, Align: 1.00, 375, 0.88
[A[2KProcessed: 39964 (0.85), R/S: 55.81, RL: 2736, Time: 16.00 2.00 76.00, Align: 1.00, 375, 0.88
[A[2KProcessed: 40062 (0.85), R/S: 55.79, RL: 2738, Time: 16.00 2.00 76.00, Align: 1.00, 375, 0.88
[A[2KProcessed: 40198 (0.85), R/S: 55.83, RL: 2736, Time: 16.00 2.00 76.00, Align: 1.00, 375, 0.88
[A[2KProcessed: 40286 (0.85), R/S: 55.79, RL: 2738, Time: 16.00 2.00 76.00, Align: 1.00, 375, 0.88
[A[2KProcessed: 40427 (0.85), R/S: 55.83, RL: 2736, Time: 16.00 2.00 76.00, Align: 1.00, 375, 0.88
[A[2KProcessed: 40610 (0.85), R/S: 55.93, RL: 2733, Time: 16.00 2.00 76.00, Align: 1.00, 375, 0.88
[A[2KProcessed: 40734 (0.85), R/S: 55.95, RL: 2732, Time: 16.00 2.00 76.00, Align: 1.00, 375, 0.88
[A[2KProcessed: 40825 (0.85), R/S: 55.92, RL: 2732, Time: 16.00 2.00 76.00, Align: 1.00, 375, 0.88
[A[2KProcessed: 40936 (0.85), R/S: 55.92, RL: 2732, Time: 16.00 2.00 76.00, Align: 1.00, 375, 0.88
[A[2KProcessed: 41055 (0.85), R/S: 55.93, RL: 2733, Time: 16.00 2.00 76.00, Align: 1.00, 375, 0.88
[A[2KProcessed: 41141 (0.85), R/S: 55.89, RL: 2735, Time: 16.00 2.00 76.00, Align: 1.00, 375, 0.88
[A[2KProcessed: 41257 (0.85), R/S: 55.90, RL: 2734, Time: 16.00 2.00 76.00, Align: 1.00, 375, 0.88
[A[2KProcessed: 41408 (0.85), R/S: 55.95, RL: 2732, Time: 16.00 2.00 76.00, Align: 1.00, 375, 0.88
[A[2KProcessed: 41529 (0.85), R/S: 55.96, RL: 2732, Time: 16.00 2.00 76.00, Align: 1.00, 375, 0.88
[A[2KProcessed: 41653 (0.85), R/S: 55.98, RL: 2732, Time: 16.00 2.00 76.00, Align: 1.00, 375, 0.88
[A[2KProcessed: 41748 (0.85), R/S: 55.96, RL: 2733, Time: 16.00 2.00 76.00, Align: 1.00, 375, 0.88
[A[2KProcessed: 41836 (0.85), R/S: 55.93, RL: 2734, Time: 16.00 2.00 76.00, Align: 1.00, 375, 0.88
[A[2KProcessed: 41930 (0.85), R/S: 55.90, RL: 2736, Time: 16.00 2.00 76.00, Align: 1.00, 375, 0.88
[A[2KProcessed: 42038 (0.85), R/S: 55.90, RL: 2735, Time: 16.00 2.00 76.00, Align: 1.00, 374, 0.88
[A[2KProcessed: 42182 (0.85), R/S: 55.94, RL: 2733, Time: 16.00 2.00 76.00, Align: 1.00, 375, 0.88
[A[2KProcessed: 42278 (0.85), R/S: 55.92, RL: 2732, Time: 16.00 2.00 76.00, Align: 1.00, 374, 0.88
[A[2KProcessed: 42361 (0.85), R/S: 55.88, RL: 2732, Time: 16.00 2.00 76.00, Align: 1.00, 375, 0.88
[A[2KProcessed: 42492 (0.85), R/S: 55.91, RL: 2732, Time: 16.00 2.00 76.00, Align: 1.00, 375, 0.88
[A[2KProcessed: 42609 (0.85), R/S: 55.91, RL: 2732, Time: 16.00 2.00 76.00, Align: 1.00, 375, 0.88
[A[2KProcessed: 42711 (0.85), R/S: 55.90, RL: 2734, Time: 16.00 2.00 76.00, Align: 1.00, 375, 0.88
[A[2KProcessed: 42837 (0.85), R/S: 55.92, RL: 2733, Time: 16.00 2.00 76.00, Align: 1.00, 374, 0.88
[A[2KProcessed: 42962 (0.85), R/S: 55.93, RL: 2733, Time: 16.00 2.00 76.00, Align: 1.00, 374, 0.88
[A[2KProcessed: 43100 (0.85), R/S: 55.97, RL: 2732, Time: 16.00 2.00 76.00, Align: 1.00, 374, 0.88
[A[2KProcessed: 43213 (0.85), R/S: 55.97, RL: 2732, Time: 16.00 2.00 76.00, Align: 1.00, 374, 0.88
[A[2KProcessed: 43313 (0.85), R/S: 55.95, RL: 2733, Time: 16.00 2.00 76.00, Align: 1.00, 374, 0.88
[A[2KProcessed: 43415 (0.85), R/S: 55.94, RL: 2733, Time: 16.00 2.00 76.00, Align: 1.00, 375, 0.88
[A[2KProcessed: 43536 (0.85), R/S: 55.95, RL: 2732, Time: 16.00 2.00 76.00, Align: 1.00, 375, 0.88
[A[2KProcessed: 43669 (0.85), R/S: 55.98, RL: 2732, Time: 16.00 2.00 76.00, Align: 1.00, 375, 0.88
[A[2KProcessed: 43779 (0.85), R/S: 55.98, RL: 2730, Time: 16.00 2.00 76.00, Align: 1.00, 375, 0.88
[A[2KProcessed: 43926 (0.85), R/S: 56.02, RL: 2729, Time: 16.00 2.00 76.00, Align: 1.00, 375, 0.88
[A[2KProcessed: 44038 (0.85), R/S: 56.02, RL: 2729, Time: 16.00 2.00 76.00, Align: 1.00, 375, 0.88
[A[2KProcessed: 44153 (0.85), R/S: 56.03, RL: 2730, Time: 16.00 2.00 76.00, Align: 1.00, 375, 0.88
[A[2KProcessed: 44251 (0.85), R/S: 56.01, RL: 2732, Time: 16.00 2.00 76.00, Align: 1.00, 375, 0.88
[A[2KProcessed: 44391 (0.85), R/S: 56.04, RL: 2729, Time: 16.00 2.00 76.00, Align: 1.00, 375, 0.88
[A[2KProcessed: 44508 (0.85), R/S: 56.05, RL: 2729, Time: 16.00 2.00 76.00, Align: 1.00, 374, 0.88
[A[2KProcessed: 44644 (0.85), R/S: 56.08, RL: 2729, Time: 16.00 2.00 76.00, Align: 1.00, 375, 0.88
[A[2KProcessed: 44733 (0.85), R/S: 56.05, RL: 2731, Time: 16.00 2.00 76.00, Align: 1.00, 375, 0.88
[A[2KProcessed: 44850 (0.85), R/S: 56.06, RL: 2732, Time: 16.00 2.00 76.00, Align: 1.00, 375, 0.88
[A[2KProcessed: 44968 (0.85), R/S: 56.06, RL: 2731, Time: 16.00 2.00 76.00, Align: 1.00, 375, 0.88
[A[2KProcessed: 45100 (0.85), R/S: 56.09, RL: 2730, Time: 16.00 2.00 76.00, Align: 1.00, 375, 0.88
[A[2KProcessed: 45237 (0.85), R/S: 56.12, RL: 2729, Time: 16.00 2.00 76.00, Align: 1.00, 374, 0.88
[A[2KProcessed: 45349 (0.85), R/S: 56.12, RL: 2729, Time: 16.00 2.00 76.00, Align: 1.00, 374, 0.88
[A[2KProcessed: 45454 (0.85), R/S: 56.11, RL: 2729, Time: 16.00 2.00 76.00, Align: 1.00, 374, 0.88
[A[2KProcessed: 45551 (0.85), R/S: 56.09, RL: 2729, Time: 16.00 2.00 76.00, Align: 1.00, 374, 0.88
[A[2KProcessed: 45673 (0.85), R/S: 56.10, RL: 2728, Time: 16.00 2.00 76.00, Align: 1.00, 374, 0.88
[A[2KProcessed: 45813 (0.85), R/S: 56.14, RL: 2728, Time: 16.00 2.00 76.00, Align: 1.00, 374, 0.88
[A[2KProcessed: 45946 (0.85), R/S: 56.16, RL: 2727, Time: 16.00 2.00 76.00, Align: 1.00, 374, 0.88
[A[2KProcessed: 46060 (0.85), R/S: 56.17, RL: 2727, Time: 16.00 2.00 76.00, Align: 1.00, 374, 0.88
[A[2KProcessed: 46147 (0.85), R/S: 56.13, RL: 2728, Time: 16.00 2.00 76.00, Align: 1.00, 374, 0.88
[A[2KProcessed: 46286 (0.85), R/S: 56.17, RL: 2728, Time: 16.00 2.00 76.00, Align: 1.00, 374, 0.88
[A[2KProcessed: 46390 (0.85), R/S: 56.16, RL: 2729, Time: 16.00 2.00 76.00, Align: 1.00, 374, 0.88
[A[2KProcessed: 46490 (0.85), R/S: 56.14, RL: 2729, Time: 16.00 2.00 76.00, Align: 1.00, 374, 0.88
[A[2KProcessed: 46584 (0.85), R/S: 56.12, RL: 2730, Time: 16.00 2.00 76.00, Align: 1.00, 374, 0.88
[A[2KProcessed: 46724 (0.85), R/S: 56.15, RL: 2730, Time: 16.00 2.00 76.00, Align: 1.00, 374, 0.88
[A[2KProcessed: 46847 (0.85), R/S: 56.17, RL: 2729, Time: 16.00 2.00 76.00, Align: 1.00, 374, 0.88
[A[2KProcessed: 46943 (0.85), R/S: 56.15, RL: 2729, Time: 16.00 2.00 76.00, Align: 1.00, 374, 0.88
[A[2KProcessed: 47042 (0.85), R/S: 56.13, RL: 2730, Time: 16.00 2.00 76.00, Align: 1.00, 374, 0.88
[A[2KProcessed: 47126 (0.85), R/S: 56.10, RL: 2731, Time: 16.00 2.00 76.00, Align: 1.00, 374, 0.88
[A[2KProcessed: 47277 (0.85), R/S: 56.14, RL: 2729, Time: 16.00 2.00 76.00, Align: 1.00, 374, 0.88
[A[2KProcessed: 47352 (0.85), R/S: 56.10, RL: 2731, Time: 16.00 2.00 76.00, Align: 1.00, 374, 0.88
[A[2KProcessed: 47500 (0.85), R/S: 56.14, RL: 2730, Time: 16.00 2.00 76.00, Align: 1.00, 374, 0.88
[A[2KProcessed: 47620 (0.85), R/S: 56.15, RL: 2729, Time: 16.00 2.00 76.00, Align: 1.00, 374, 0.88
[A[2KProcessed: 47763 (0.85), R/S: 56.19, RL: 2728, Time: 16.00 2.00 76.00, Align: 1.00, 374, 0.88
[A[2KProcessed: 47871 (0.85), R/S: 56.18, RL: 2728, Time: 16.00 2.00 76.00, Align: 1.00, 374, 0.88
[A[2KProcessed: 47986 (0.85), R/S: 56.18, RL: 2728, Time: 16.00 2.00 76.00, Align: 1.00, 374, 0.88
[A[2KProcessed: 48132 (0.85), R/S: 56.22, RL: 2727, Time: 16.00 2.00 76.00, Align: 1.00, 374, 0.88
[A[2KProcessed: 48250 (0.85), R/S: 56.23, RL: 2727, Time: 16.00 2.00 76.00, Align: 1.00, 374, 0.88
[A[2KProcessed: 48352 (0.85), R/S: 56.22, RL: 2728, Time: 16.00 2.00 76.00, Align: 1.00, 374, 0.88
[A[2KProcessed: 48480 (0.85), R/S: 56.24, RL: 2728, Time: 16.00 2.00 76.00, Align: 1.00, 374, 0.88
[A[2KProcessed: 48577 (0.85), R/S: 56.22, RL: 2728, Time: 16.00 2.00 76.00, Align: 1.00, 374, 0.88
[A[2KProcessed: 48719 (0.85), R/S: 56.25, RL: 2727, Time: 16.00 2.00 76.00, Align: 1.00, 374, 0.88
[A[2KProcessed: 48851 (0.85), R/S: 56.27, RL: 2726, Time: 16.00 2.00 76.00, Align: 1.00, 374, 0.88
[A[2KProcessed: 48941 (0.85), R/S: 56.25, RL: 2727, Time: 16.00 2.00 76.00, Align: 1.00, 374, 0.88
[A[2KProcessed: 49066 (0.85), R/S: 56.26, RL: 2727, Time: 16.00 2.00 76.00, Align: 1.00, 374, 0.88
[A[2KProcessed: 49200 (0.85), R/S: 56.29, RL: 2727, Time: 16.00 2.00 76.00, Align: 1.00, 374, 0.88
[A[2KProcessed: 49274 (0.85), R/S: 56.24, RL: 2729, Time: 16.00 2.00 76.00, Align: 1.00, 374, 0.88
[A[2KProcessed: 49416 (0.85), R/S: 56.28, RL: 2727, Time: 16.00 2.00 76.00, Align: 1.00, 374, 0.88
[A[2KProcessed: 49568 (0.85), R/S: 56.32, RL: 2726, Time: 16.00 2.00 76.00, Align: 1.00, 374, 0.88
[A[2KProcessed: 49682 (0.85), R/S: 56.32, RL: 2727, Time: 16.00 2.00 76.00, Align: 1.00, 374, 0.88
[A[2KProcessed: 49806 (0.85), R/S: 56.34, RL: 2727, Time: 16.00 2.00 76.00, Align: 1.00, 374, 0.88
[A[2KProcessed: 49908 (0.85), R/S: 56.32, RL: 2728, Time: 16.00 2.00 76.00, Align: 1.00, 374, 0.88
[A[2KProcessed: 50005 (0.85), R/S: 56.31, RL: 2729, Time: 16.00 2.00 76.00, Align: 1.00, 374, 0.88
[A[2KProcessed: 50105 (0.85), R/S: 56.29, RL: 2731, Time: 16.00 2.00 76.00, Align: 1.00, 374, 0.88
[A[2KProcessed: 50218 (0.85), R/S: 56.29, RL: 2730, Time: 16.00 2.00 76.00, Align: 1.00, 374, 0.88
[A[2KProcessed: 50378 (0.85), R/S: 56.35, RL: 2728, Time: 16.00 2.00 76.00, Align: 1.00, 374, 0.88
[A[2KProcessed: 50490 (0.85), R/S: 56.35, RL: 2728, Time: 16.00 2.00 76.00, Align: 1.00, 374, 0.88
[A[2KProcessed: 50598 (0.85), R/S: 56.34, RL: 2728, Time: 16.00 2.00 76.00, Align: 1.00, 373, 0.88
[A[2KProcessed: 50694 (0.85), R/S: 56.32, RL: 2729, Time: 16.00 2.00 76.00, Align: 1.00, 373, 0.88
[A[2KProcessed: 50751 (0.85), R/S: 56.26, RL: 2730, Time: 16.00 2.00 76.00, Align: 1.00, 373, 0.88
[A[2KProcessed: 50896 (0.85), R/S: 56.30, RL: 2728, Time: 16.00 2.00 76.00, Align: 1.00, 373, 0.88
[A[2KProcessed: 51014 (0.85), R/S: 56.30, RL: 2728, Time: 16.00 2.00 76.00, Align: 1.00, 373, 0.88
[A[2KProcessed: 51134 (0.85), R/S: 56.31, RL: 2728, Time: 16.00 2.00 76.00, Align: 1.00, 373, 0.88
[A[2KProcessed: 51230 (0.85), R/S: 56.29, RL: 2728, Time: 16.00 2.00 76.00, Align: 1.00, 374, 0.88
[A[2KProcessed: 51335 (0.85), R/S: 56.28, RL: 2729, Time: 16.00 2.00 76.00, Align: 1.00, 374, 0.88
[A[2KProcessed: 51446 (0.85), R/S: 56.28, RL: 2729, Time: 16.00 2.00 76.00, Align: 1.00, 373, 0.88
[A[2KProcessed: 51574 (0.85), R/S: 56.30, RL: 2728, Time: 16.00 2.00 76.00, Align: 1.00, 374, 0.88
[A[2KProcessed: 51708 (0.85), R/S: 56.32, RL: 2728, Time: 16.00 2.00 76.00, Align: 1.00, 374, 0.88
[A[2KProcessed: 51839 (0.85), R/S: 56.34, RL: 2727, Time: 16.00 2.00 76.00, Align: 1.00, 374, 0.88
[A[2KProcessed: 51982 (0.85), R/S: 56.37, RL: 2725, Time: 16.00 2.00 76.00, Align: 1.00, 374, 0.88
[A[2KProcessed: 52103 (0.85), R/S: 56.38, RL: 2725, Time: 16.00 2.00 76.00, Align: 1.00, 374, 0.88
[A[2KProcessed: 52186 (0.85), R/S: 56.35, RL: 2727, Time: 16.00 2.00 76.00, Align: 1.00, 374, 0.88
[A[2KProcessed: 52260 (0.85), R/S: 56.31, RL: 2728, Time: 16.00 2.00 76.00, Align: 1.00, 374, 0.88
[A[2KProcessed: 52358 (0.85), R/S: 56.29, RL: 2728, Time: 16.00 2.00 76.00, Align: 1.00, 374, 0.88
[A[2KProcessed: 52447 (0.85), R/S: 56.27, RL: 2728, Time: 16.00 2.00 76.00, Align: 1.00, 374, 0.88
[A[2KProcessed: 52613 (0.85), R/S: 56.33, RL: 2727, Time: 16.00 2.00 76.00, Align: 1.00, 374, 0.88
[A[2KProcessed: 52712 (0.85), R/S: 56.31, RL: 2728, Time: 16.00 2.00 76.00, Align: 1.00, 374, 0.88
[A[2KProcessed: 52806 (0.85), R/S: 56.29, RL: 2729, Time: 16.00 2.00 76.00, Align: 1.00, 374, 0.88
[A[2KProcessed: 52900 (0.85), R/S: 56.27, RL: 2730, Time: 16.00 2.00 76.00, Align: 1.00, 374, 0.88
[A[2KProcessed: 53031 (0.85), R/S: 56.29, RL: 2729, Time: 16.00 2.00 76.00, Align: 1.00, 374, 0.88
[A[2KProcessed: 53160 (0.85), R/S: 56.31, RL: 2729, Time: 16.00 2.00 76.00, Align: 1.00, 374, 0.88
[A[2KProcessed: 53302 (0.85), R/S: 56.34, RL: 2727, Time: 16.00 2.00 76.00, Align: 1.00, 374, 0.88
[A[2KProcessed: 53369 (0.85), R/S: 56.29, RL: 2727, Time: 16.00 2.00 76.00, Align: 1.00, 374, 0.88
[A[2KProcessed: 53476 (0.85), R/S: 56.29, RL: 2727, Time: 16.00 2.00 76.00, Align: 1.00, 374, 0.88
[A[2KProcessed: 53570 (0.85), R/S: 56.27, RL: 2728, Time: 16.00 2.00 76.00, Align: 1.00, 374, 0.88
[A[2KProcessed: 53692 (0.85), R/S: 56.28, RL: 2729, Time: 16.00 2.00 76.00, Align: 1.00, 374, 0.88
[A[2KProcessed: 53785 (0.85), R/S: 56.26, RL: 2729, Time: 16.00 2.00 76.00, Align: 1.00, 374, 0.88
[A[2KProcessed: 53852 (0.85), R/S: 56.21, RL: 2731, Time: 16.00 2.00 76.00, Align: 1.00, 374, 0.88
[A[2KProcessed: 53919 (0.85), R/S: 56.16, RL: 2732, Time: 16.00 2.00 76.00, Align: 1.00, 374, 0.88
[A[2KProcessed: 54056 (0.85), R/S: 56.19, RL: 2731, Time: 16.00 2.00 76.00, Align: 1.00, 374, 0.88
[A[2KProcessed: 54155 (0.85), R/S: 56.17, RL: 2731, Time: 16.00 2.00 76.00, Align: 1.00, 374, 0.88
[A[2KProcessed: 54222 (0.85), R/S: 56.13, RL: 2733, Time: 16.00 2.00 76.00, Align: 1.00, 374, 0.88
[A[2KProcessed: 54328 (0.85), R/S: 56.12, RL: 2733, Time: 16.00 2.00 76.00, Align: 1.00, 374, 0.88
[A[2KProcessed: 54453 (0.85), R/S: 56.13, RL: 2732, Time: 16.00 2.00 76.00, Align: 1.00, 374, 0.88
[A[2KProcessed: 54540 (0.85), R/S: 56.11, RL: 2734, Time: 16.00 2.00 76.00, Align: 1.00, 374, 0.88
[A[2KProcessed: 54629 (0.85), R/S: 56.08, RL: 2734, Time: 16.00 2.00 76.00, Align: 1.00, 374, 0.88
[A[2KProcessed: 54778 (0.85), R/S: 56.12, RL: 2733, Time: 16.00 2.00 76.00, Align: 1.00, 374, 0.88
[A[2KProcessed: 54919 (0.85), R/S: 56.15, RL: 2732, Time: 16.00 2.00 76.00, Align: 1.00, 374, 0.88
[A[2KProcessed: 55034 (0.85), R/S: 56.15, RL: 2732, Time: 16.00 2.00 76.00, Align: 1.00, 374, 0.88
[A[2KProcessed: 55144 (0.85), R/S: 56.15, RL: 2731, Time: 16.00 2.00 76.00, Align: 1.00, 374, 0.88
[A[2KProcessed: 55202 (0.85), R/S: 56.09, RL: 2734, Time: 16.00 2.00 76.00, Align: 1.00, 374, 0.88
[A[2KProcessed: 55309 (0.85), R/S: 56.09, RL: 2733, Time: 16.00 2.00 76.00, Align: 1.00, 374, 0.88
[A[2KProcessed: 55412 (0.85), R/S: 56.08, RL: 2733, Time: 16.00 2.00 76.00, Align: 1.00, 374, 0.88
[A[2KProcessed: 55515 (0.85), R/S: 56.07, RL: 2734, Time: 16.00 2.00 76.00, Align: 1.00, 374, 0.88
[A[2KProcessed: 55613 (0.85), R/S: 56.06, RL: 2734, Time: 16.00 2.00 76.00, Align: 1.00, 374, 0.88
[A[2KProcessed: 55724 (0.85), R/S: 56.06, RL: 2735, Time: 16.00 2.00 76.00, Align: 1.00, 374, 0.88
[A[2KProcessed: 55845 (0.85), R/S: 56.06, RL: 2734, Time: 16.00 2.00 76.00, Align: 1.00, 374, 0.88
[A[2KProcessed: 55886 (0.85), R/S: 55.99, RL: 2734, Time: 16.00 2.00 76.00, Align: 1.00, 374, 0.88
[A[2KProcessed: 55949 (0.85), R/S: 55.94, RL: 2734, Time: 16.00 2.00 76.00, Align: 1.00, 374, 0.88
[A[2KProcessed: 56072 (0.85), R/S: 55.95, RL: 2734, Time: 16.00 2.00 76.00, Align: 1.00, 374, 0.88
[A[2KProcessed: 56172 (0.85), R/S: 55.94, RL: 2734, Time: 16.00 2.00 76.00, Align: 1.00, 374, 0.88
[A[2KProcessed: 56278 (0.85), R/S: 55.94, RL: 2733, Time: 16.00 2.00 76.00, Align: 1.00, 374, 0.88
[A[2KProcessed: 56416 (0.85), R/S: 55.96, RL: 2733, Time: 16.00 2.00 76.00, Align: 1.00, 374, 0.88
[A[2KProcessed: 56570 (0.85), R/S: 56.00, RL: 2732, Time: 16.00 2.00 76.00, Align: 1.00, 374, 0.88
[A[2KProcessed: 56682 (0.85), R/S: 56.00, RL: 2732, Time: 16.00 2.00 76.00, Align: 1.00, 374, 0.88
[A[2KProcessed: 56788 (0.85), R/S: 56.00, RL: 2732, Time: 16.00 2.00 76.00, Align: 1.00, 374, 0.88
[A[2KProcessed: 56873 (0.85), R/S: 55.97, RL: 2731, Time: 16.00 2.00 76.00, Align: 1.00, 374, 0.88
[A[2KProcessed: 57002 (0.85), R/S: 55.99, RL: 2730, Time: 16.00 2.00 76.00, Align: 1.00, 374, 0.88
[A[2KProcessed: 57136 (0.85), R/S: 56.01, RL: 2729, Time: 16.00 2.00 76.00, Align: 1.00, 374, 0.88
[A[2KProcessed: 57289 (0.85), R/S: 56.05, RL: 2728, Time: 16.00 2.00 76.00, Align: 1.00, 374, 0.88
[A[2KProcessed: 57368 (0.85), R/S: 56.02, RL: 2729, Time: 16.00 2.00 76.00, Align: 1.00, 374, 0.88
[A[2KProcessed: 57477 (0.85), R/S: 56.02, RL: 2730, Time: 16.00 2.00 76.00, Align: 1.00, 374, 0.88
[A[2KProcessed: 57530 (0.85), R/S: 55.96, RL: 2729, Time: 16.00 2.00 76.00, Align: 1.00, 373, 0.88
[A[2KProcessed: 57676 (0.85), R/S: 55.99, RL: 2728, Time: 16.00 2.00 76.00, Align: 1.00, 373, 0.88
[A[2KProcessed: 57795 (0.85), R/S: 56.00, RL: 2728, Time: 16.00 2.00 76.00, Align: 1.00, 373, 0.88
[A[2KProcessed: 57913 (0.85), R/S: 56.00, RL: 2728, Time: 16.00 2.00 76.00, Align: 1.00, 373, 0.88
[A[2KProcessed: 58052 (0.85), R/S: 56.03, RL: 2728, Time: 16.00 2.00 76.00, Align: 1.00, 373, 0.88
[A[2KProcessed: 58172 (0.85), R/S: 56.04, RL: 2726, Time: 16.00 2.00 76.00, Align: 1.00, 373, 0.88
[A[2KProcessed: 58297 (0.85), R/S: 56.05, RL: 2726, Time: 16.00 2.00 76.00, Align: 1.00, 373, 0.88
[A[2KProcessed: 58412 (0.85), R/S: 56.05, RL: 2725, Time: 16.00 2.00 76.00, Align: 1.00, 373, 0.88
[A[2KProcessed: 58514 (0.85), R/S: 56.04, RL: 2726, Time: 16.00 2.00 76.00, Align: 1.00, 374, 0.88
[A[2KProcessed: 58595 (0.85), R/S: 56.01, RL: 2727, Time: 16.00 2.00 76.00, Align: 1.00, 374, 0.88
[A[2KProcessed: 58732 (0.85), R/S: 56.04, RL: 2727, Time: 16.00 2.00 76.00, Align: 1.00, 374, 0.88
[A[2KProcessed: 58874 (0.85), R/S: 56.07, RL: 2726, Time: 16.00 2.00 76.00, Align: 1.00, 374, 0.88
[A[2KProcessed: 58975 (0.85), R/S: 56.05, RL: 2727, Time: 16.00 2.00 76.00, Align: 1.00, 374, 0.88
[A[2KProcessed: 59086 (0.85), R/S: 56.05, RL: 2726, Time: 16.00 2.00 76.00, Align: 1.00, 374, 0.88
[A[2KProcessed: 59164 (0.85), R/S: 56.02, RL: 2726, Time: 16.00 2.00 76.00, Align: 1.00, 374, 0.88
[A[2KProcessed: 59267 (0.85), R/S: 56.01, RL: 2725, Time: 16.00 2.00 76.00, Align: 1.00, 374, 0.88
[A[2KProcessed: 59321 (0.85), R/S: 55.96, RL: 2728, Time: 16.00 2.00 76.00, Align: 1.00, 374, 0.88
[A[2KProcessed: 59424 (0.85), R/S: 55.95, RL: 2728, Time: 16.00 2.00 76.00, Align: 1.00, 374, 0.88
[A[2KProcessed: 59540 (0.85), R/S: 55.95, RL: 2728, Time: 16.00 2.00 76.00, Align: 1.00, 374, 0.88
[A[2KProcessed: 59630 (0.85), R/S: 55.93, RL: 2729, Time: 16.00 2.00 76.00, Align: 1.00, 374, 0.88
[A[2KProcessed: 59761 (0.85), R/S: 55.95, RL: 2729, Time: 16.00 2.00 76.00, Align: 1.00, 373, 0.88
[A[2KProcessed: 59904 (0.85), R/S: 55.98, RL: 2727, Time: 16.00 2.00 76.00, Align: 1.00, 373, 0.88
[A[2KProcessed: 59999 (0.85), R/S: 55.96, RL: 2728, Time: 16.00 2.00 76.00, Align: 1.00, 373, 0.88
[A[2KProcessed: 60116 (0.85), R/S: 55.97, RL: 2728, Time: 16.00 2.00 76.00, Align: 1.00, 373, 0.88
[A[2KProcessed: 60222 (0.85), R/S: 55.96, RL: 2728, Time: 16.00 2.00 76.00, Align: 1.00, 373, 0.88
[A[2KProcessed: 60326 (0.85), R/S: 55.96, RL: 2728, Time: 16.00 2.00 76.00, Align: 1.00, 373, 0.88
[A[2KProcessed: 60464 (0.85), R/S: 55.98, RL: 2727, Time: 16.00 2.00 76.00, Align: 1.00, 373, 0.88
[A[2KProcessed: 60642 (0.85), R/S: 56.04, RL: 2725, Time: 16.00 2.00 76.00, Align: 1.00, 373, 0.88
[A[2KProcessed: 60699 (0.85), R/S: 55.99, RL: 2726, Time: 16.00 2.00 76.00, Align: 1.00, 373, 0.88
[A[2KProcessed: 60832 (0.85), R/S: 56.01, RL: 2726, Time: 16.00 2.00 76.00, Align: 1.00, 373, 0.88
[A[2KProcessed: 60938 (0.85), R/S: 56.00, RL: 2725, Time: 16.00 2.00 76.00, Align: 1.00, 373, 0.88
[A[2KProcessed: 61062 (0.85), R/S: 56.02, RL: 2726, Time: 16.00 2.00 76.00, Align: 1.00, 373, 0.88
[A[2KProcessed: 61204 (0.85), R/S: 56.04, RL: 2725, Time: 16.00 2.00 76.00, Align: 1.00, 373, 0.88
[A[2KProcessed: 61326 (0.85), R/S: 56.05, RL: 2724, Time: 16.00 2.00 76.00, Align: 1.00, 373, 0.88
[A[2KProcessed: 61441 (0.85), R/S: 56.05, RL: 2725, Time: 16.00 2.00 76.00, Align: 1.00, 373, 0.88
[A[2KProcessed: 61520 (0.85), R/S: 56.02, RL: 2726, Time: 16.00 2.00 76.00, Align: 1.00, 373, 0.88
[A[2KProcessed: 61620 (0.85), R/S: 56.01, RL: 2726, Time: 16.00 2.00 76.00, Align: 1.00, 373, 0.88
[A[2KProcessed: 61701 (0.85), R/S: 55.98, RL: 2728, Time: 16.00 2.00 76.00, Align: 1.00, 373, 0.88
[A[2KProcessed: 61790 (0.85), R/S: 55.96, RL: 2730, Time: 16.00 2.00 76.00, Align: 1.00, 373, 0.88
[A[2KProcessed: 61916 (0.85), R/S: 55.98, RL: 2729, Time: 16.00 2.00 76.00, Align: 1.00, 373, 0.88
[A[2KProcessed: 62004 (0.85), R/S: 55.96, RL: 2730, Time: 16.00 2.00 76.00, Align: 1.00, 373, 0.88
[A[2KProcessed: 62105 (0.85), R/S: 55.95, RL: 2730, Time: 16.00 2.00 76.00, Align: 1.00, 373, 0.88
[A[2KProcessed: 62205 (0.85), R/S: 55.93, RL: 2731, Time: 16.00 2.00 76.00, Align: 1.00, 373, 0.88
[A[2KProcessed: 62319 (0.85), R/S: 55.94, RL: 2732, Time: 16.00 2.00 76.00, Align: 1.00, 373, 0.88
[A[2KProcessed: 62441 (0.85), R/S: 55.95, RL: 2732, Time: 16.00 2.00 76.00, Align: 1.00, 373, 0.88
[A[2KProcessed: 62592 (0.85), R/S: 55.98, RL: 2730, Time: 16.00 2.00 76.00, Align: 1.00, 373, 0.88
[A[2KProcessed: 62695 (0.85), R/S: 55.97, RL: 2731, Time: 16.00 2.00 76.00, Align: 1.00, 373, 0.88
[A[2KProcessed: 62784 (0.85), R/S: 55.95, RL: 2732, Time: 16.00 2.00 76.00, Align: 1.00, 373, 0.88
[A[2KProcessed: 62911 (0.85), R/S: 55.97, RL: 2731, Time: 16.00 2.00 76.00, Align: 1.00, 373, 0.88
[A[2KProcessed: 62994 (0.85), R/S: 55.94, RL: 2732, Time: 16.00 2.00 76.00, Align: 1.00, 373, 0.88
[A[2KProcessed: 63065 (0.85), R/S: 55.90, RL: 2733, Time: 16.00 2.00 76.00, Align: 1.00, 373, 0.88
[A[2KProcessed: 63174 (0.85), R/S: 55.90, RL: 2734, Time: 16.00 2.00 76.00, Align: 1.00, 373, 0.88
[A[2KProcessed: 63275 (0.85), R/S: 55.89, RL: 2734, Time: 16.00 2.00 76.00, Align: 1.00, 373, 0.88
[A[2KProcessed: 63411 (0.85), R/S: 55.91, RL: 2734, Time: 16.00 2.00 76.00, Align: 1.00, 373, 0.88
[A[2KProcessed: 63544 (0.85), R/S: 55.93, RL: 2733, Time: 16.00 2.00 76.00, Align: 1.00, 373, 0.88
[A[2KProcessed: 63636 (0.85), R/S: 55.91, RL: 2733, Time: 16.00 2.00 76.00, Align: 1.00, 373, 0.88
[A[2KProcessed: 63749 (0.85), R/S: 55.92, RL: 2733, Time: 16.00 2.00 76.00, Align: 1.00, 373, 0.88
[A[2KProcessed: 63834 (0.85), R/S: 55.89, RL: 2734, Time: 16.00 2.00 76.00, Align: 1.00, 373, 0.88
[A[2KProcessed: 63940 (0.85), R/S: 55.89, RL: 2734, Time: 16.00 2.00 76.00, Align: 1.00, 373, 0.88
[A[2KProcessed: 64031 (0.85), R/S: 55.87, RL: 2735, Time: 16.00 2.00 76.00, Align: 1.00, 373, 0.88
[A[2KProcessed: 64139 (0.85), R/S: 55.87, RL: 2735, Time: 16.00 2.00 76.00, Align: 1.00, 373, 0.88
[A[2KProcessed: 64233 (0.85), R/S: 55.85, RL: 2736, Time: 16.00 2.00 76.00, Align: 1.00, 373, 0.88
[A[2KProcessed: 64346 (0.85), R/S: 55.85, RL: 2736, Time: 16.00 2.00 76.00, Align: 1.00, 373, 0.88
[A[2KProcessed: 64497 (0.85), R/S: 55.88, RL: 2735, Time: 16.00 2.00 76.00, Align: 1.00, 373, 0.88
[A[2KProcessed: 64613 (0.85), R/S: 55.89, RL: 2735, Time: 16.00 2.00 76.00, Align: 1.00, 373, 0.88
[A[2KProcessed: 64726 (0.85), R/S: 55.89, RL: 2735, Time: 16.00 2.00 76.00, Align: 1.00, 373, 0.88
[A[2KProcessed: 64802 (0.85), R/S: 55.86, RL: 2737, Time: 16.00 2.00 76.00, Align: 1.00, 373, 0.88
[A[2KProcessed: 64874 (0.85), R/S: 55.82, RL: 2738, Time: 16.00 2.00 76.00, Align: 1.00, 373, 0.88
[A[2KProcessed: 65008 (0.85), R/S: 55.84, RL: 2737, Time: 16.00 2.00 76.00, Align: 1.00, 373, 0.88
[A[2KProcessed: 65081 (0.85), R/S: 55.81, RL: 2739, Time: 16.00 2.00 76.00, Align: 1.00, 373, 0.88
[A[2KProcessed: 65146 (0.85), R/S: 55.77, RL: 2740, Time: 16.00 2.00 76.00, Align: 1.00, 373, 0.88
[A[2KProcessed: 65251 (0.85), R/S: 55.77, RL: 2741, Time: 16.00 2.00 76.00, Align: 1.00, 373, 0.88
[A[2KProcessed: 65343 (0.85), R/S: 55.75, RL: 2741, Time: 16.00 2.00 76.00, Align: 1.00, 373, 0.88
[A[2KProcessed: 65461 (0.85), R/S: 55.75, RL: 2741, Time: 16.00 2.00 76.00, Align: 1.00, 373, 0.88
[A[2KProcessed: 65607 (0.85), R/S: 55.78, RL: 2740, Time: 16.00 2.00 76.00, Align: 1.00, 373, 0.88
[A[2KProcessed: 65721 (0.85), R/S: 55.79, RL: 2740, Time: 16.00 2.00 76.00, Align: 1.00, 373, 0.88
[A[2KProcessed: 65831 (0.85), R/S: 55.78, RL: 2741, Time: 16.00 2.00 76.00, Align: 1.00, 373, 0.88
[A[2KProcessed: 65903 (0.85), R/S: 55.75, RL: 2741, Time: 16.00 2.00 76.00, Align: 1.00, 373, 0.88
[A[2KProcessed: 66044 (0.85), R/S: 55.78, RL: 2741, Time: 16.00 2.00 76.00, Align: 1.00, 373, 0.88
[A[2KProcessed: 66137 (0.85), R/S: 55.76, RL: 2742, Time: 16.00 2.00 76.00, Align: 1.00, 373, 0.88
[A[2KProcessed: 66229 (0.85), R/S: 55.74, RL: 2742, Time: 16.00 2.00 76.00, Align: 1.00, 373, 0.88
[A[2KProcessed: 66348 (0.85), R/S: 55.75, RL: 2742, Time: 16.00 2.00 76.00, Align: 1.00, 373, 0.88
[A[2KProcessed: 66479 (0.85), R/S: 55.77, RL: 2741, Time: 16.00 2.00 76.00, Align: 1.00, 373, 0.88
[A[2KProcessed: 66608 (0.85), R/S: 55.78, RL: 2741, Time: 16.00 2.00 76.00, Align: 1.00, 373, 0.88
[A[2KProcessed: 66735 (0.85), R/S: 55.79, RL: 2741, Time: 16.00 2.00 76.00, Align: 1.00, 373, 0.88
[A[2KProcessed: 66843 (0.85), R/S: 55.79, RL: 2741, Time: 16.00 2.00 76.00, Align: 1.00, 373, 0.88
[A[2KProcessed: 66948 (0.85), R/S: 55.78, RL: 2741, Time: 16.00 2.00 76.00, Align: 1.00, 373, 0.88
[A[2KProcessed: 67068 (0.85), R/S: 55.79, RL: 2741, Time: 16.00 2.00 76.00, Align: 1.00, 373, 0.88
[A[2KProcessed: 67179 (0.85), R/S: 55.79, RL: 2741, Time: 16.00 2.00 76.00, Align: 1.00, 373, 0.88
[A[2KProcessed: 67282 (0.85), R/S: 55.78, RL: 2741, Time: 16.00 2.00 76.00, Align: 1.00, 373, 0.88
[A[2KProcessed: 67379 (0.85), R/S: 55.77, RL: 2741, Time: 16.00 2.00 76.00, Align: 1.00, 373, 0.88
[A[2KProcessed: 67498 (0.85), R/S: 55.78, RL: 2741, Time: 16.00 2.00 76.00, Align: 1.00, 373, 0.88
[A[2KProcessed: 67644 (0.85), R/S: 55.81, RL: 2740, Time: 16.00 2.00 76.00, Align: 1.00, 373, 0.88
[A[2KProcessed: 67773 (0.85), R/S: 55.82, RL: 2739, Time: 16.00 2.00 76.00, Align: 1.00, 373, 0.88
[A[2KProcessed: 67882 (0.85), R/S: 55.82, RL: 2740, Time: 16.00 2.00 76.00, Align: 1.00, 373, 0.88
[A[2KProcessed: 68016 (0.85), R/S: 55.84, RL: 2740, Time: 16.00 2.00 76.00, Align: 1.00, 373, 0.88
[A[2KProcessed: 68096 (0.85), R/S: 55.81, RL: 2740, Time: 16.00 2.00 76.00, Align: 1.00, 373, 0.88
[A[2KProcessed: 68202 (0.85), R/S: 55.81, RL: 2741, Time: 16.00 2.00 76.00, Align: 1.00, 373, 0.88
[A[2KProcessed: 68320 (0.85), R/S: 55.81, RL: 2740, Time: 16.00 2.00 76.00, Align: 1.00, 373, 0.88
[A[2KProcessed: 68426 (0.85), R/S: 55.81, RL: 2740, Time: 16.00 2.00 76.00, Align: 1.00, 373, 0.88
[A[2KProcessed: 68514 (0.85), R/S: 55.79, RL: 2741, Time: 16.00 2.00 76.00, Align: 1.00, 373, 0.88
[A[2KProcessed: 68599 (0.85), R/S: 55.77, RL: 2741, Time: 16.00 2.00 76.00, Align: 1.00, 373, 0.88
[A[2KProcessed: 68756 (0.85), R/S: 55.80, RL: 2741, Time: 16.00 2.00 76.00, Align: 1.00, 373, 0.88
[A[2KProcessed: 68857 (0.85), R/S: 55.79, RL: 2741, Time: 16.00 2.00 76.00, Align: 1.00, 373, 0.88
[A[2KProcessed: 68955 (0.85), R/S: 55.78, RL: 2742, Time: 16.00 2.00 76.00, Align: 1.00, 373, 0.88
[A[2KProcessed: 69070 (0.85), R/S: 55.79, RL: 2742, Time: 16.00 2.00 76.00, Align: 1.00, 373, 0.88
[A[2KProcessed: 69181 (0.85), R/S: 55.79, RL: 2742, Time: 16.00 2.00 76.00, Align: 1.00, 373, 0.88
[A[2KProcessed: 69332 (0.85), R/S: 55.82, RL: 2740, Time: 16.00 2.00 76.00, Align: 1.00, 373, 0.88
[A[2KProcessed: 69435 (0.85), R/S: 55.81, RL: 2741, Time: 16.00 2.00 76.00, Align: 1.00, 373, 0.88
[A[2KProcessed: 69527 (0.85), R/S: 55.80, RL: 2742, Time: 16.00 2.00 76.00, Align: 1.00, 373, 0.88
[A[2KProcessed: 69579 (0.85), R/S: 55.75, RL: 2741, Time: 16.00 2.00 76.00, Align: 1.00, 373, 0.88
[A[2KProcessed: 69714 (0.85), R/S: 55.77, RL: 2741, Time: 16.00 2.00 76.00, Align: 1.00, 373, 0.88
[A[2KProcessed: 69819 (0.85), R/S: 55.76, RL: 2742, Time: 16.00 2.00 76.00, Align: 1.00, 373, 0.88
[A[2KProcessed: 69905 (0.85), R/S: 55.74, RL: 2743, Time: 16.00 2.00 76.00, Align: 1.00, 373, 0.88
[A[2KProcessed: 70011 (0.85), R/S: 55.74, RL: 2743, Time: 16.00 2.00 76.00, Align: 1.00, 373, 0.88
[A[2KProcessed: 70149 (0.85), R/S: 55.76, RL: 2743, Time: 16.00 2.00 76.00, Align: 1.00, 373, 0.88
[A[2KProcessed: 70256 (0.85), R/S: 55.75, RL: 2743, Time: 16.00 2.00 76.00, Align: 1.00, 373, 0.88
[A[2KProcessed: 70387 (0.85), R/S: 55.77, RL: 2742, Time: 16.00 2.00 76.00, Align: 1.00, 373, 0.88
[A[2KProcessed: 70449 (0.85), R/S: 55.73, RL: 2743, Time: 16.00 2.00 76.00, Align: 1.00, 373, 0.88
[A[2KProcessed: 70483 (0.85), R/S: 55.67, RL: 2745, Time: 16.00 2.00 76.00, Align: 1.00, 373, 0.88
[A[2KProcessed: 70606 (0.85), R/S: 55.68, RL: 2744, Time: 16.00 2.00 76.00, Align: 1.00, 373, 0.88
[A[2KProcessed: 70702 (0.85), R/S: 55.67, RL: 2745, Time: 16.00 2.00 76.00, Align: 1.00, 373, 0.88
[A[2KProcessed: 70829 (0.85), R/S: 55.68, RL: 2744, Time: 16.00 2.00 76.00, Align: 1.00, 373, 0.88
[A[2KProcessed: 70961 (0.85), R/S: 55.69, RL: 2744, Time: 16.00 2.00 76.00, Align: 1.00, 373, 0.88
[A[2KProcessed: 71146 (0.85), R/S: 55.75, RL: 2741, Time: 16.00 2.00 76.00, Align: 1.00, 373, 0.88
[A[2KProcessed: 71242 (0.85), R/S: 55.74, RL: 2742, Time: 16.00 2.00 76.00, Align: 1.00, 373, 0.88
[A[2KProcessed: 71320 (0.85), R/S: 55.71, RL: 2743, Time: 16.00 2.00 76.00, Align: 1.00, 373, 0.88
[A[2KProcessed: 71444 (0.85), R/S: 55.72, RL: 2742, Time: 16.00 2.00 76.00, Align: 1.00, 373, 0.88
[A[2KProcessed: 71580 (0.85), R/S: 55.74, RL: 2742, Time: 16.00 2.00 76.00, Align: 1.00, 373, 0.88
[A[2KProcessed: 71665 (0.85), R/S: 55.72, RL: 2742, Time: 16.00 2.00 76.00, Align: 1.00, 373, 0.88
[A[2KProcessed: 71786 (0.85), R/S: 55.73, RL: 2741, Time: 16.00 2.00 76.00, Align: 1.00, 373, 0.88
[A[2KProcessed: 71919 (0.85), R/S: 55.75, RL: 2741, Time: 16.00 2.00 76.00, Align: 1.00, 373, 0.88
[A[2KProcessed: 72035 (0.85), R/S: 55.75, RL: 2742, Time: 16.00 2.00 76.00, Align: 1.00, 373, 0.88
[A[2KProcessed: 72141 (0.85), R/S: 55.75, RL: 2742, Time: 16.00 2.00 76.00, Align: 1.00, 373, 0.88
[A[2KProcessed: 72271 (0.85), R/S: 55.76, RL: 2741, Time: 16.00 2.00 76.00, Align: 1.00, 373, 0.88
[A[2KProcessed: 72386 (0.85), R/S: 55.76, RL: 2741, Time: 16.00 2.00 76.00, Align: 1.00, 373, 0.88
[A[2KProcessed: 72478 (0.85), R/S: 55.75, RL: 2742, Time: 16.00 2.00 76.00, Align: 1.00, 373, 0.88
[A[2KProcessed: 72581 (0.85), R/S: 55.74, RL: 2743, Time: 16.00 2.00 76.00, Align: 1.00, 373, 0.88
[A[2KProcessed: 72727 (0.85), R/S: 55.77, RL: 2741, Time: 16.00 2.00 76.00, Align: 1.00, 373, 0.88
[A[2KProcessed: 72854 (0.85), R/S: 55.78, RL: 2741, Time: 16.00 2.00 76.00, Align: 1.00, 373, 0.88
[A[2KProcessed: 72999 (0.85), R/S: 55.80, RL: 2740, Time: 16.00 2.00 76.00, Align: 1.00, 373, 0.88
[A[2KProcessed: 73104 (0.85), R/S: 55.80, RL: 2741, Time: 16.00 2.00 76.00, Align: 1.00, 373, 0.88
[A[2KProcessed: 73250 (0.85), R/S: 55.83, RL: 2740, Time: 16.00 2.00 76.00, Align: 1.00, 373, 0.88
[A[2KProcessed: 73350 (0.85), R/S: 55.82, RL: 2740, Time: 16.00 2.00 76.00, Align: 1.00, 373, 0.88
[A[2KProcessed: 73493 (0.85), R/S: 55.84, RL: 2739, Time: 16.00 2.00 76.00, Align: 1.00, 373, 0.88
[A[2KProcessed: 73614 (0.85), R/S: 55.85, RL: 2738, Time: 16.00 2.00 76.00, Align: 1.00, 373, 0.88
[A[2KProcessed: 73691 (0.85), R/S: 55.82, RL: 2739, Time: 16.00 2.00 76.00, Align: 1.00, 373, 0.88
[A[2KProcessed: 73738 (0.85), R/S: 55.77, RL: 2739, Time: 16.00 2.00 76.00, Align: 1.00, 373, 0.88
[A[2KProcessed: 73882 (0.85), R/S: 55.80, RL: 2739, Time: 16.00 2.00 76.00, Align: 1.00, 373, 0.88
[A[2KProcessed: 73979 (0.85), R/S: 55.79, RL: 2738, Time: 16.00 2.00 76.00, Align: 1.00, 373, 0.88
[A[2KProcessed: 74113 (0.85), R/S: 55.80, RL: 2738, Time: 16.00 2.00 76.00, Align: 1.00, 373, 0.88
[A[2KProcessed: 74239 (0.85), R/S: 55.81, RL: 2737, Time: 16.00 2.00 76.00, Align: 1.00, 373, 0.88
[A[2KProcessed: 74357 (0.85), R/S: 55.82, RL: 2738, Time: 16.00 2.00 76.00, Align: 1.00, 373, 0.88
[A[2KProcessed: 74440 (0.85), R/S: 55.80, RL: 2739, Time: 16.00 2.00 76.00, Align: 1.00, 373, 0.88
[A[2KProcessed: 74594 (0.85), R/S: 55.83, RL: 2738, Time: 16.00 2.00 76.00, Align: 1.00, 373, 0.88
[A[2KProcessed: 74706 (0.85), R/S: 55.83, RL: 2738, Time: 16.00 2.00 76.00, Align: 1.00, 373, 0.88
[A[2KProcessed: 74803 (0.85), R/S: 55.82, RL: 2739, Time: 16.00 2.00 76.00, Align: 1.00, 373, 0.88
[A[2KProcessed: 74932 (0.85), R/S: 55.83, RL: 2739, Time: 16.00 2.00 76.00, Align: 1.00, 373, 0.88
[A[2KProcessed: 75058 (0.85), R/S: 55.84, RL: 2738, Time: 16.00 2.00 76.00, Align: 1.00, 373, 0.88
[A[2KProcessed: 75098 (0.85), R/S: 55.79, RL: 2739, Time: 16.00 2.00 76.00, Align: 1.00, 373, 0.88
[A[2KProcessed: 75210 (0.85), R/S: 55.79, RL: 2740, Time: 16.00 2.00 76.00, Align: 1.00, 373, 0.88
[A[2KProcessed: 75325 (0.85), R/S: 55.79, RL: 2740, Time: 16.00 2.00 76.00, Align: 1.00, 373, 0.88
[A[2KProcessed: 75450 (0.85), R/S: 55.80, RL: 2739, Time: 16.00 2.00 76.00, Align: 1.00, 373, 0.88
[A[2KProcessed: 75590 (0.85), R/S: 55.82, RL: 2738, Time: 16.00 2.00 76.00, Align: 1.00, 373, 0.88
[A[2KProcessed: 75666 (0.85), R/S: 55.79, RL: 2738, Time: 16.00 2.00 76.00, Align: 1.00, 373, 0.88
[A[2KProcessed: 75755 (0.85), R/S: 55.78, RL: 2739, Time: 16.00 2.00 76.00, Align: 1.00, 373, 0.88
[A[2KProcessed: 75870 (0.85), R/S: 55.78, RL: 2739, Time: 16.00 2.00 76.00, Align: 1.00, 373, 0.88
[A[2KProcessed: 76025 (0.85), R/S: 55.81, RL: 2737, Time: 16.00 2.00 76.00, Align: 1.00, 373, 0.88
[A[2KProcessed: 76145 (0.85), R/S: 55.82, RL: 2737, Time: 16.00 2.00 76.00, Align: 1.00, 373, 0.88
[A[2KProcessed: 76283 (0.85), R/S: 55.84, RL: 2737, Time: 16.00 2.00 76.00, Align: 1.00, 373, 0.88
[A[2KProcessed: 76346 (0.85), R/S: 55.80, RL: 2738, Time: 16.00 2.00 76.00, Align: 1.00, 373, 0.88
[A[2KProcessed: 76468 (0.85), R/S: 55.81, RL: 2738, Time: 16.00 2.00 76.00, Align: 1.00, 373, 0.88
[A[2KProcessed: 76591 (0.85), R/S: 55.82, RL: 2738, Time: 16.00 2.00 76.00, Align: 1.00, 373, 0.88
[A[2KProcessed: 76707 (0.85), R/S: 55.82, RL: 2737, Time: 16.00 2.00 76.00, Align: 1.00, 373, 0.88
[A[2KProcessed: 76861 (0.85), R/S: 55.85, RL: 2736, Time: 16.00 2.00 76.00, Align: 1.00, 373, 0.88
[A[2KProcessed: 76985 (0.85), R/S: 55.86, RL: 2736, Time: 16.00 2.00 76.00, Align: 1.00, 373, 0.88
[A[2KProcessed: 77073 (0.85), R/S: 55.84, RL: 2736, Time: 16.00 2.00 76.00, Align: 1.00, 373, 0.88
[A[2KProcessed: 77230 (0.85), R/S: 55.88, RL: 2735, Time: 16.00 2.00 76.00, Align: 1.00, 373, 0.88
[A[2KProcessed: 77321 (0.85), R/S: 55.86, RL: 2735, Time: 16.00 2.00 76.00, Align: 1.00, 373, 0.88
[A[2KProcessed: 77459 (0.85), R/S: 55.88, RL: 2734, Time: 16.00 2.00 76.00, Align: 1.00, 373, 0.88
[A[2KProcessed: 77561 (0.85), R/S: 55.87, RL: 2735, Time: 16.00 2.00 76.00, Align: 1.00, 373, 0.88
[A[2KProcessed: 77632 (0.85), R/S: 55.84, RL: 2734, Time: 16.00 2.00 76.00, Align: 1.00, 373, 0.88
[A[2KProcessed: 77752 (0.85), R/S: 55.85, RL: 2734, Time: 16.00 2.00 76.00, Align: 1.00, 373, 0.88
[A[2KProcessed: 77927 (0.85), R/S: 55.89, RL: 2732, Time: 16.00 2.00 76.00, Align: 1.00, 373, 0.88
[A[2KProcessed: 78030 (0.85), R/S: 55.89, RL: 2733, Time: 16.00 2.00 76.00, Align: 1.00, 373, 0.88
[A[2KProcessed: 78072 (0.85), R/S: 55.84, RL: 2733, Time: 16.00 2.00 76.00, Align: 1.00, 373, 0.88
[A[2KProcessed: 78168 (0.85), R/S: 55.83, RL: 2733, Time: 16.00 2.00 76.00, Align: 1.00, 373, 0.88
[A[2KProcessed: 78302 (0.85), R/S: 55.84, RL: 2733, Time: 16.00 2.00 76.00, Align: 1.00, 373, 0.88
[A[2KProcessed: 78379 (0.85), R/S: 55.82, RL: 2733, Time: 16.00 2.00 76.00, Align: 1.00, 373, 0.88
[A[2KProcessed: 78490 (0.85), R/S: 55.82, RL: 2734, Time: 16.00 2.00 76.00, Align: 1.00, 373, 0.88
[A[2KProcessed: 78623 (0.85), R/S: 55.83, RL: 2733, Time: 16.00 2.00 76.00, Align: 1.00, 373, 0.88
[A[2KProcessed: 78714 (0.85), R/S: 55.82, RL: 2733, Time: 16.00 2.00 76.00, Align: 1.00, 373, 0.88
[A[2KProcessed: 78795 (0.85), R/S: 55.80, RL: 2734, Time: 16.00 2.00 76.00, Align: 1.00, 373, 0.88
[A[2KProcessed: 78910 (0.85), R/S: 55.80, RL: 2734, Time: 16.00 2.00 76.00, Align: 1.00, 373, 0.88
[A[2KProcessed: 79008 (0.85), R/S: 55.79, RL: 2735, Time: 16.00 2.00 76.00, Align: 1.00, 373, 0.88
[A[2KProcessed: 79121 (0.85), R/S: 55.79, RL: 2735, Time: 16.00 2.00 76.00, Align: 1.00, 373, 0.88
[A[2KProcessed: 79242 (0.85), R/S: 55.80, RL: 2735, Time: 16.00 2.00 76.00, Align: 1.00, 373, 0.88
[A[2KProcessed: 79390 (0.85), R/S: 55.82, RL: 2734, Time: 16.00 2.00 76.00, Align: 1.00, 373, 0.88
[A[2KProcessed: 79492 (0.85), R/S: 55.82, RL: 2734, Time: 16.00 2.00 76.00, Align: 1.00, 373, 0.88
[A[2KProcessed: 79613 (0.85), R/S: 55.82, RL: 2734, Time: 16.00 2.00 76.00, Align: 1.00, 373, 0.88
[A[2KProcessed: 79731 (0.85), R/S: 55.83, RL: 2734, Time: 16.00 2.00 76.00, Align: 1.00, 373, 0.88
[A[2KProcessed: 79855 (0.85), R/S: 55.84, RL: 2734, Time: 16.00 2.00 76.00, Align: 1.00, 373, 0.88
[A[2KProcessed: 79991 (0.85), R/S: 55.85, RL: 2734, Time: 16.00 2.00 76.00, Align: 1.00, 373, 0.88
[A[2KProcessed: 80115 (0.85), R/S: 55.86, RL: 2734, Time: 16.00 2.00 76.00, Align: 1.00, 373, 0.88
[A[2KProcessed: 80231 (0.85), R/S: 55.86, RL: 2734, Time: 16.00 2.00 76.00, Align: 1.00, 373, 0.88
[A[2KProcessed: 80361 (0.85), R/S: 55.88, RL: 2734, Time: 16.00 2.00 76.00, Align: 1.00, 373, 0.88
[A[2KProcessed: 80451 (0.85), R/S: 55.86, RL: 2734, Time: 16.00 2.00 76.00, Align: 1.00, 373, 0.88
[A[2KProcessed: 80540 (0.85), R/S: 55.85, RL: 2735, Time: 16.00 2.00 76.00, Align: 1.00, 373, 0.88
[A[2KProcessed: 80614 (0.85), R/S: 55.82, RL: 2736, Time: 16.00 2.00 76.00, Align: 1.00, 373, 0.88
[A[2KProcessed: 80729 (0.85), R/S: 55.82, RL: 2736, Time: 16.00 2.00 76.00, Align: 1.00, 373, 0.88
[A[2KProcessed: 80804 (0.85), R/S: 55.80, RL: 2737, Time: 16.00 2.00 76.00, Align: 1.00, 373, 0.88
[A[2KProcessed: 80901 (0.85), R/S: 55.79, RL: 2738, Time: 16.00 2.00 76.00, Align: 1.00, 373, 0.88
[A[2KProcessed: 81008 (0.85), R/S: 55.78, RL: 2738, Time: 16.00 2.00 76.00, Align: 1.00, 373, 0.88
[A[2KProcessed: 81151 (0.85), R/S: 55.80, RL: 2738, Time: 16.00 2.00 76.00, Align: 1.00, 373, 0.88
[A[2KProcessed: 81257 (0.85), R/S: 55.80, RL: 2738, Time: 16.00 2.00 76.00, Align: 1.00, 373, 0.88
[A[2KProcessed: 81386 (0.85), R/S: 55.81, RL: 2738, Time: 16.00 2.00 76.00, Align: 1.00, 373, 0.88
[A[2KProcessed: 81494 (0.85), R/S: 55.81, RL: 2738, Time: 16.00 2.00 76.00, Align: 1.00, 373, 0.88
[A[2KProcessed: 81589 (0.85), R/S: 55.80, RL: 2738, Time: 16.00 2.00 76.00, Align: 1.00, 373, 0.88
[A[2KProcessed: 81716 (0.85), R/S: 55.81, RL: 2737, Time: 16.00 2.00 76.00, Align: 1.00, 373, 0.88
[A[2KProcessed: 81821 (0.85), R/S: 55.81, RL: 2737, Time: 16.00 2.00 76.00, Align: 1.00, 373, 0.88
[A[2KProcessed: 81925 (0.85), R/S: 55.80, RL: 2737, Time: 16.00 2.00 76.00, Align: 1.00, 373, 0.88
[A[2KProcessed: 82030 (0.85), R/S: 55.80, RL: 2737, Time: 16.00 2.00 76.00, Align: 1.00, 373, 0.88
[A[2KProcessed: 82180 (0.85), R/S: 55.82, RL: 2736, Time: 16.00 2.00 76.00, Align: 1.00, 373, 0.88
[A[2KProcessed: 82337 (0.85), R/S: 55.85, RL: 2735, Time: 16.00 2.00 76.00, Align: 1.00, 373, 0.88
[A[2KProcessed: 82447 (0.85), R/S: 55.85, RL: 2736, Time: 16.00 2.00 76.00, Align: 1.00, 373, 0.88
[A[2KProcessed: 82574 (0.85), R/S: 55.86, RL: 2736, Time: 16.00 2.00 76.00, Align: 1.00, 373, 0.88
[A[2KProcessed: 82649 (0.85), R/S: 55.84, RL: 2736, Time: 16.00 2.00 76.00, Align: 1.00, 373, 0.88
[A[2KProcessed: 82649 (0.85), R/S: 55.76, RL: 2736, Time: 16.00 2.00 76.00, Align: 1.00, 373, 0.88
[A[2KProcessed: 82753 (0.85), R/S: 55.76, RL: 2736, Time: 16.00 2.00 76.00, Align: 1.00, 373, 0.88
[A[2KProcessed: 82864 (0.85), R/S: 55.76, RL: 2736, Time: 16.00 2.00 76.00, Align: 1.00, 373, 0.88
[A[2KProcessed: 82973 (0.85), R/S: 55.75, RL: 2737, Time: 16.00 2.00 76.00, Align: 1.00, 373, 0.88
[A[2KProcessed: 83080 (0.85), R/S: 55.75, RL: 2738, Time: 16.00 2.00 76.00, Align: 1.00, 373, 0.88
[A[2KProcessed: 83210 (0.85), R/S: 55.76, RL: 2737, Time: 16.00 2.00 76.00, Align: 1.00, 373, 0.88
[A[2KProcessed: 83329 (0.85), R/S: 55.77, RL: 2737, Time: 16.00 2.00 76.00, Align: 1.00, 373, 0.88
[A[2KProcessed: 83437 (0.85), R/S: 55.77, RL: 2737, Time: 16.00 2.00 76.00, Align: 1.00, 373, 0.88
[A[2KProcessed: 83571 (0.85), R/S: 55.78, RL: 2737, Time: 16.00 2.00 76.00, Align: 1.00, 373, 0.88
[A[2KProcessed: 83678 (0.85), R/S: 55.78, RL: 2737, Time: 16.00 2.00 76.00, Align: 1.00, 373, 0.88
[A[2KProcessed: 83814 (0.85), R/S: 55.79, RL: 2737, Time: 16.00 2.00 76.00, Align: 1.00, 373, 0.88
[A[2KProcessed: 83896 (0.85), R/S: 55.77, RL: 2737, Time: 16.00 2.00 76.00, Align: 1.00, 373, 0.88
[A[2KProcessed: 84001 (0.85), R/S: 55.77, RL: 2738, Time: 16.00 2.00 76.00, Align: 1.00, 373, 0.88
[A[2KProcessed: 84109 (0.85), R/S: 55.77, RL: 2738, Time: 16.00 2.00 76.00, Align: 1.00, 373, 0.88
[A[2KProcessed: 84214 (0.85), R/S: 55.76, RL: 2738, Time: 16.00 2.00 76.00, Align: 1.00, 373, 0.88
[A[2KProcessed: 84315 (0.85), R/S: 55.76, RL: 2739, Time: 16.00 2.00 76.00, Align: 1.00, 373, 0.88
[A[2KProcessed: 84415 (0.85), R/S: 55.75, RL: 2739, Time: 16.00 2.00 76.00, Align: 1.00, 373, 0.88
[A[2KProcessed: 84540 (0.85), R/S: 55.76, RL: 2739, Time: 16.00 2.00 76.00, Align: 1.00, 373, 0.88
[A[2KProcessed: 84602 (0.85), R/S: 55.73, RL: 2740, Time: 16.00 2.00 76.00, Align: 1.00, 373, 0.88
[A[2KProcessed: 84703 (0.85), R/S: 55.72, RL: 2740, Time: 16.00 2.00 76.00, Align: 1.00, 373, 0.88
[A[2KProcessed: 84825 (0.85), R/S: 55.73, RL: 2739, Time: 16.00 2.00 76.00, Align: 1.00, 373, 0.88
[A[2KProcessed: 84903 (0.85), R/S: 55.70, RL: 2739, Time: 16.00 2.00 76.00, Align: 1.00, 373, 0.88
[A[2KProcessed: 85003 (0.85), R/S: 55.70, RL: 2739, Time: 16.00 2.00 76.00, Align: 1.00, 373, 0.88
[A[2KProcessed: 85109 (0.85), R/S: 55.69, RL: 2739, Time: 16.00 2.00 76.00, Align: 1.00, 373, 0.88
[A[2KProcessed: 85217 (0.85), R/S: 55.69, RL: 2740, Time: 16.00 2.00 76.00, Align: 1.00, 373, 0.88
[A[2KProcessed: 85335 (0.85), R/S: 55.69, RL: 2740, Time: 16.00 2.00 76.00, Align: 1.00, 373, 0.88
[A[2KProcessed: 85471 (0.85), R/S: 55.71, RL: 2739, Time: 16.00 2.00 76.00, Align: 1.00, 373, 0.88
[A[2KProcessed: 85547 (0.85), R/S: 55.69, RL: 2739, Time: 16.00 2.00 76.00, Align: 1.00, 373, 0.88
[A[2KProcessed: 85547 (0.85), R/S: 55.62, RL: 2739, Time: 16.00 2.00 76.00, Align: 1.00, 373, 0.88
[A[2KProcessed: 85601 (0.85), R/S: 55.58, RL: 2740, Time: 16.00 2.00 76.00, Align: 1.00, 373, 0.88
[A[2KProcessed: 85713 (0.85), R/S: 55.58, RL: 2739, Time: 16.00 2.00 76.00, Align: 1.00, 373, 0.88
[A[2KProcessed: 85858 (0.85), R/S: 55.60, RL: 2738, Time: 16.00 2.00 76.00, Align: 1.00, 373, 0.88
[A[2KProcessed: 85957 (0.85), R/S: 55.59, RL: 2739, Time: 16.00 2.00 76.00, Align: 1.00, 373, 0.88
[A[2KProcessed: 85986 (0.85), R/S: 55.54, RL: 2739, Time: 16.00 2.00 76.00, Align: 1.00, 373, 0.88
[A[2KProcessed: 86044 (0.85), R/S: 55.51, RL: 2740, Time: 16.00 2.00 76.00, Align: 1.00, 373, 0.88
[A[2KProcessed: 86124 (0.85), R/S: 55.49, RL: 2740, Time: 16.00 2.00 76.00, Align: 1.00, 373, 0.88
[A[2KProcessed: 86232 (0.85), R/S: 55.48, RL: 2741, Time: 16.00 2.00 76.00, Align: 1.00, 373, 0.88
[A[2KProcessed: 86360 (0.85), R/S: 55.49, RL: 2741, Time: 16.00 2.00 76.00, Align: 1.00, 373, 0.88
[A[2KProcessed: 86436 (0.85), R/S: 55.47, RL: 2741, Time: 16.00 2.00 76.00, Align: 1.00, 373, 0.88
[A[2KProcessed: 86562 (0.85), R/S: 55.48, RL: 2740, Time: 16.00 2.00 76.00, Align: 1.00, 373, 0.88
[A[2KProcessed: 86636 (0.85), R/S: 55.46, RL: 2741, Time: 16.00 2.00 76.00, Align: 1.00, 373, 0.88
[A[2KProcessed: 86759 (0.85), R/S: 55.47, RL: 2741, Time: 16.00 2.00 76.00, Align: 1.00, 373, 0.88
[A[2KProcessed: 86894 (0.85), R/S: 55.48, RL: 2740, Time: 16.00 2.00 76.00, Align: 1.00, 373, 0.88
[A[2KProcessed: 87012 (0.85), R/S: 55.49, RL: 2740, Time: 16.00 2.00 76.00, Align: 1.00, 373, 0.88
[A[2KProcessed: 87119 (0.85), R/S: 55.48, RL: 2740, Time: 16.00 2.00 76.00, Align: 1.00, 373, 0.88
[A[2KProcessed: 87211 (0.85), R/S: 55.47, RL: 2742, Time: 16.00 2.00 76.00, Align: 1.00, 373, 0.88
[A[2KProcessed: 87314 (0.85), R/S: 55.47, RL: 2741, Time: 16.00 2.00 76.00, Align: 1.00, 373, 0.88
[A[2KProcessed: 87400 (0.85), R/S: 55.45, RL: 2742, Time: 16.00 2.00 76.00, Align: 1.00, 373, 0.88
[A[2KProcessed: 87505 (0.85), R/S: 55.45, RL: 2742, Time: 16.00 2.00 76.00, Align: 1.00, 373, 0.88
[A[2KProcessed: 87631 (0.85), R/S: 55.46, RL: 2742, Time: 16.00 2.00 76.00, Align: 1.00, 373, 0.88
[A[2KProcessed: 87766 (0.85), R/S: 55.47, RL: 2741, Time: 16.00 2.00 76.00, Align: 1.00, 373, 0.88
[A[2KProcessed: 87888 (0.85), R/S: 55.48, RL: 2741, Time: 16.00 2.00 76.00, Align: 1.00, 373, 0.88
[A[2KProcessed: 88002 (0.85), R/S: 55.48, RL: 2741, Time: 16.00 2.00 76.00, Align: 1.00, 373, 0.88
[A[2KProcessed: 88118 (0.85), R/S: 55.48, RL: 2741, Time: 16.00 2.00 76.00, Align: 1.00, 373, 0.88
[A[2KProcessed: 88213 (0.85), R/S: 55.47, RL: 2742, Time: 16.00 2.00 76.00, Align: 1.00, 373, 0.88
[A[2KProcessed: 88293 (0.85), R/S: 55.45, RL: 2742, Time: 16.00 2.00 76.00, Align: 1.00, 373, 0.88
[A[2KProcessed: 88422 (0.85), R/S: 55.46, RL: 2742, Time: 16.00 2.00 76.00, Align: 1.00, 373, 0.88
[A[2KProcessed: 88544 (0.85), R/S: 55.47, RL: 2741, Time: 16.00 2.00 76.00, Align: 1.00, 373, 0.88
[A[2KProcessed: 88644 (0.85), R/S: 55.46, RL: 2741, Time: 16.00 2.00 76.00, Align: 1.00, 373, 0.88
[A[2KProcessed: 88746 (0.85), R/S: 55.46, RL: 2742, Time: 16.00 2.00 76.00, Align: 1.00, 373, 0.88
[A[2KProcessed: 88855 (0.85), R/S: 55.46, RL: 2742, Time: 16.00 2.00 76.00, Align: 1.00, 373, 0.88
[A[2KProcessed: 88970 (0.85), R/S: 55.46, RL: 2742, Time: 16.00 2.00 76.00, Align: 1.00, 373, 0.88
[A[2KProcessed: 89101 (0.85), R/S: 55.47, RL: 2742, Time: 16.00 2.00 76.00, Align: 1.00, 373, 0.88
[A[2KProcessed: 89200 (0.85), R/S: 55.47, RL: 2742, Time: 16.00 2.00 76.00, Align: 1.00, 373, 0.88
[A[2KProcessed: 89334 (0.85), R/S: 55.48, RL: 2741, Time: 16.00 2.00 76.00, Align: 1.00, 373, 0.88
[A[2KProcessed: 89450 (0.85), R/S: 55.48, RL: 2741, Time: 16.00 2.00 76.00, Align: 1.00, 373, 0.88
[A[2KProcessed: 89565 (0.85), R/S: 55.49, RL: 2741, Time: 16.00 2.00 76.00, Align: 1.00, 373, 0.88
[A[2KProcessed: 89638 (0.85), R/S: 55.46, RL: 2742, Time: 16.00 2.00 76.00, Align: 1.00, 373, 0.88
[A[2KProcessed: 89772 (0.85), R/S: 55.48, RL: 2742, Time: 16.00 2.00 76.00, Align: 1.00, 373, 0.88
[A[2KProcessed: 89901 (0.85), R/S: 55.49, RL: 2741, Time: 16.00 2.00 76.00, Align: 1.00, 373, 0.88
[A[2KProcessed: 89999 (0.85), R/S: 55.48, RL: 2742, Time: 16.00 2.00 76.00, Align: 1.00, 373, 0.88
[A[2KProcessed: 90113 (0.85), R/S: 55.48, RL: 2742, Time: 16.00 2.00 76.00, Align: 1.00, 373, 0.88
[A[2KProcessed: 90246 (0.85), R/S: 55.49, RL: 2741, Time: 16.00 2.00 76.00, Align: 1.00, 373, 0.88
[A[2KProcessed: 90347 (0.85), R/S: 55.49, RL: 2741, Time: 16.00 2.00 76.00, Align: 1.00, 373, 0.88
[A[2KProcessed: 90486 (0.85), R/S: 55.51, RL: 2741, Time: 16.00 2.00 76.00, Align: 1.00, 373, 0.88
[A[2KProcessed: 90555 (0.85), R/S: 55.48, RL: 2742, Time: 16.00 2.00 76.00, Align: 1.00, 373, 0.88
[A[2KProcessed: 90555 (0.85), R/S: 55.48, RL: 2742, Time: 16.00 2.00 76.00, Align: 1.00, 373, 0.88
Done (77276 reads mapped (85.34%), 13279 reads not mapped, 129612 lines written)(elapsed: 31m, 40 r/s)
[Mon May 13 07:48:47 2019]
Finished job 0.
1 of 1 steps (100%) done
