Wildcard constraints in inputs are ignored.
Building DAG of jobs...
Using shell: /usr/bin/bash
Provided cores: 32
Rules claiming more threads will be scaled down.
Job counts:
	count	jobs
	1	sam2paf
	1

[Tue Apr 30 16:10:18 2019]
rule sam2paf:
    input: /fast/users/helmsauk_c/scratch/PipelineTestingDir/Alignment/rms1-4-alignment/rms1-4.NoBarcode.minimap_hg19.sam
    output: /fast/users/helmsauk_c/scratch/PipelineTestingDir/Alignment/rms1-4-alignment/rms1-4.NoBarcode.minimap_hg19.paf
    jobid: 0
    wildcards: run=rms1-4, alignment=rms1-4.NoBarcode.minimap_hg19

/fast/users/helmsauk_c/work/nano-wgs/utils/k8-linux /fast/users/helmsauk_c/work/nano-wgs/utils/sam2paf.js /fast/users/helmsauk_c/scratch/PipelineTestingDir/Alignment/rms1-4-alignment/rms1-4.NoBarcode.minimap_hg19.sam > /fast/users/helmsauk_c/scratch/PipelineTestingDir/Alignment/rms1-4-alignment/rms1-4.NoBarcode.minimap_hg19.paf
[Tue Apr 30 16:10:18 2019]
Finished job 0.
1 of 1 steps (100%) done
