Wildcard constraints in inputs are ignored.
Building DAG of jobs...
Using shell: /usr/bin/bash
Provided cores: 32
Rules claiming more threads will be scaled down.
Job counts:
	count	jobs
	1	stats
	1

[Tue Apr 30 16:21:57 2019]
rule stats:
    input: /fast/users/helmsauk_c/scratch/PipelineTestingDir/Alignment/rms5-8-alignment/rms5-8.11492.ngmlr_hg19.sorted.bam
    output: /fast/users/helmsauk_c/scratch/PipelineTestingDir/Alignment/rms5-8-alignment/rms5-8.11492.ngmlr_hg19.sorted.stats.txt
    jobid: 0
    wildcards: run=rms5-8, alignment=rms5-8.11492.ngmlr_hg19, filtered=


        samtools stats /fast/users/helmsauk_c/scratch/PipelineTestingDir/Alignment/rms5-8-alignment/rms5-8.11492.ngmlr_hg19.sorted.bam > /fast/users/helmsauk_c/scratch/PipelineTestingDir/Alignment/rms5-8-alignment/rms5-8.11492.ngmlr_hg19.sorted.stats.txt
        
[Tue Apr 30 16:21:57 2019]
Finished job 0.
1 of 1 steps (100%) done
