Wildcard constraints in inputs are ignored.
Building DAG of jobs...
Using shell: /usr/bin/bash
Provided cores: 32
Rules claiming more threads will be scaled down.
Job counts:
	count	jobs
	1	ngmlr2genome
	1

[Tue Apr 30 16:09:35 2019]
rule ngmlr2genome:
    input: /fast/users/helmsauk_c/scratch/PipelineTestingDir/Basecalled/rms1-4-basecalled/demultiplexed/rms1-4.11410.fastq, /fast/projects/cubit/current/static_data/reference/hg19/ucsc/hg19.fa
    output: /fast/users/helmsauk_c/scratch/PipelineTestingDir/Alignment/rms1-4-alignment/rms1-4.11410.ngmlr_hg19.sam
    jobid: 0
    wildcards: run=rms1-4, runsample=rms1-4.11410

ngmlr -r /fast/projects/cubit/current/static_data/reference/hg19/ucsc/hg19.fa -q /fast/users/helmsauk_c/scratch/PipelineTestingDir/Basecalled/rms1-4-basecalled/demultiplexed/rms1-4.11410.fastq -o /fast/users/helmsauk_c/scratch/PipelineTestingDir/Alignment/rms1-4-alignment/rms1-4.11410.ngmlr_hg19.sam -x ont
ngmlr 0.2.7 (build: Mar  8 2019 09:29:16, start: 2019-04-30.16:09:35)
Contact: philipp.rescheneder@univie.ac.at
Opening for output (SAM): /fast/users/helmsauk_c/scratch/PipelineTestingDir/Alignment/rms1-4-alignment/rms1-4.11410.ngmlr_hg19.sam
Encoding reference sequence.
Size of reference genome 3101 Mbp (max. 68719 Mbp)
0 reference sequences were skipped (length < 10).
Writing encoded reference to /fast/projects/cubit/current/static_data/reference/hg19/ucsc/hg19.fa-enc.2.ngm
WARNING: Could not write encoded reference file to disk: Unable to open output file /fast/projects/cubit/current/static_data/reference/hg19/ucsc/hg19.fa-enc.2.ngm. Please check file permissions.
Building reference index #0 (kmer length: 13, reference skip: 2)
57552 prefixes were ignored due to the frequency cutoff (1000)
Overall time for creating RefTable: 400.55s
Writing reference index to /fast/projects/cubit/current/static_data/reference/hg19/ucsc/hg19.fa-ht-13-2.2.ngm
WARNING: Could not write reference index to disk: Error while opening file /fast/projects/cubit/current/static_data/reference/hg19/ucsc/hg19.fa-ht-13-2.2.ngm for writing. Please check file permissions.
Opening query file /fast/users/helmsauk_c/scratch/PipelineTestingDir/Basecalled/rms1-4-basecalled/demultiplexed/rms1-4.11410.fastq
Mapping reads...
Processed: 153 (0.86), R/S: 76.50, RL: 949, Time: 30.33 4.02 54.82, Align: 1.00, 307, 0.62
[A[2KProcessed: 261 (0.84), R/S: 65.24, RL: 1145, Time: 29.16 3.02 61.62, Align: 1.00, 304, 0.62
[A[2KProcessed: 460 (0.85), R/S: 76.66, RL: 1027, Time: 31.97 3.00 59.41, Align: 1.00, 306, 0.60
[A[2KProcessed: 512 (0.86), R/S: 63.99, RL: 1036, Time: 32.00 3.00 59.79, Align: 1.00, 303, 0.60
[A[2KProcessed: 512 (0.86), R/S: 63.99, RL: 1036, Time: 32.00 3.00 59.79, Align: 1.00, 303, 0.60
Done (439 reads mapped (85.74%), 73 reads not mapped, 567 lines written)(elapsed: 7m, 1 r/s)
[Tue Apr 30 16:16:53 2019]
Finished job 0.
1 of 1 steps (100%) done
