Wildcard constraints in inputs are ignored.
Building DAG of jobs...
Using shell: /usr/bin/bash
Provided cores: 32
Rules claiming more threads will be scaled down.
Job counts:
	count	jobs
	1	sniffles
	1

[Tue Apr 30 16:19:40 2019]
rule sniffles:
    input: /fast/users/helmsauk_c/scratch/PipelineTestingDir/Alignment/rms5-8-alignment/rms5-8.14419.ngmlr_hg19.sorted.bam
    output: /fast/users/helmsauk_c/scratch/PipelineTestingDir/SV/rms5-8-sv/rms5-8.14419.ngmlr_hg19.sorted.sniffles.vcf
    jobid: 0
    wildcards: run=rms5-8, alignment=rms5-8.14419.ngmlr_hg19

sniffles -m /fast/users/helmsauk_c/scratch/PipelineTestingDir/Alignment/rms5-8-alignment/rms5-8.14419.ngmlr_hg19.sorted.bam -v /fast/users/helmsauk_c/scratch/PipelineTestingDir/SV/rms5-8-sv/rms5-8.14419.ngmlr_hg19.sorted.sniffles.vcf
Estimating parameter...
	Max dist between aln events: 9
	Max diff in window: 50
	Min score ratio: 2
	Avg DEL ratio: 0.0409748
	Avg INS ratio: 0.024609
Start parsing... chr1
	Switch Chr chr10
	Switch Chr chr11
	Switch Chr chr12
	Switch Chr chr13
	Switch Chr chr14
	Switch Chr chr15
	Switch Chr chr16
	Switch Chr chr17
	Switch Chr chr18
	Switch Chr chr19
	Switch Chr chr2
	Switch Chr chr20
	Switch Chr chr21
	Switch Chr chr22
	Switch Chr chr3
	Switch Chr chr4
	Switch Chr chr5
	Switch Chr chr6
	Switch Chr chr7
	Switch Chr chr8
	Switch Chr chr9
	Switch Chr chrUn_gl000212
	Switch Chr chrUn_gl000220
	Switch Chr chrX
Finalizing  ..
[Tue Apr 30 16:19:40 2019]
Finished job 0.
1 of 1 steps (100%) done
