Wildcard constraints in inputs are ignored.
Building DAG of jobs...
Using shell: /usr/bin/bash
Provided cores: 32
Rules claiming more threads will be scaled down.
Job counts:
	count	jobs
	1	copynumber
	1

[Tue Apr 30 16:18:18 2019]
rule copynumber:
    input: /fast/users/helmsauk_c/scratch/PipelineTestingDir/Alignment/rms5-8-alignment/rms5-8.11492.minimap_hg19.sorted.bam
    output: /fast/users/helmsauk_c/scratch/PipelineTestingDir/CopyNumber/rms5-8-copynumber/rms5-8.11492.minimap_hg19.sorted.copynumber.pdf, /fast/users/helmsauk_c/scratch/PipelineTestingDir/CopyNumber/rms5-8-copynumber/rms5-8.11492.minimap_hg19.sorted.copynumber.Rdata
    jobid: 0
    wildcards: run=rms5-8, alignment=rms5-8.11492.minimap_hg19

Rscript cnprofile.R /fast/users/helmsauk_c/scratch/PipelineTestingDir/Alignment/rms5-8-alignment/rms5-8.11492.minimap_hg19.sorted.bam /fast/users/helmsauk_c/scratch/PipelineTestingDir/CopyNumber/rms5-8-copynumber/rms5-8.11492.minimap_hg19.sorted.copynumber.pdf /fast/users/helmsauk_c/scratch/PipelineTestingDir/CopyNumber/rms5-8-copynumber/rms5-8.11492.minimap_hg19.sorted.copynumber.Rdata
Activating conda environment: /fast/work/users/helmsauk_c/nano-wgs/.snakemake/conda/4a95a64c
Annotation package QDNAseq.hg19 not found.
Downloading bin annotations for genome hg19, bin size 1000kbp, and experiment type SR50 from URL http://qdnaseq-ireland.s3.amazonaws.com ...
    rms5-8.11492.minimap_hg19.sorted (1 of 1): extracting reads ... binning ...
Note: Residual filter missing for chromosomes: X
3,113	total bins
3,053	of which in selected chromosomes
2,888	of which with reference sequence
2,637	final bins
Calculating correction for GC content and mappability
    Calculating fit for sample rms5-8.11492.minimap_hg19.sorted (1 of 1) ...
Done.
Applying median normalization ...
Performing segmentation:
NA
Plotting sample rms5-8.11492.minimap_hg19.sorted (405 reads) (1 of 1) ...
null device 
          1 
[Tue Apr 30 16:19:23 2019]
Finished job 0.
1 of 1 steps (100%) done
