Wildcard constraints in inputs are ignored.
Building DAG of jobs...
Using shell: /usr/bin/bash
Provided cores: 32
Rules claiming more threads will be scaled down.
Job counts:
	count	jobs
	1	basecalling
	1

[Sun Apr 28 20:29:45 2019]
rule basecalling:
    input: /fast/users/helmsauk_c/scratch/Henssen_RMSPDX_NanoporeWGS_Feb2019/RawData/rms1-4/rms1-4/20190321_1613_MN29618_FAK26063_57f71edd/fast5/FAK26063_c43b4f04bea6b83dd6f6a7c038c84f9190b14d80_53.fast5
    output: /fast/users/helmsauk_c/scratch/Henssen_RMSPDX_NanoporeWGS_Feb2019/Basecalled/rms1-4-basecalled/sequencing_summary.txt, /fast/users/helmsauk_c/scratch/Henssen_RMSPDX_NanoporeWGS_Feb2019/Basecalled/rms1-4-basecalled/rms1-4-QC/rms1-4-NanoPlot-report.html
    jobid: 0
    wildcards: dataset=rms1-4

/fast/users/helmsauk_c/work/ont-guppy-cpu/bin//guppy_basecaller --num_callers 12 --qscore_filtering --min_qscore 10 --input_path /fast/users/helmsauk_c/scratch/Henssen_RMSPDX_NanoporeWGS_Feb2019/RawData/rms1-4/ --save_path /fast/users/helmsauk_c/scratch/Henssen_RMSPDX_NanoporeWGS_Feb2019/Basecalled/rms1-4-basecalled/ --flowcell FLO-MIN106 --kit SQK-RBK004 --recursive --
ONT Guppy basecalling software version 2.3.7+e041753
config file:        /fast/work/users/helmsauk_c/ont-guppy-cpu/data/dna_r9.4.1_450bps.cfg
model file:         /fast/work/users/helmsauk_c/ont-guppy-cpu/data/template_r9.4.1_450bps_fast_flipflop.jsn
input path:         /fast/users/helmsauk_c/scratch/Henssen_RMSPDX_NanoporeWGS_Feb2019/RawData/rms1-4/
save path:          /fast/users/helmsauk_c/scratch/Henssen_RMSPDX_NanoporeWGS_Feb2019/Basecalled/rms1-4-basecalled/
chunk size:         1000
chunks per runner:  20
minimum qscore:     10
records per file:   4000
num basecallers:    12
cpu mode:           ON
threads per caller: 1

Found 434 fast5 files to process.
Init time: 400 ms

0%   10   20   30   40   50   60   70   80   90   100%
|----|----|----|----|----|----|----|----|----|----|
